dsgnID,                totPower(uW),dynPower,statPower,                delay,pdp,edp,                useLUTs,useSlices,useCCs,                maxErrmag,avgErr,avgRelErr,                errOccur,maxErrOccur                ,remark
0,5044.678,,,,,,61,21,15,,,,,,accurate8x8_Vivado
1,5044.678,,,,,,44,15,11,,,,,,accurate8x8_PDTuD
2,,,,,,,38,11,8,,,,,,approximate8x8_PDTuD
