dsgnID,                totPower(uW),dynPower,statPower,                delay,pdp,edp,                useLUTs,useSlices,useCCs,                maxErrmag,avgErr,avgRelErr,                errOccur,maxErrOccur                ,remark
0,271177.375,,,,,,88,21,15,,,,,,accurate8x8_Vivado
1,264470.656,,,,,,40,15,11,,,,,,accurate8x8_PDTuD
2,264647.938,,,,,,37,11,8,,,,,,approximate8x8_PDTuD
