# compile vhdl design source files
vhdl xil_defaultlib  "../../../Gaussian_FIR_filter.srcs/sources_1/new/new_filter.vhd"
vhdl xil_defaultlib  "../../../Gaussian_FIR_filter.srcs/sources_1/new/top_tb.vhd"

# Do not sort compile order
nosort
