DSE for 2D Window FIR Filter based Gaussian Smoothing
Loading Multiplier Look-up table ...
Loading Multiplier designs point metrics ...
549 189 135
[2 2 1 2 1 2 2 1 2]
[2 1 2 2 1 1 2 1 1]
[1 1 1 2 1 1 2 2 1]
[1 2 1 1 2 1 1 1 2]
[2 1 2 2 2 2 2 1 2]
[1 1 1 1 2 1 2 2 2]
[1 2 1 2 2 1 2 1 1]
[2 1 1 1 2 2 1 1 1]
[2 1 2 2 1 2 2 1 2]
[1 1 1 1 1 2 1 2 1]
[1 1 1 1 1 1 2 2 1]
[2 2 1 1 2 1 1 2 1]
[1 1 1 1 1 2 2 2 1]
[1 1 2 2 2 2 1 2 1]
[2 2 2 1 1 2 2 2 1]
[1 1 1 1 2 2 2 2 1]
[2 2 1 1 1 2 1 2 2]
[1 2 1 1 1 1 2 2 1]
[1 1 2 2 2 1 1 1 1]
[1 1 1 1 2 1 2 2 2]
[1 1 1 2 1 2 1 2 2]
[2 2 2 2 1 2 2 2 2]
[2 2 1 1 2 2 1 2 2]
[2 1 2 1 2 1 1 2 2]
[1 2 2 2 1 2 2 1 2]
[2 2 1 2 1 1 2 2 2]
[2 2 1 1 2 2 1 1 1]
[1 1 1 1 1 1 1 2 1]
[2 1 2 1 2 1 2 2 1]
[2 2 2 1 1 1 1 1 1]
[1 1 2 1 1 1 2 1 2]
[1 1 1 1 2 2 2 2 1]
[2 2 2 2 1 2 2 2 1]
[1 2 1 1 1 1 1 2 2]
[1 1 1 2 1 1 2 1 1]
[1 1 2 1 1 2 2 1 2]
[2 2 2 2 2 1 1 2 2]
[2 1 1 1 2 1 2 2 1]
[2 2 2 2 1 2 1 2 2]
[1 1 2 1 1 1 1 1 1]
[2 2 2 2 1 2 1 2 2]
[1 1 2 2 2 2 1 1 1]
[2 1 1 2 1 1 1 2 1]
[2 2 1 1 2 1 1 1 2]
[2 2 2 1 2 2 1 1 1]
[2 2 1 2 1 1 2 2 1]
[2 1 2 1 2 1 2 2 1]
[2 2 2 1 2 2 1 1 1]
[1 1 1 1 2 1 2 1 2]
[1 2 2 2 2 2 1 2 1]
[2 2 1 1 2 1 1 1 2]
[2 2 1 2 1 2 2 1 1]
[2 1 2 1 2 2 2 1 1]
[2 1 2 2 1 2 1 2 2]
[1 2 1 2 1 1 2 1 1]
[1 2 2 1 2 2 1 1 1]
[1 1 2 1 2 2 1 2 2]
[2 1 2 2 1 1 2 2 1]
[1 2 2 2 1 1 1 2 2]
[1 2 1 2 2 2 1 2 1]
[1 1 2 1 1 1 1 1 1]
[2 2 1 1 1 2 1 2 2]
[2 1 2 1 2 2 1 1 1]
[2 1 1 2 1 1 1 1 2]
[1 1 2 2 2 1 1 1 2]
[2 2 2 1 2 1 2 2 1]
[1 1 1 2 2 1 2 1 2]
[2 2 1 2 1 2 1 2 1]
[1 1 2 1 2 2 2 1 2]
[1 2 1 2 1 2 2 2 1]
[1 2 2 1 1 1 1 1 1]
[1 1 2 2 1 1 1 1 1]
[1 1 1 1 2 2 1 1 1]
[2 2 2 2 2 1 1 2 2]
[2 2 1 2 1 2 2 2 2]
The population: [[2, 2, 1, 2, 1, 2, 2, 1, 2], [2, 1, 2, 2, 1, 1, 2, 1, 1], [1, 1, 1, 2, 1, 1, 2, 2, 1], [1, 2, 1, 1, 2, 1, 1, 1, 2], [2, 1, 2, 2, 2, 2, 2, 1, 2], [1, 1, 1, 1, 2, 1, 2, 2, 2], [1, 2, 1, 2, 2, 1, 2, 1, 1], [2, 1, 1, 1, 2, 2, 1, 1, 1], [2, 1, 2, 2, 1, 2, 2, 1, 2], [1, 1, 1, 1, 1, 2, 1, 2, 1], [1, 1, 1, 1, 1, 1, 2, 2, 1], [2, 2, 1, 1, 2, 1, 1, 2, 1], [1, 1, 1, 1, 1, 2, 2, 2, 1], [1, 1, 2, 2, 2, 2, 1, 2, 1], [2, 2, 2, 1, 1, 2, 2, 2, 1], [1, 1, 1, 1, 2, 2, 2, 2, 1], [2, 2, 1, 1, 1, 2, 1, 2, 2], [1, 2, 1, 1, 1, 1, 2, 2, 1], [1, 1, 2, 2, 2, 1, 1, 1, 1], [1, 1, 1, 1, 2, 1, 2, 2, 2], [1, 1, 1, 2, 1, 2, 1, 2, 2], [2, 2, 2, 2, 1, 2, 2, 2, 2], [2, 2, 1, 1, 2, 2, 1, 2, 2], [2, 1, 2, 1, 2, 1, 1, 2, 2], [1, 2, 2, 2, 1, 2, 2, 1, 2], [2, 2, 1, 2, 1, 1, 2, 2, 2], [2, 2, 1, 1, 2, 2, 1, 1, 1], [1, 1, 1, 1, 1, 1, 1, 2, 1], [2, 1, 2, 1, 2, 1, 2, 2, 1], [2, 2, 2, 1, 1, 1, 1, 1, 1], [1, 1, 2, 1, 1, 1, 2, 1, 2], [1, 1, 1, 1, 2, 2, 2, 2, 1], [2, 2, 2, 2, 1, 2, 2, 2, 1], [1, 2, 1, 1, 1, 1, 1, 2, 2], [1, 1, 1, 2, 1, 1, 2, 1, 1], [1, 1, 2, 1, 1, 2, 2, 1, 2], [2, 2, 2, 2, 2, 1, 1, 2, 2], [2, 1, 1, 1, 2, 1, 2, 2, 1], [2, 2, 2, 2, 1, 2, 1, 2, 2], [1, 1, 2, 1, 1, 1, 1, 1, 1], [2, 2, 2, 2, 1, 2, 1, 2, 2], [1, 1, 2, 2, 2, 2, 1, 1, 1], [2, 1, 1, 2, 1, 1, 1, 2, 1], [2, 2, 1, 1, 2, 1, 1, 1, 2], [2, 2, 2, 1, 2, 2, 1, 1, 1], [2, 2, 1, 2, 1, 1, 2, 2, 1], [2, 1, 2, 1, 2, 1, 2, 2, 1], [2, 2, 2, 1, 2, 2, 1, 1, 1], [1, 1, 1, 1, 2, 1, 2, 1, 2], [1, 2, 2, 2, 2, 2, 1, 2, 1], [2, 2, 1, 1, 2, 1, 1, 1, 2], [2, 2, 1, 2, 1, 2, 2, 1, 1], [2, 1, 2, 1, 2, 2, 2, 1, 1], [2, 1, 2, 2, 1, 2, 1, 2, 2], [1, 2, 1, 2, 1, 1, 2, 1, 1], [1, 2, 2, 1, 2, 2, 1, 1, 1], [1, 1, 2, 1, 2, 2, 1, 2, 2], [2, 1, 2, 2, 1, 1, 2, 2, 1], [1, 2, 2, 2, 1, 1, 1, 2, 2], [1, 2, 1, 2, 2, 2, 1, 2, 1], [1, 1, 2, 1, 1, 1, 1, 1, 1], [2, 2, 1, 1, 1, 2, 1, 2, 2], [2, 1, 2, 1, 2, 2, 1, 1, 1], [2, 1, 1, 2, 1, 1, 1, 1, 2], [1, 1, 2, 2, 2, 1, 1, 1, 2], [2, 2, 2, 1, 2, 1, 2, 2, 1], [1, 1, 1, 2, 2, 1, 2, 1, 2], [2, 2, 1, 2, 1, 2, 1, 2, 1], [1, 1, 2, 1, 2, 2, 2, 1, 2], [1, 2, 1, 2, 1, 2, 2, 2, 1], [1, 2, 2, 1, 1, 1, 1, 1, 1], [1, 1, 2, 2, 1, 1, 1, 1, 1], [1, 1, 1, 1, 2, 2, 1, 1, 1], [2, 2, 2, 2, 2, 1, 1, 2, 2], [2, 2, 1, 2, 1, 2, 2, 2, 2]]
Start of evolution
Individual:  [2, 2, 1, 2, 1, 2, 2, 1, 2]
Fitness: (0.6557377049180327, 0.9653539085432158)
Individual:  [2, 1, 2, 2, 1, 1, 2, 1, 1]
Fitness: (0.6775956284153005, 0.9654346361555494)
Individual:  [1, 1, 1, 2, 1, 1, 2, 2, 1]
Fitness: (0.6885245901639344, 0.9875178742234488)
Individual:  [1, 2, 1, 1, 2, 1, 1, 1, 2]
Fitness: (0.6885245901639344, 0.9767522824059164)
Individual:  [2, 1, 2, 2, 2, 2, 2, 1, 2]
Fitness: (0.644808743169399, 0.9444770777943513)
Individual:  [1, 1, 1, 1, 2, 1, 2, 2, 2]
Fitness: (0.6775956284153005, 0.967113252712653)
Individual:  [1, 2, 1, 2, 2, 1, 2, 1, 1]
Fitness: (0.6775956284153005, 0.9777334440862376)
Individual:  [2, 1, 1, 1, 2, 2, 1, 1, 1]
Fitness: (0.6885245901639344, 0.9773175321039325)
Individual:  [2, 1, 2, 2, 1, 2, 2, 1, 2]
Fitness: (0.6557377049180327, 0.9543546905738927)
Individual:  [1, 1, 1, 1, 1, 2, 1, 2, 1]
Fitness: (0.6994535519125683, 0.9996825262879171)
Individual:  [1, 1, 1, 1, 1, 1, 2, 2, 1]
Fitness: (0.6994535519125683, 0.9876505399313433)
Individual:  [2, 2, 1, 1, 2, 1, 1, 2, 1]
Fitness: (0.6775956284153005, 0.977249838303286)
Individual:  [1, 1, 1, 1, 1, 2, 2, 2, 1]
Fitness: (0.6885245901639344, 0.9875619887366386)
Individual:  [1, 1, 2, 2, 2, 2, 1, 2, 1]
Fitness: (0.6666666666666666, 0.9774579948681569)
Individual:  [2, 2, 2, 1, 1, 2, 2, 2, 1]
Fitness: (0.6557377049180327, 0.9654186984254974)
Individual:  [1, 1, 1, 1, 2, 2, 2, 2, 1]
Fitness: (0.6775956284153005, 0.9777925698209642)
Individual:  [2, 2, 1, 1, 1, 2, 1, 2, 2]
Fitness: (0.6666666666666666, 0.9782912754122299)
Individual:  [1, 2, 1, 1, 1, 1, 2, 2, 1]
Fitness: (0.6885245901639344, 0.9875663784317822)
Individual:  [1, 1, 2, 2, 2, 1, 1, 1, 1]
Fitness: (0.6885245901639344, 0.9777131237716052)
Individual:  [1, 1, 1, 1, 2, 1, 2, 2, 2]
Fitness: (0.6775956284153005, 0.967113252712653)
Individual:  [1, 1, 1, 2, 1, 2, 1, 2, 2]
Fitness: (0.6775956284153005, 0.9871843891784613)
Individual:  [2, 2, 2, 2, 1, 2, 2, 2, 2]
Fitness: (0.6338797814207651, 0.9543738025302042)
Individual:  [2, 2, 1, 1, 2, 2, 1, 2, 2]
Fitness: (0.6557377049180327, 0.9673623701420189)
Individual:  [2, 1, 2, 1, 2, 1, 1, 2, 2]
Fitness: (0.6666666666666666, 0.9549363556234409)
Individual:  [1, 2, 2, 2, 1, 2, 2, 1, 2]
Fitness: (0.6557377049180327, 0.9650563452253814)
Individual:  [2, 2, 1, 2, 1, 1, 2, 2, 2]
Fitness: (0.6557377049180327, 0.9654394799691762)
Individual:  [2, 2, 1, 1, 2, 2, 1, 1, 1]
Fitness: (0.6775956284153005, 0.977244159097639)
Individual:  [1, 1, 1, 1, 1, 1, 1, 2, 1]
Fitness: (0.7103825136612022, 0.9998329452188015)
Individual:  [2, 1, 2, 1, 2, 1, 2, 2, 1]
Fitness: (0.6666666666666666, 0.9560012318904494)
Individual:  [2, 2, 2, 1, 1, 1, 1, 1, 1]
Fitness: (0.6885245901639344, 0.9775167977368721)
Individual:  [1, 1, 2, 1, 1, 1, 2, 1, 2]
Fitness: (0.6885245901639344, 0.9652414599590105)
Individual:  [1, 1, 1, 1, 2, 2, 2, 2, 1]
Fitness: (0.6775956284153005, 0.9777925698209642)
Individual:  [2, 2, 2, 2, 1, 2, 2, 2, 1]
Fitness: (0.644808743169399, 0.965341750445625)
Individual:  [1, 2, 1, 1, 1, 1, 1, 2, 2]
Fitness: (0.6885245901639344, 0.9873674664430823)
Individual:  [1, 1, 1, 2, 1, 1, 2, 1, 1]
Fitness: (0.6994535519125683, 0.9875631642780716)
Individual:  [1, 1, 2, 1, 1, 2, 2, 1, 2]
Fitness: (0.6775956284153005, 0.9651149934562332)
Individual:  [2, 2, 2, 2, 2, 1, 1, 2, 2]
Fitness: (0.644808743169399, 0.9548820378008481)
Individual:  [2, 1, 1, 1, 2, 1, 2, 2, 1]
Fitness: (0.6775956284153005, 0.9644387759341574)
Individual:  [2, 2, 2, 2, 1, 2, 1, 2, 2]
Fitness: (0.644808743169399, 0.9650746685024355)
Individual:  [1, 1, 2, 1, 1, 1, 1, 1, 1]
Fitness: (0.7103825136612022, 0.9877199082727378)
Individual:  [2, 2, 2, 2, 1, 2, 1, 2, 2]
Fitness: (0.644808743169399, 0.9650746685024355)
Individual:  [1, 1, 2, 2, 2, 2, 1, 1, 1]
Fitness: (0.6775956284153005, 0.9775392371079591)
Individual:  [2, 1, 1, 2, 1, 1, 1, 2, 1]
Fitness: (0.6885245901639344, 0.9878211853970724)
Individual:  [2, 2, 1, 1, 2, 1, 1, 1, 2]
Fitness: (0.6775956284153005, 0.9676119022081585)
Individual:  [2, 2, 2, 1, 2, 2, 1, 1, 1]
Fitness: (0.6666666666666666, 0.967169736881463)
Individual:  [2, 2, 1, 2, 1, 1, 2, 2, 1]
Fitness: (0.6666666666666666, 0.9740904648411787)
Individual:  [2, 1, 2, 1, 2, 1, 2, 2, 1]
Fitness: (0.6666666666666666, 0.9560012318904494)
Individual:  [2, 2, 2, 1, 2, 2, 1, 1, 1]
Fitness: (0.6666666666666666, 0.967169736881463)
Individual:  [1, 1, 1, 1, 2, 1, 2, 1, 2]
Fitness: (0.6885245901639344, 0.9671556929988165)
Individual:  [1, 2, 2, 2, 2, 2, 1, 2, 1]
Fitness: (0.6557377049180327, 0.9773423194280642)
Individual:  [2, 2, 1, 1, 2, 1, 1, 1, 2]
Fitness: (0.6775956284153005, 0.9676119022081585)
Individual:  [2, 2, 1, 2, 1, 2, 2, 1, 1]
Fitness: (0.6666666666666666, 0.9740924116525947)
Individual:  [2, 1, 2, 1, 2, 2, 2, 1, 1]
Fitness: (0.6666666666666666, 0.9558887666519646)
Individual:  [2, 1, 2, 2, 1, 2, 1, 2, 2]
Fitness: (0.6557377049180327, 0.9650802199578771)
Individual:  [1, 2, 1, 2, 1, 1, 2, 1, 1]
Fitness: (0.6885245901639344, 0.9874867177449111)
Individual:  [1, 2, 2, 1, 2, 2, 1, 1, 1]
Fitness: (0.6775956284153005, 0.9774934542174549)
Individual:  [1, 1, 2, 1, 2, 2, 1, 2, 2]
Fitness: (0.6666666666666666, 0.9634518055404216)
Individual:  [2, 1, 2, 2, 1, 1, 2, 2, 1]
Fitness: (0.6666666666666666, 0.9654480125783503)
Individual:  [1, 2, 2, 2, 1, 1, 1, 2, 2]
Fitness: (0.6666666666666666, 0.9734277834468494)
Individual:  [1, 2, 1, 2, 2, 2, 1, 2, 1]
Fitness: (0.6666666666666666, 0.9883841500800299)
Individual:  [1, 1, 2, 1, 1, 1, 1, 1, 1]
Fitness: (0.7103825136612022, 0.9877199082727378)
Individual:  [2, 2, 1, 1, 1, 2, 1, 2, 2]
Fitness: (0.6666666666666666, 0.9782912754122299)
Individual:  [2, 1, 2, 1, 2, 2, 1, 1, 1]
Fitness: (0.6775956284153005, 0.967159084710267)
Individual:  [2, 1, 1, 2, 1, 1, 1, 1, 2]
Fitness: (0.6885245901639344, 0.9784314991604395)
Individual:  [1, 1, 2, 2, 2, 1, 1, 1, 2]
Fitness: (0.6775956284153005, 0.9636093305679018)
Individual:  [2, 2, 2, 1, 2, 1, 2, 2, 1]
Fitness: (0.6557377049180327, 0.9560047681012797)
Individual:  [1, 1, 1, 2, 2, 1, 2, 1, 2]
Fitness: (0.6775956284153005, 0.9670056531326588)
Individual:  [2, 2, 1, 2, 1, 2, 1, 2, 1]
Fitness: (0.6666666666666666, 0.9876405256766171)
Individual:  [1, 1, 2, 1, 2, 2, 2, 1, 2]
Fitness: (0.6666666666666666, 0.9555969697389098)
Individual:  [1, 2, 1, 2, 1, 2, 2, 2, 1]
Fitness: (0.6666666666666666, 0.9873327909198572)
Individual:  [1, 2, 2, 1, 1, 1, 1, 1, 1]
Fitness: (0.6994535519125683, 0.9876669479779244)
Individual:  [1, 1, 2, 2, 1, 1, 1, 1, 1]
Fitness: (0.6994535519125683, 0.9876671353481647)
Individual:  [1, 1, 1, 1, 2, 2, 1, 1, 1]
Fitness: (0.6994535519125683, 0.9887772940187262)
Individual:  [2, 2, 2, 2, 2, 1, 1, 2, 2]
Fitness: (0.644808743169399, 0.9548820378008481)
Individual:  [2, 2, 1, 2, 1, 2, 2, 2, 2]
Fitness: (0.644808743169399, 0.9653271332715732)
  Evaluated 75 individuals
-- Generation 1 --
  Evaluated 43 individuals
The population: [[2, 1, 2, 2, 2, 2, 1, 2, 2], [1, 2, 1, 2, 1, 2, 2, 1, 2], [2, 2, 1, 2, 1, 2, 1, 2, 2], [1, 2, 1, 1, 1, 1, 1, 2, 2], [2, 2, 1, 2, 1, 2, 2, 2, 2], [2, 2, 1, 2, 1, 1, 2, 1, 2], [2, 2, 1, 1, 2, 2, 1, 2, 2], [1, 2, 1, 2, 1, 2, 2, 2, 1], [2, 2, 2, 2, 1, 1, 1, 2, 2], [1, 2, 1, 2, 1, 1, 2, 2, 2], [2, 1, 1, 1, 2, 1, 2, 2, 1], [2, 2, 2, 1, 2, 1, 2, 2, 1], [2, 1, 2, 1, 2, 2, 1, 2, 2], [2, 2, 1, 1, 2, 1, 2, 2, 1], [2, 2, 1, 2, 2, 2, 2, 1, 2], [2, 1, 2, 1, 1, 1, 2, 2, 1], [1, 1, 2, 1, 1, 2, 2, 1, 2], [2, 2, 2, 2, 1, 2, 1, 2, 2], [2, 2, 2, 1, 2, 1, 2, 2, 1], [2, 1, 2, 2, 1, 2, 1, 2, 2], [1, 1, 1, 1, 2, 2, 2, 2, 1], [2, 2, 2, 2, 1, 2, 1, 2, 2], [2, 2, 2, 2, 1, 2, 2, 2, 2], [2, 2, 2, 2, 1, 2, 1, 2, 2], [2, 2, 2, 1, 1, 2, 2, 2, 2], [2, 2, 1, 1, 1, 2, 1, 2, 1], [2, 2, 2, 2, 1, 2, 2, 2, 2], [2, 2, 2, 2, 1, 2, 2, 2, 1], [1, 1, 1, 1, 2, 1, 1, 2, 2], [2, 2, 2, 2, 1, 2, 2, 2, 2], [2, 2, 2, 2, 2, 2, 1, 2, 2], [1, 1, 2, 2, 1, 2, 1, 2, 1], [1, 1, 2, 2, 2, 1, 1, 1, 2], [1, 2, 2, 2, 2, 2, 1, 2, 1], [2, 1, 2, 1, 1, 2, 1, 1, 1], [2, 1, 2, 2, 1, 2, 1, 2, 2], [2, 2, 2, 2, 1, 2, 2, 2, 2], [2, 2, 1, 2, 1, 2, 1, 2, 1], [1, 1, 2, 1, 1, 2, 2, 1, 2], [2, 2, 2, 2, 1, 2, 1, 2, 2], [2, 2, 2, 2, 1, 2, 2, 2, 1], [1, 1, 2, 2, 2, 2, 1, 2, 1], [2, 1, 2, 1, 2, 1, 2, 2, 1], [2, 2, 2, 1, 2, 2, 1, 1, 2], [2, 1, 1, 1, 2, 2, 2, 2, 1], [2, 2, 1, 1, 2, 2, 1, 1, 2], [2, 2, 2, 1, 1, 2, 2, 2, 1], [1, 2, 2, 2, 2, 2, 1, 2, 1], [2, 1, 2, 1, 2, 2, 1, 1, 1], [1, 2, 1, 1, 2, 2, 2, 2, 1], [2, 2, 1, 2, 2, 2, 1, 2, 2], [1, 2, 2, 2, 1, 2, 2, 1, 1], [2, 1, 2, 2, 1, 2, 1, 2, 2], [2, 2, 2, 2, 2, 1, 1, 2, 2], [2, 1, 2, 1, 2, 2, 2, 1, 1], [2, 2, 2, 2, 1, 2, 1, 2, 2], [2, 2, 2, 1, 2, 1, 2, 2, 1], [1, 2, 2, 2, 1, 1, 1, 2, 2], [1, 2, 1, 1, 2, 2, 2, 1, 2], [2, 1, 2, 2, 1, 1, 1, 1, 2], [2, 1, 2, 2, 2, 2, 2, 1, 2], [2, 1, 2, 1, 2, 1, 1, 2, 2], [2, 2, 1, 2, 1, 2, 2, 2, 2], [1, 2, 2, 2, 1, 2, 2, 2, 1], [2, 1, 2, 2, 1, 1, 2, 1, 1], [2, 1, 2, 2, 1, 2, 1, 2, 2], [1, 2, 2, 1, 2, 1, 2, 2, 1], [2, 2, 2, 1, 2, 2, 1, 1, 1], [2, 2, 2, 2, 1, 2, 2, 2, 1], [2, 2, 2, 2, 1, 2, 2, 2, 2], [2, 1, 2, 2, 2, 2, 2, 1, 2], [2, 1, 2, 2, 2, 2, 1, 2, 1], [1, 2, 2, 2, 2, 2, 1, 2, 1], [1, 2, 1, 2, 2, 2, 1, 2, 1], [1, 2, 2, 2, 1, 1, 1, 2, 2]]
-- Generation 2 --
  Evaluated 28 individuals
The population: [[1, 2, 2, 2, 1, 1, 2, 2, 1], [1, 2, 1, 2, 1, 2, 2, 2, 2], [1, 2, 2, 1, 2, 1, 2, 2, 1], [2, 2, 2, 2, 2, 2, 1, 2, 1], [1, 2, 1, 2, 1, 1, 1, 1, 2], [2, 2, 1, 2, 2, 2, 1, 2, 2], [2, 2, 2, 1, 2, 1, 2, 2, 1], [2, 2, 2, 2, 1, 2, 2, 2, 2], [2, 1, 2, 2, 1, 2, 1, 2, 2], [2, 2, 2, 2, 2, 2, 1, 2, 2], [2, 2, 2, 2, 1, 2, 2, 2, 2], [2, 2, 2, 1, 2, 1, 2, 2, 1], [2, 1, 2, 2, 2, 2, 2, 1, 2], [2, 2, 2, 2, 1, 2, 1, 2, 2], [2, 2, 2, 2, 2, 2, 1, 2, 2], [1, 2, 2, 2, 1, 2, 2, 2, 1], [2, 2, 2, 2, 1, 2, 2, 2, 2], [2, 1, 2, 2, 1, 2, 1, 2, 2], [2, 1, 2, 2, 1, 2, 2, 1, 2], [2, 2, 2, 2, 2, 1, 1, 2, 2], [2, 2, 1, 2, 2, 2, 1, 2, 2], [2, 1, 2, 2, 1, 2, 1, 2, 2], [2, 2, 2, 2, 2, 1, 1, 2, 2], [1, 2, 2, 2, 2, 2, 1, 2, 1], [2, 1, 2, 2, 1, 2, 1, 2, 2], [2, 2, 2, 2, 1, 2, 2, 2, 2], [1, 2, 1, 2, 2, 2, 1, 2, 2], [2, 1, 2, 2, 1, 2, 1, 2, 1], [2, 2, 2, 1, 2, 2, 1, 2, 2], [2, 2, 1, 2, 2, 1, 2, 2, 1], [1, 2, 2, 2, 1, 2, 1, 2, 1], [2, 1, 2, 2, 2, 1, 1, 1, 1], [2, 2, 2, 2, 2, 2, 1, 2, 2], [2, 2, 2, 2, 1, 2, 1, 2, 2], [2, 2, 1, 2, 1, 2, 2, 2, 2], [2, 2, 2, 2, 1, 2, 2, 2, 2], [2, 2, 1, 2, 2, 2, 2, 1, 2], [2, 2, 1, 1, 2, 1, 2, 2, 1], [2, 2, 2, 2, 1, 2, 2, 2, 1], [2, 2, 1, 2, 2, 2, 2, 1, 2], [2, 2, 2, 2, 1, 2, 2, 2, 1], [2, 1, 2, 2, 2, 2, 1, 2, 2], [2, 1, 2, 2, 1, 1, 2, 2, 2], [2, 2, 2, 2, 1, 2, 2, 2, 1], [2, 2, 1, 2, 1, 2, 2, 2, 2], [2, 2, 2, 2, 1, 2, 2, 2, 1], [2, 2, 2, 1, 1, 2, 2, 2, 2], [1, 1, 1, 2, 2, 2, 1, 2, 2], [2, 2, 1, 2, 1, 2, 2, 2, 2], [2, 2, 2, 2, 1, 2, 1, 2, 2], [2, 1, 2, 1, 2, 2, 1, 2, 2], [2, 2, 2, 2, 1, 2, 2, 2, 2], [2, 2, 2, 2, 1, 2, 2, 2, 2], [2, 2, 2, 2, 1, 2, 2, 2, 2], [2, 2, 1, 2, 2, 2, 1, 2, 2], [2, 2, 1, 2, 2, 2, 1, 2, 2], [2, 2, 2, 1, 2, 2, 1, 1, 2], [2, 2, 2, 2, 1, 2, 2, 2, 2], [1, 2, 1, 1, 2, 2, 2, 1, 2], [2, 2, 2, 2, 1, 2, 2, 2, 1], [2, 2, 2, 2, 1, 2, 2, 2, 2], [2, 2, 2, 2, 1, 2, 2, 2, 1], [2, 2, 2, 2, 1, 2, 2, 2, 2], [2, 2, 2, 2, 2, 2, 1, 2, 2], [2, 2, 2, 2, 1, 2, 2, 2, 1], [2, 2, 2, 2, 1, 2, 2, 2, 2], [2, 2, 2, 2, 1, 2, 1, 2, 2], [2, 2, 2, 2, 1, 2, 1, 2, 2], [2, 1, 2, 2, 1, 2, 1, 2, 2], [1, 1, 1, 1, 1, 2, 1, 1, 2], [2, 1, 2, 2, 1, 2, 1, 2, 2], [1, 2, 2, 2, 1, 2, 2, 2, 1], [2, 2, 2, 2, 1, 2, 2, 2, 2], [2, 2, 2, 2, 2, 1, 1, 2, 2], [2, 2, 2, 2, 1, 1, 1, 2, 2]]
-- Generation 3 --
  Evaluated 36 individuals
The population: [[2, 2, 2, 2, 1, 2, 2, 2, 1], [2, 2, 2, 2, 2, 2, 1, 2, 1], [2, 2, 2, 2, 2, 2, 1, 2, 2], [2, 2, 2, 2, 1, 2, 2, 2, 1], [2, 2, 2, 2, 1, 2, 2, 2, 2], [2, 2, 2, 2, 1, 2, 1, 2, 2], [2, 2, 2, 2, 1, 2, 2, 2, 2], [2, 2, 2, 2, 1, 2, 2, 2, 2], [2, 2, 2, 2, 2, 2, 1, 2, 2], [2, 2, 2, 2, 1, 2, 2, 2, 1], [2, 2, 2, 1, 1, 2, 2, 1, 2], [2, 2, 2, 2, 1, 2, 2, 2, 1], [2, 2, 2, 2, 1, 2, 2, 2, 1], [2, 2, 2, 2, 1, 2, 2, 2, 1], [2, 2, 2, 2, 1, 1, 2, 1, 2], [2, 2, 2, 1, 2, 1, 2, 1, 2], [2, 2, 2, 2, 2, 2, 2, 2, 2], [2, 2, 1, 2, 1, 2, 1, 2, 2], [2, 2, 2, 2, 2, 2, 1, 2, 2], [2, 2, 2, 2, 1, 2, 2, 2, 2], [2, 2, 1, 2, 2, 2, 1, 2, 2], [2, 2, 2, 2, 2, 2, 1, 2, 2], [2, 2, 1, 2, 2, 2, 1, 2, 2], [2, 2, 2, 2, 1, 2, 2, 2, 2], [2, 1, 2, 2, 1, 2, 2, 2, 1], [2, 2, 2, 2, 1, 2, 2, 1, 2], [2, 2, 2, 2, 1, 2, 2, 2, 1], [2, 2, 2, 2, 1, 2, 2, 2, 2], [2, 2, 2, 2, 1, 2, 2, 2, 1], [2, 2, 2, 2, 2, 2, 1, 2, 2], [2, 2, 2, 2, 1, 2, 2, 2, 2], [2, 2, 2, 2, 1, 2, 1, 2, 2], [2, 2, 1, 2, 2, 2, 1, 2, 2], [2, 1, 2, 2, 2, 2, 1, 2, 2], [2, 1, 2, 2, 2, 2, 1, 2, 2], [2, 2, 1, 2, 2, 2, 1, 2, 2], [2, 2, 2, 2, 1, 2, 1, 2, 2], [2, 2, 1, 2, 2, 2, 1, 2, 2], [1, 1, 1, 2, 1, 2, 2, 2, 1], [1, 2, 1, 2, 1, 1, 1, 2, 2], [1, 1, 2, 2, 2, 1, 1, 1, 2], [2, 2, 2, 2, 1, 2, 2, 2, 2], [2, 2, 2, 2, 1, 2, 2, 2, 2], [2, 2, 2, 2, 2, 2, 1, 2, 2], [2, 2, 2, 2, 1, 2, 2, 2, 2], [2, 2, 2, 2, 1, 2, 1, 2, 2], [2, 2, 2, 2, 1, 2, 2, 2, 1], [2, 2, 2, 2, 2, 2, 2, 1, 2], [2, 2, 2, 2, 1, 2, 2, 2, 1], [2, 2, 2, 2, 1, 2, 2, 2, 1], [2, 2, 2, 2, 2, 1, 1, 2, 2], [2, 2, 1, 2, 1, 2, 2, 2, 2], [2, 2, 2, 2, 2, 2, 1, 2, 1], [2, 2, 2, 2, 1, 2, 2, 2, 2], [2, 2, 1, 2, 1, 2, 1, 2, 1], [2, 2, 2, 2, 1, 2, 2, 2, 2], [2, 2, 2, 2, 2, 2, 1, 2, 2], [2, 2, 2, 2, 1, 2, 2, 2, 1], [2, 2, 2, 2, 1, 2, 2, 2, 2], [2, 2, 2, 2, 1, 2, 2, 2, 1], [2, 2, 2, 2, 1, 2, 2, 2, 2], [2, 2, 2, 2, 1, 2, 1, 2, 1], [1, 1, 1, 2, 2, 1, 2, 1, 2], [2, 2, 2, 2, 1, 2, 2, 2, 2], [2, 2, 1, 2, 2, 2, 1, 2, 1], [2, 2, 2, 2, 1, 2, 2, 2, 2], [2, 1, 2, 2, 1, 2, 1, 2, 2], [2, 1, 1, 1, 2, 2, 1, 1, 1], [2, 2, 2, 2, 1, 2, 2, 2, 1], [2, 2, 2, 2, 1, 2, 2, 2, 2], [2, 2, 2, 2, 1, 2, 2, 2, 2], [2, 2, 2, 2, 1, 2, 2, 2, 2], [2, 2, 2, 2, 1, 2, 2, 2, 2], [2, 2, 2, 2, 1, 2, 2, 2, 2], [2, 1, 2, 2, 2, 2, 2, 1, 2]]
-- Generation 4 --
  Evaluated 40 individuals
The population: [[2, 2, 2, 2, 1, 2, 2, 2, 2], [2, 2, 2, 2, 1, 2, 2, 2, 2], [2, 2, 2, 2, 1, 2, 2, 2, 1], [2, 2, 2, 2, 1, 2, 2, 2, 2], [2, 2, 2, 2, 1, 2, 1, 2, 2], [2, 2, 2, 2, 2, 2, 2, 2, 2], [2, 2, 2, 2, 1, 2, 2, 2, 2], [2, 2, 1, 2, 2, 2, 1, 2, 2], [2, 2, 1, 2, 2, 2, 1, 2, 2], [2, 2, 2, 2, 1, 2, 2, 2, 2], [2, 2, 2, 2, 1, 2, 2, 2, 2], [2, 2, 2, 2, 1, 2, 2, 2, 2], [2, 2, 2, 2, 2, 2, 1, 2, 2], [2, 2, 2, 2, 2, 2, 1, 2, 1], [1, 2, 1, 2, 1, 2, 2, 2, 1], [2, 2, 2, 2, 2, 2, 2, 2, 2], [2, 2, 2, 2, 1, 2, 2, 2, 1], [2, 2, 2, 2, 1, 2, 2, 2, 2], [2, 2, 2, 2, 1, 2, 2, 2, 2], [2, 2, 2, 2, 1, 2, 2, 2, 1], [2, 1, 2, 2, 2, 2, 2, 1, 2], [2, 2, 1, 2, 2, 2, 1, 2, 2], [2, 2, 2, 2, 1, 2, 2, 2, 2], [2, 2, 2, 2, 2, 2, 1, 2, 1], [1, 2, 2, 1, 2, 1, 2, 2, 2], [2, 2, 2, 2, 2, 2, 1, 2, 2], [2, 2, 2, 2, 1, 2, 2, 2, 1], [2, 2, 2, 2, 1, 2, 2, 2, 2], [2, 2, 2, 2, 1, 2, 2, 2, 1], [2, 2, 2, 2, 1, 2, 2, 2, 2], [2, 2, 2, 2, 1, 2, 2, 2, 2], [2, 2, 2, 2, 2, 2, 1, 2, 2], [2, 2, 2, 2, 2, 2, 2, 2, 2], [2, 2, 2, 2, 1, 2, 2, 2, 2], [2, 2, 2, 2, 2, 2, 1, 2, 2], [2, 2, 2, 2, 1, 2, 2, 2, 2], [2, 2, 2, 2, 2, 2, 1, 2, 2], [2, 2, 2, 2, 1, 2, 2, 2, 2], [2, 2, 2, 2, 1, 2, 2, 2, 1], [2, 2, 2, 2, 2, 2, 1, 2, 2], [2, 2, 1, 2, 2, 2, 1, 2, 2], [2, 2, 2, 2, 1, 2, 2, 2, 2], [2, 2, 2, 2, 1, 2, 2, 2, 2], [2, 2, 2, 2, 1, 2, 2, 2, 2], [2, 2, 2, 2, 2, 2, 2, 1, 2], [2, 2, 2, 2, 1, 2, 2, 2, 2], [2, 2, 2, 2, 1, 2, 2, 2, 1], [1, 2, 1, 1, 2, 1, 2, 1, 1], [2, 2, 2, 2, 1, 2, 2, 2, 2], [2, 2, 2, 2, 1, 2, 2, 2, 2], [2, 2, 2, 2, 2, 2, 2, 2, 2], [2, 2, 1, 1, 1, 2, 2, 2, 2], [2, 2, 2, 2, 1, 2, 2, 2, 2], [2, 2, 2, 2, 2, 2, 1, 2, 2], [2, 2, 2, 2, 1, 2, 2, 2, 2], [2, 2, 1, 1, 2, 2, 2, 1, 2], [1, 2, 1, 2, 2, 2, 2, 1, 1], [2, 2, 2, 2, 1, 2, 2, 2, 2], [2, 2, 2, 2, 1, 2, 2, 2, 1], [2, 2, 2, 2, 1, 2, 2, 2, 2], [1, 2, 2, 1, 1, 2, 1, 2, 2], [2, 2, 2, 2, 1, 2, 2, 2, 1], [2, 2, 2, 2, 1, 2, 2, 2, 2], [2, 2, 2, 2, 1, 2, 2, 2, 2], [2, 2, 1, 2, 2, 2, 1, 2, 2], [2, 2, 2, 2, 1, 2, 2, 2, 2], [2, 2, 1, 2, 2, 2, 1, 2, 2], [2, 2, 2, 2, 2, 2, 1, 2, 2], [2, 2, 2, 2, 2, 2, 1, 2, 2], [2, 2, 2, 2, 1, 2, 2, 2, 1], [2, 2, 2, 2, 1, 2, 2, 2, 2], [2, 2, 2, 2, 1, 2, 2, 2, 1], [2, 2, 2, 2, 1, 2, 2, 2, 2], [2, 2, 2, 2, 1, 2, 2, 2, 2], [2, 2, 2, 2, 1, 2, 2, 2, 1]]
-- Generation 5 --
  Evaluated 38 individuals
The population: [[2, 2, 2, 2, 2, 2, 2, 2, 2], [2, 2, 2, 2, 1, 2, 1, 2, 2], [2, 1, 2, 2, 1, 1, 2, 2, 1], [2, 2, 2, 2, 1, 2, 2, 2, 2], [2, 2, 1, 2, 2, 2, 1, 2, 2], [2, 2, 2, 2, 2, 2, 1, 2, 2], [2, 2, 2, 2, 1, 2, 2, 2, 2], [2, 2, 2, 1, 1, 2, 2, 1, 2], [2, 2, 2, 2, 1, 2, 2, 2, 2], [2, 1, 1, 1, 2, 2, 2, 2, 1], [2, 2, 2, 2, 2, 2, 1, 2, 2], [1, 1, 1, 2, 1, 1, 1, 1, 2], [2, 2, 2, 2, 1, 2, 2, 2, 2], [2, 2, 2, 2, 1, 2, 2, 2, 2], [2, 2, 2, 2, 1, 2, 2, 2, 1], [2, 2, 2, 2, 1, 2, 2, 2, 2], [2, 2, 2, 2, 2, 2, 2, 2, 2], [2, 2, 2, 2, 2, 2, 1, 2, 2], [2, 2, 2, 2, 2, 2, 2, 2, 2], [2, 2, 2, 2, 1, 2, 1, 2, 2], [2, 2, 2, 2, 2, 2, 1, 2, 2], [2, 2, 2, 2, 1, 2, 2, 2, 2], [2, 2, 2, 2, 1, 2, 1, 2, 2], [2, 2, 2, 2, 2, 2, 2, 2, 2], [2, 2, 2, 2, 1, 2, 2, 2, 2], [2, 2, 2, 2, 1, 2, 2, 2, 2], [2, 2, 1, 2, 2, 2, 2, 1, 2], [2, 2, 2, 2, 2, 2, 1, 2, 2], [2, 2, 2, 2, 2, 2, 1, 2, 2], [2, 2, 2, 2, 1, 2, 2, 2, 2], [2, 2, 2, 2, 2, 2, 1, 2, 2], [2, 2, 2, 2, 2, 2, 2, 2, 2], [2, 2, 2, 2, 2, 2, 1, 2, 2], [2, 2, 2, 2, 1, 2, 2, 2, 2], [2, 2, 2, 2, 1, 2, 2, 2, 2], [2, 2, 2, 2, 2, 2, 1, 2, 2], [2, 2, 2, 2, 1, 2, 2, 2, 2], [2, 2, 2, 2, 1, 2, 2, 2, 2], [1, 1, 1, 1, 2, 1, 2, 1, 1], [2, 2, 2, 2, 1, 2, 2, 2, 2], [2, 2, 2, 2, 1, 2, 2, 2, 1], [2, 2, 2, 2, 1, 2, 2, 2, 2], [2, 2, 2, 2, 1, 2, 2, 2, 2], [2, 2, 2, 2, 1, 2, 2, 2, 2], [2, 2, 2, 2, 2, 2, 1, 2, 2], [2, 2, 2, 2, 1, 2, 2, 2, 2], [2, 2, 2, 2, 2, 2, 1, 2, 2], [2, 2, 2, 2, 1, 2, 2, 2, 2], [2, 2, 2, 2, 2, 2, 2, 2, 2], [2, 2, 2, 2, 2, 2, 2, 2, 2], [1, 2, 2, 2, 2, 2, 1, 1, 2], [2, 2, 2, 2, 2, 2, 1, 2, 2], [2, 2, 2, 2, 1, 2, 2, 2, 2], [2, 2, 2, 2, 1, 2, 2, 2, 2], [2, 2, 2, 2, 1, 2, 2, 2, 2], [2, 2, 2, 2, 2, 2, 1, 2, 2], [2, 2, 2, 2, 2, 2, 2, 2, 2], [2, 2, 2, 2, 2, 2, 1, 2, 2], [2, 2, 2, 2, 2, 2, 1, 2, 2], [2, 2, 2, 2, 2, 2, 2, 2, 2], [2, 2, 2, 2, 1, 2, 2, 2, 2], [2, 2, 2, 2, 1, 2, 2, 2, 2], [2, 2, 2, 2, 2, 2, 2, 2, 2], [2, 2, 2, 2, 2, 2, 1, 2, 2], [2, 2, 2, 2, 1, 2, 2, 2, 2], [2, 2, 2, 2, 1, 2, 2, 2, 2], [2, 2, 2, 2, 1, 2, 2, 2, 2], [2, 2, 2, 2, 1, 2, 2, 2, 2], [2, 2, 2, 2, 2, 2, 2, 2, 2], [2, 2, 2, 2, 1, 2, 2, 2, 2], [2, 2, 2, 2, 1, 2, 2, 2, 2], [2, 2, 2, 2, 1, 2, 2, 2, 2], [2, 2, 2, 2, 2, 2, 1, 2, 2], [2, 2, 2, 2, 1, 2, 2, 2, 2], [2, 2, 2, 2, 1, 2, 2, 2, 2]]
-- Generation 6 --
  Evaluated 53 individuals
The population: [[2, 2, 2, 2, 1, 2, 2, 2, 2], [2, 2, 2, 2, 2, 2, 2, 2, 2], [1, 1, 2, 2, 2, 2, 1, 2, 1], [2, 2, 2, 2, 2, 2, 1, 2, 2], [2, 2, 2, 2, 2, 2, 1, 2, 2], [2, 2, 2, 2, 2, 2, 1, 2, 2], [2, 2, 2, 2, 1, 2, 2, 2, 2], [2, 2, 2, 2, 2, 2, 2, 2, 2], [2, 1, 2, 2, 2, 2, 2, 2, 1], [2, 2, 2, 2, 2, 2, 2, 2, 2], [2, 2, 2, 2, 2, 2, 2, 2, 2], [2, 2, 2, 2, 2, 2, 2, 2, 2], [2, 2, 2, 2, 1, 2, 2, 2, 2], [2, 2, 2, 2, 1, 2, 2, 2, 2], [2, 2, 2, 2, 1, 2, 2, 2, 2], [2, 2, 2, 2, 2, 2, 2, 2, 2], [2, 1, 1, 2, 1, 2, 2, 1, 2], [2, 2, 2, 2, 1, 2, 2, 2, 2], [2, 2, 2, 2, 2, 2, 2, 2, 2], [2, 2, 2, 2, 2, 2, 1, 2, 2], [2, 2, 2, 2, 1, 2, 2, 2, 2], [2, 2, 2, 2, 2, 2, 2, 2, 2], [2, 2, 2, 2, 2, 2, 1, 2, 2], [1, 2, 1, 2, 2, 2, 1, 2, 1], [2, 2, 2, 2, 1, 2, 2, 2, 2], [2, 2, 2, 2, 1, 2, 2, 2, 2], [2, 2, 2, 2, 2, 2, 2, 2, 2], [2, 2, 2, 2, 2, 2, 2, 2, 2], [2, 2, 2, 2, 1, 2, 2, 2, 2], [2, 2, 2, 1, 1, 1, 1, 1, 2], [2, 2, 2, 2, 2, 2, 1, 2, 2], [2, 2, 2, 2, 2, 2, 2, 2, 2], [2, 2, 2, 2, 2, 2, 1, 2, 2], [2, 2, 2, 2, 2, 2, 2, 2, 2], [2, 2, 2, 2, 2, 2, 2, 2, 2], [2, 2, 2, 2, 2, 2, 1, 2, 2], [1, 1, 2, 2, 1, 2, 1, 2, 2], [2, 2, 2, 2, 2, 2, 1, 2, 2], [2, 2, 2, 2, 2, 2, 1, 2, 2], [2, 2, 2, 2, 2, 2, 2, 2, 2], [2, 2, 2, 2, 1, 2, 2, 2, 2], [2, 2, 2, 2, 2, 2, 2, 2, 2], [2, 2, 2, 2, 2, 2, 1, 2, 2], [2, 2, 2, 2, 2, 2, 1, 2, 2], [2, 2, 2, 2, 2, 2, 2, 2, 2], [2, 2, 2, 2, 2, 2, 2, 2, 2], [2, 2, 2, 2, 2, 2, 2, 2, 2], [2, 2, 2, 2, 2, 2, 2, 2, 2], [1, 1, 1, 2, 1, 2, 2, 1, 1], [2, 2, 2, 2, 2, 2, 2, 2, 2], [2, 2, 2, 2, 1, 2, 2, 2, 2], [2, 2, 2, 2, 2, 2, 2, 2, 2], [2, 2, 2, 2, 1, 2, 2, 2, 2], [2, 2, 2, 2, 2, 2, 1, 2, 2], [2, 2, 2, 2, 2, 2, 1, 2, 2], [2, 2, 2, 2, 2, 2, 2, 2, 2], [2, 2, 2, 2, 2, 2, 2, 2, 2], [2, 2, 2, 2, 2, 2, 2, 2, 1], [1, 2, 2, 2, 2, 2, 2, 2, 1], [2, 1, 1, 1, 1, 1, 1, 2, 2], [2, 2, 2, 2, 2, 2, 1, 2, 2], [2, 2, 2, 2, 2, 2, 1, 2, 2], [2, 2, 2, 2, 2, 2, 1, 2, 2], [2, 2, 2, 2, 2, 2, 2, 2, 2], [2, 2, 2, 2, 1, 2, 2, 2, 2], [2, 2, 2, 2, 2, 2, 1, 2, 2], [2, 1, 2, 1, 2, 1, 1, 1, 1], [2, 2, 2, 2, 2, 2, 1, 2, 2], [2, 2, 2, 2, 2, 2, 2, 2, 2], [2, 1, 2, 2, 1, 2, 2, 2, 2], [2, 2, 2, 2, 2, 2, 1, 2, 2], [2, 2, 2, 2, 2, 2, 2, 2, 2], [1, 2, 1, 2, 2, 1, 1, 2, 1], [2, 2, 2, 2, 1, 2, 2, 2, 2], [2, 2, 2, 2, 2, 2, 1, 2, 2]]
-- Generation 7 --
  Evaluated 39 individuals
The population: [[2, 2, 2, 2, 2, 2, 1, 2, 2], [2, 2, 2, 2, 2, 2, 2, 2, 2], [2, 2, 2, 2, 1, 2, 2, 2, 2], [2, 2, 2, 2, 2, 2, 2, 2, 2], [2, 2, 2, 2, 2, 2, 2, 2, 2], [2, 2, 2, 2, 2, 2, 2, 2, 2], [2, 2, 2, 2, 2, 2, 1, 2, 2], [2, 2, 2, 2, 2, 2, 1, 2, 2], [2, 2, 2, 2, 2, 2, 2, 2, 2], [2, 2, 2, 2, 2, 2, 2, 2, 2], [2, 2, 2, 2, 2, 2, 2, 2, 2], [2, 2, 2, 1, 1, 1, 1, 1, 2], [2, 2, 2, 2, 2, 2, 1, 2, 2], [2, 2, 2, 2, 2, 2, 2, 2, 2], [2, 2, 2, 2, 2, 2, 1, 2, 2], [2, 2, 2, 2, 2, 2, 2, 2, 2], [2, 2, 2, 2, 2, 2, 2, 2, 2], [2, 2, 2, 2, 2, 2, 2, 2, 2], [2, 2, 2, 2, 2, 2, 2, 2, 2], [2, 2, 2, 2, 2, 2, 2, 2, 2], [2, 2, 2, 2, 2, 2, 2, 2, 2], [2, 2, 2, 2, 2, 2, 1, 2, 2], [2, 2, 2, 2, 2, 2, 2, 2, 2], [2, 2, 2, 2, 2, 2, 1, 2, 2], [2, 2, 2, 2, 2, 2, 2, 2, 2], [2, 2, 2, 1, 2, 1, 1, 1, 2], [2, 2, 2, 2, 2, 2, 1, 2, 2], [2, 2, 2, 2, 2, 2, 2, 2, 2], [2, 2, 2, 2, 2, 2, 2, 2, 2], [2, 2, 2, 2, 2, 2, 2, 2, 2], [2, 2, 2, 2, 2, 2, 2, 2, 2], [2, 2, 2, 2, 2, 2, 2, 2, 2], [2, 2, 2, 2, 2, 2, 2, 2, 2], [2, 2, 2, 2, 2, 2, 2, 2, 2], [2, 2, 2, 2, 2, 2, 2, 2, 2], [2, 2, 2, 2, 2, 2, 2, 2, 2], [2, 2, 2, 1, 1, 2, 2, 2, 1], [2, 2, 2, 2, 2, 2, 1, 2, 2], [2, 2, 2, 2, 2, 2, 2, 2, 2], [2, 2, 2, 2, 2, 2, 2, 2, 2], [2, 2, 2, 2, 2, 2, 2, 2, 2], [2, 2, 2, 2, 2, 2, 2, 2, 2], [2, 2, 2, 2, 2, 2, 1, 2, 2], [2, 2, 2, 2, 2, 2, 2, 2, 2], [2, 2, 2, 2, 2, 2, 2, 2, 2], [2, 2, 2, 2, 2, 2, 1, 2, 2], [2, 2, 2, 2, 1, 2, 2, 2, 2], [2, 2, 2, 2, 1, 2, 2, 2, 2], [2, 2, 2, 2, 2, 2, 2, 2, 2], [2, 2, 2, 2, 2, 2, 2, 2, 2], [2, 2, 2, 2, 2, 2, 2, 2, 2], [2, 2, 2, 2, 2, 2, 2, 2, 2], [2, 2, 2, 2, 2, 2, 1, 2, 2], [2, 2, 2, 2, 2, 2, 2, 2, 2], [2, 2, 2, 2, 2, 2, 2, 2, 2], [2, 2, 2, 2, 2, 2, 2, 2, 2], [2, 2, 2, 2, 2, 2, 2, 2, 2], [2, 2, 2, 2, 2, 2, 2, 2, 2], [2, 2, 2, 2, 2, 2, 2, 2, 2], [2, 2, 2, 2, 2, 2, 2, 2, 2], [2, 2, 2, 2, 2, 2, 2, 2, 2], [2, 2, 2, 2, 2, 2, 2, 2, 2], [2, 2, 2, 2, 2, 2, 2, 2, 2], [2, 2, 2, 2, 2, 2, 2, 2, 2], [2, 2, 2, 2, 2, 2, 1, 2, 2], [2, 2, 2, 2, 2, 2, 2, 2, 2], [2, 2, 2, 2, 2, 2, 2, 2, 2], [2, 2, 2, 2, 2, 2, 2, 2, 2], [2, 2, 2, 2, 1, 2, 2, 2, 2], [2, 2, 2, 2, 2, 2, 2, 2, 2], [2, 2, 2, 2, 2, 2, 2, 2, 2], [2, 2, 2, 2, 2, 2, 1, 2, 2], [2, 1, 2, 2, 2, 2, 1, 1, 2], [2, 2, 2, 2, 2, 2, 2, 2, 2], [2, 2, 2, 2, 2, 2, 2, 2, 2]]
-- Generation 8 --
  Evaluated 37 individuals
The population: [[2, 2, 2, 2, 2, 2, 2, 2, 2], [2, 2, 2, 2, 2, 2, 2, 2, 2], [2, 2, 2, 2, 2, 2, 2, 2, 2], [2, 2, 2, 2, 2, 2, 2, 2, 2], [2, 2, 2, 2, 2, 2, 2, 2, 2], [1, 2, 1, 1, 1, 2, 1, 2, 1], [2, 2, 2, 2, 2, 2, 2, 2, 2], [2, 2, 2, 2, 2, 2, 2, 2, 2], [2, 2, 2, 2, 2, 2, 2, 2, 2], [2, 2, 2, 2, 2, 2, 2, 2, 2], [2, 2, 2, 2, 2, 2, 2, 2, 2], [2, 2, 2, 2, 2, 2, 2, 2, 2], [2, 2, 2, 2, 2, 2, 2, 2, 2], [2, 2, 2, 1, 1, 2, 2, 1, 1], [2, 2, 2, 2, 2, 2, 2, 2, 2], [2, 2, 2, 2, 2, 2, 2, 2, 2], [2, 2, 2, 2, 2, 2, 2, 2, 2], [2, 2, 2, 2, 2, 2, 2, 2, 2], [2, 2, 2, 2, 2, 2, 2, 2, 2], [2, 2, 2, 2, 2, 2, 2, 2, 2], [2, 2, 2, 2, 2, 2, 2, 2, 2], [2, 2, 2, 2, 2, 2, 2, 2, 2], [2, 2, 2, 2, 2, 2, 2, 2, 2], [2, 2, 2, 2, 2, 2, 2, 2, 2], [2, 2, 2, 2, 2, 2, 2, 2, 2], [2, 2, 2, 2, 2, 2, 2, 2, 2], [2, 2, 2, 2, 2, 2, 2, 2, 2], [2, 2, 2, 2, 2, 2, 2, 2, 2], [2, 2, 2, 2, 2, 2, 2, 2, 2], [2, 2, 2, 2, 2, 2, 2, 2, 2], [2, 2, 2, 2, 2, 2, 2, 2, 2], [2, 2, 2, 2, 2, 2, 2, 2, 2], [2, 2, 2, 2, 2, 2, 2, 2, 2], [2, 2, 2, 2, 2, 2, 2, 2, 2], [2, 2, 2, 2, 2, 2, 2, 2, 2], [2, 2, 2, 2, 2, 2, 2, 2, 2], [2, 2, 2, 2, 2, 2, 2, 2, 2], [2, 2, 2, 2, 2, 2, 2, 2, 2], [2, 2, 2, 2, 2, 2, 2, 2, 2], [2, 2, 2, 2, 2, 2, 2, 2, 2], [2, 2, 2, 2, 2, 2, 2, 2, 2], [2, 2, 2, 2, 2, 2, 2, 2, 2], [2, 2, 2, 2, 2, 2, 2, 2, 2], [2, 2, 2, 2, 2, 2, 2, 2, 2], [2, 2, 2, 2, 2, 2, 2, 2, 2], [2, 2, 2, 2, 2, 2, 2, 2, 2], [2, 2, 2, 2, 2, 2, 2, 2, 2], [2, 2, 2, 2, 2, 2, 2, 2, 2], [2, 2, 2, 2, 2, 2, 2, 2, 2], [2, 2, 2, 2, 2, 2, 2, 2, 2], [2, 2, 2, 2, 2, 2, 2, 2, 2], [2, 2, 1, 2, 2, 2, 1, 2, 2], [2, 1, 2, 1, 2, 1, 2, 1, 2], [2, 2, 2, 2, 2, 2, 2, 2, 2], [2, 2, 2, 2, 2, 2, 2, 2, 2], [2, 2, 2, 2, 2, 2, 2, 2, 2], [2, 2, 2, 2, 2, 2, 2, 2, 2], [2, 2, 2, 2, 2, 2, 2, 2, 2], [2, 2, 2, 2, 2, 2, 2, 2, 2], [2, 2, 2, 2, 2, 2, 2, 2, 2], [2, 2, 2, 2, 2, 2, 2, 2, 2], [2, 2, 2, 2, 2, 2, 2, 2, 2], [2, 2, 2, 2, 2, 2, 2, 2, 2], [2, 2, 2, 2, 2, 2, 2, 2, 2], [2, 2, 2, 2, 2, 2, 2, 2, 2], [2, 2, 2, 2, 2, 2, 2, 2, 2], [2, 2, 2, 2, 2, 2, 2, 2, 2], [2, 2, 2, 2, 2, 2, 2, 2, 2], [2, 2, 1, 1, 1, 1, 2, 1, 2], [2, 1, 2, 2, 1, 2, 2, 2, 2], [2, 2, 2, 2, 2, 2, 2, 2, 2], [2, 2, 2, 2, 2, 2, 2, 2, 2], [2, 2, 2, 2, 2, 2, 2, 2, 2], [2, 1, 1, 2, 2, 1, 2, 2, 1], [2, 2, 2, 2, 2, 2, 2, 2, 2]]
-- Generation 9 --
  Evaluated 38 individuals
The population: [[2, 2, 2, 2, 2, 2, 2, 2, 2], [2, 2, 2, 2, 2, 2, 2, 2, 2], [2, 2, 2, 2, 2, 2, 2, 2, 2], [2, 2, 2, 2, 2, 2, 2, 2, 2], [2, 2, 1, 2, 1, 2, 1, 1, 2], [2, 2, 2, 2, 2, 2, 2, 2, 2], [2, 2, 2, 2, 2, 2, 2, 2, 2], [2, 2, 2, 2, 2, 2, 2, 2, 2], [2, 2, 2, 2, 2, 2, 2, 2, 2], [2, 2, 2, 2, 2, 2, 2, 2, 2], [2, 2, 2, 2, 2, 2, 2, 2, 2], [2, 2, 2, 2, 2, 2, 2, 2, 2], [2, 2, 2, 2, 2, 2, 2, 2, 2], [2, 2, 2, 2, 2, 2, 2, 1, 2], [2, 2, 2, 2, 2, 2, 2, 2, 2], [2, 2, 2, 2, 2, 2, 2, 2, 2], [2, 2, 2, 2, 2, 2, 2, 2, 2], [2, 2, 2, 2, 2, 2, 2, 2, 2], [2, 2, 2, 2, 2, 2, 2, 2, 2], [2, 2, 2, 2, 2, 2, 2, 2, 2], [2, 2, 2, 2, 2, 2, 2, 2, 2], [2, 2, 2, 2, 2, 2, 2, 2, 2], [2, 2, 2, 2, 2, 2, 2, 2, 2], [2, 2, 2, 2, 2, 2, 2, 2, 2], [2, 2, 2, 2, 2, 2, 2, 2, 2], [2, 2, 2, 2, 2, 2, 2, 2, 2], [2, 2, 2, 2, 2, 2, 2, 2, 2], [2, 2, 2, 2, 2, 2, 2, 2, 2], [2, 2, 2, 2, 2, 2, 2, 2, 2], [2, 2, 2, 2, 2, 2, 2, 2, 2], [2, 2, 2, 2, 2, 2, 2, 2, 2], [2, 2, 2, 2, 2, 2, 2, 2, 2], [2, 2, 2, 2, 2, 2, 2, 2, 2], [2, 2, 2, 2, 2, 2, 2, 2, 2], [2, 2, 2, 2, 2, 2, 2, 2, 2], [2, 2, 2, 2, 2, 2, 2, 2, 2], [2, 2, 2, 2, 2, 2, 2, 2, 2], [2, 2, 2, 2, 2, 2, 2, 2, 2], [2, 2, 2, 2, 2, 2, 2, 2, 2], [2, 2, 2, 2, 2, 2, 2, 2, 2], [2, 2, 2, 2, 2, 2, 2, 2, 2], [2, 2, 2, 2, 2, 2, 2, 2, 2], [2, 2, 2, 2, 2, 2, 2, 2, 2], [2, 2, 2, 2, 2, 2, 2, 2, 2], [2, 2, 2, 2, 2, 2, 2, 2, 2], [2, 2, 2, 2, 2, 2, 2, 2, 2], [1, 2, 2, 2, 2, 1, 1, 1, 2], [2, 2, 2, 2, 2, 2, 2, 2, 2], [2, 2, 2, 2, 2, 2, 2, 2, 2], [2, 2, 2, 2, 2, 2, 2, 2, 2], [2, 2, 2, 2, 2, 2, 2, 2, 2], [2, 2, 2, 2, 2, 2, 2, 2, 2], [2, 2, 2, 2, 2, 2, 2, 2, 2], [2, 2, 2, 2, 2, 2, 2, 2, 2], [2, 2, 2, 2, 2, 2, 2, 2, 2], [2, 2, 2, 2, 2, 2, 2, 2, 2], [2, 2, 2, 2, 2, 2, 2, 2, 2], [2, 1, 1, 2, 2, 2, 1, 1, 2], [2, 2, 2, 2, 2, 2, 2, 2, 2], [2, 2, 2, 2, 2, 2, 2, 2, 2], [2, 2, 2, 2, 2, 2, 2, 2, 2], [2, 2, 2, 2, 2, 2, 2, 2, 2], [2, 2, 2, 2, 2, 2, 2, 2, 2], [2, 2, 2, 2, 2, 2, 2, 2, 2], [2, 2, 2, 2, 2, 2, 2, 2, 2], [1, 1, 2, 2, 2, 2, 2, 2, 2], [2, 2, 2, 2, 2, 2, 2, 2, 2], [2, 2, 2, 2, 2, 2, 2, 2, 2], [2, 2, 2, 2, 2, 2, 2, 2, 2], [2, 2, 2, 2, 2, 2, 2, 2, 2], [2, 2, 2, 2, 2, 2, 2, 2, 2], [2, 2, 2, 2, 2, 2, 2, 2, 2], [2, 2, 2, 2, 2, 2, 2, 2, 2], [2, 2, 2, 2, 2, 2, 2, 2, 2], [2, 2, 2, 2, 2, 2, 2, 2, 2]]
-- Generation 10 --
  Evaluated 42 individuals
The population: [[2, 2, 2, 2, 2, 2, 2, 2, 2], [2, 2, 2, 2, 2, 2, 2, 2, 2], [2, 2, 2, 2, 2, 2, 2, 2, 2], [2, 2, 2, 2, 2, 2, 2, 2, 2], [2, 2, 2, 2, 2, 2, 2, 2, 2], [2, 2, 2, 2, 2, 2, 2, 2, 2], [2, 2, 2, 2, 2, 2, 2, 2, 2], [2, 2, 2, 2, 2, 2, 2, 2, 2], [2, 2, 2, 2, 2, 2, 2, 2, 2], [2, 2, 2, 2, 2, 2, 2, 2, 2], [2, 2, 2, 2, 2, 2, 2, 2, 2], [2, 2, 2, 2, 2, 2, 2, 2, 2], [2, 2, 2, 2, 2, 2, 2, 2, 2], [2, 2, 2, 2, 2, 2, 2, 2, 2], [2, 2, 2, 2, 2, 2, 2, 2, 2], [2, 2, 2, 2, 2, 2, 2, 2, 2], [2, 2, 2, 2, 2, 2, 2, 2, 2], [2, 1, 2, 2, 2, 2, 2, 2, 1], [2, 2, 2, 2, 2, 2, 2, 2, 2], [1, 1, 2, 2, 2, 2, 2, 2, 2], [1, 2, 1, 1, 1, 2, 1, 2, 2], [2, 2, 2, 2, 2, 2, 2, 2, 2], [2, 2, 2, 2, 2, 2, 2, 2, 2], [2, 2, 2, 2, 2, 2, 2, 2, 2], [2, 2, 2, 2, 2, 2, 2, 2, 2], [2, 2, 2, 2, 1, 2, 2, 2, 2], [2, 2, 2, 2, 2, 2, 2, 2, 2], [2, 1, 2, 2, 2, 2, 2, 2, 2], [2, 2, 2, 2, 2, 2, 2, 2, 2], [2, 2, 2, 2, 2, 2, 2, 2, 2], [2, 2, 2, 2, 2, 2, 2, 2, 2], [2, 2, 2, 2, 2, 2, 2, 2, 2], [2, 2, 2, 2, 2, 2, 2, 2, 2], [2, 2, 2, 2, 2, 2, 2, 2, 2], [2, 2, 2, 2, 2, 2, 2, 2, 2], [2, 2, 2, 2, 2, 2, 2, 2, 2], [2, 2, 2, 2, 2, 2, 2, 2, 2], [2, 2, 2, 2, 2, 2, 2, 2, 2], [2, 2, 2, 2, 2, 2, 2, 2, 2], [2, 2, 2, 2, 2, 2, 2, 2, 2], [2, 2, 2, 2, 2, 2, 2, 2, 2], [2, 2, 2, 2, 2, 2, 2, 2, 2], [2, 2, 2, 2, 2, 2, 2, 2, 2], [2, 2, 2, 2, 2, 2, 2, 2, 2], [2, 2, 2, 2, 2, 2, 2, 2, 2], [2, 2, 2, 2, 2, 2, 2, 2, 2], [2, 2, 2, 2, 2, 2, 2, 2, 2], [2, 2, 2, 2, 2, 2, 2, 2, 2], [2, 1, 2, 2, 2, 2, 2, 2, 2], [2, 2, 2, 2, 2, 2, 2, 2, 2], [2, 2, 2, 2, 2, 2, 2, 2, 2], [2, 2, 2, 2, 2, 2, 2, 2, 2], [2, 2, 2, 2, 2, 2, 2, 2, 2], [2, 2, 2, 2, 2, 2, 2, 2, 2], [2, 2, 2, 2, 2, 2, 2, 2, 2], [2, 2, 2, 2, 2, 2, 2, 2, 2], [2, 2, 2, 2, 2, 2, 2, 2, 2], [2, 2, 2, 2, 2, 2, 2, 2, 2], [2, 2, 2, 2, 2, 2, 2, 2, 2], [2, 2, 2, 2, 2, 2, 2, 2, 2], [2, 2, 2, 2, 2, 2, 2, 2, 2], [2, 2, 2, 2, 2, 2, 2, 2, 2], [2, 2, 2, 2, 2, 2, 2, 2, 2], [2, 2, 2, 2, 2, 2, 2, 2, 2], [2, 2, 2, 2, 2, 2, 2, 2, 2], [2, 2, 2, 2, 2, 2, 2, 2, 2], [2, 2, 2, 2, 2, 2, 2, 2, 2], [2, 2, 2, 2, 2, 2, 2, 2, 2], [2, 2, 2, 2, 2, 2, 2, 2, 2], [2, 2, 2, 2, 2, 2, 2, 2, 2], [2, 2, 2, 2, 2, 2, 2, 2, 2], [2, 2, 2, 2, 2, 2, 2, 2, 2], [2, 2, 2, 2, 2, 2, 2, 2, 2], [2, 2, 2, 2, 2, 2, 2, 2, 2], [2, 2, 2, 2, 2, 2, 2, 2, 2]]
-- Generation 11 --
  Evaluated 39 individuals
The population: [[2, 2, 2, 2, 2, 2, 2, 2, 2], [2, 2, 2, 2, 2, 2, 2, 2, 2], [2, 2, 2, 2, 2, 2, 2, 2, 2], [2, 2, 2, 2, 2, 2, 2, 2, 2], [1, 2, 1, 2, 2, 1, 2, 2, 2], [2, 2, 2, 1, 1, 1, 1, 1, 1], [2, 2, 2, 2, 2, 2, 2, 2, 2], [2, 1, 1, 1, 1, 2, 1, 2, 2], [2, 2, 2, 2, 2, 2, 2, 2, 2], [2, 2, 2, 2, 2, 2, 2, 2, 2], [2, 2, 2, 2, 2, 2, 2, 2, 2], [2, 2, 2, 2, 2, 2, 2, 2, 2], [2, 2, 2, 2, 2, 2, 2, 2, 2], [2, 2, 2, 2, 2, 2, 2, 2, 2], [2, 2, 2, 2, 2, 2, 2, 2, 2], [2, 2, 2, 2, 2, 2, 2, 2, 2], [2, 2, 2, 2, 2, 2, 2, 2, 2], [2, 2, 2, 2, 2, 2, 2, 2, 2], [2, 2, 2, 2, 2, 2, 2, 2, 2], [2, 2, 2, 2, 2, 2, 2, 2, 2], [2, 2, 2, 2, 2, 2, 2, 2, 2], [2, 2, 2, 2, 2, 2, 2, 2, 2], [2, 2, 2, 2, 2, 2, 2, 2, 2], [2, 2, 2, 2, 2, 2, 2, 2, 2], [2, 2, 2, 2, 2, 2, 2, 2, 2], [2, 2, 2, 2, 2, 2, 2, 2, 2], [2, 2, 2, 2, 2, 2, 2, 2, 2], [1, 2, 1, 2, 2, 1, 1, 2, 2], [2, 2, 2, 2, 2, 2, 2, 2, 2], [2, 2, 2, 2, 2, 2, 2, 2, 2], [2, 2, 2, 2, 2, 2, 2, 2, 2], [2, 2, 2, 2, 2, 2, 2, 2, 2], [2, 2, 2, 2, 2, 2, 2, 2, 2], [2, 2, 2, 2, 2, 2, 2, 2, 2], [2, 2, 2, 2, 2, 2, 2, 2, 2], [2, 2, 2, 2, 2, 2, 2, 2, 2], [2, 2, 2, 2, 2, 2, 2, 2, 2], [2, 2, 2, 2, 2, 2, 2, 2, 2], [2, 1, 2, 2, 1, 1, 1, 2, 2], [2, 2, 2, 2, 2, 2, 2, 2, 2], [2, 2, 2, 2, 2, 2, 2, 2, 2], [2, 2, 2, 2, 2, 2, 2, 2, 2], [2, 2, 2, 2, 2, 2, 2, 2, 2], [2, 2, 2, 2, 2, 2, 2, 2, 2], [2, 2, 2, 2, 2, 2, 2, 2, 2], [2, 2, 2, 2, 2, 2, 2, 2, 2], [2, 2, 2, 2, 2, 2, 2, 2, 2], [2, 2, 2, 2, 2, 2, 2, 2, 2], [2, 2, 2, 2, 2, 2, 2, 2, 2], [2, 2, 2, 2, 2, 2, 2, 2, 2], [2, 2, 2, 2, 2, 2, 2, 2, 2], [2, 2, 2, 2, 2, 2, 2, 2, 2], [2, 2, 2, 2, 2, 2, 2, 2, 2], [1, 2, 2, 2, 2, 1, 1, 1, 1], [2, 2, 2, 2, 2, 2, 2, 2, 2], [2, 2, 2, 2, 2, 2, 2, 2, 2], [2, 2, 2, 2, 2, 2, 2, 2, 2], [2, 2, 2, 2, 2, 2, 2, 2, 2], [1, 2, 1, 1, 1, 1, 2, 2, 2], [2, 2, 2, 2, 2, 2, 2, 2, 2], [2, 2, 2, 2, 2, 2, 2, 2, 2], [2, 2, 2, 2, 2, 2, 2, 2, 2], [2, 2, 2, 2, 2, 2, 2, 2, 2], [2, 2, 2, 2, 2, 2, 2, 2, 2], [2, 1, 1, 2, 2, 2, 1, 1, 2], [2, 2, 2, 2, 2, 2, 2, 2, 2], [2, 2, 2, 2, 2, 2, 2, 2, 2], [2, 2, 2, 2, 2, 2, 2, 2, 2], [2, 2, 2, 2, 2, 2, 2, 2, 2], [2, 2, 1, 2, 2, 2, 2, 1, 2], [2, 2, 2, 2, 2, 2, 2, 2, 2], [2, 2, 2, 2, 2, 2, 2, 2, 2], [2, 2, 2, 2, 2, 2, 2, 2, 2], [2, 2, 2, 2, 2, 2, 2, 2, 2], [2, 2, 2, 1, 2, 2, 1, 1, 1]]
-- Generation 12 --
  Evaluated 40 individuals
The population: [[2, 2, 2, 2, 2, 2, 2, 2, 2], [2, 2, 2, 2, 2, 2, 2, 2, 2], [2, 2, 2, 2, 2, 2, 2, 2, 2], [2, 2, 2, 2, 2, 2, 2, 2, 2], [2, 2, 2, 2, 2, 2, 2, 2, 2], [2, 2, 2, 2, 2, 2, 2, 2, 2], [2, 2, 2, 2, 2, 2, 2, 2, 2], [2, 2, 2, 2, 2, 2, 2, 2, 2], [2, 1, 1, 2, 2, 2, 2, 2, 2], [2, 2, 2, 2, 2, 2, 1, 1, 2], [2, 2, 2, 2, 2, 2, 2, 2, 2], [2, 2, 2, 2, 2, 2, 2, 2, 2], [2, 2, 2, 2, 2, 2, 2, 2, 2], [2, 2, 1, 1, 2, 2, 2, 2, 2], [2, 2, 2, 2, 2, 2, 2, 2, 2], [2, 2, 2, 2, 2, 2, 2, 2, 2], [2, 2, 2, 2, 2, 2, 2, 2, 2], [2, 2, 2, 2, 2, 2, 2, 2, 2], [2, 2, 2, 2, 2, 2, 2, 2, 2], [2, 2, 2, 2, 2, 2, 2, 2, 2], [2, 2, 2, 2, 2, 2, 2, 2, 2], [2, 2, 2, 2, 2, 2, 2, 2, 2], [2, 2, 2, 2, 2, 2, 2, 2, 2], [2, 2, 2, 2, 2, 2, 2, 2, 2], [2, 2, 2, 2, 2, 2, 2, 2, 2], [2, 2, 2, 2, 2, 2, 2, 2, 2], [2, 2, 2, 2, 2, 2, 2, 2, 2], [2, 2, 2, 2, 2, 2, 2, 2, 2], [2, 2, 2, 2, 2, 2, 2, 2, 2], [2, 2, 2, 2, 2, 2, 2, 2, 2], [2, 2, 2, 2, 2, 2, 2, 2, 2], [2, 2, 2, 2, 2, 2, 2, 2, 2], [2, 2, 2, 2, 2, 2, 2, 2, 2], [2, 2, 2, 2, 2, 2, 2, 2, 2], [2, 2, 2, 2, 2, 2, 2, 2, 2], [2, 2, 2, 2, 2, 2, 2, 2, 2], [2, 2, 2, 2, 2, 2, 2, 2, 2], [2, 2, 2, 2, 2, 2, 2, 2, 2], [2, 2, 2, 2, 2, 2, 2, 2, 2], [2, 2, 2, 2, 2, 2, 2, 2, 2], [2, 2, 2, 2, 2, 2, 2, 2, 2], [2, 2, 1, 2, 2, 2, 1, 2, 2], [2, 2, 2, 2, 2, 2, 2, 2, 2], [2, 2, 2, 2, 2, 2, 2, 2, 2], [2, 1, 1, 2, 1, 2, 2, 2, 2], [2, 1, 2, 1, 1, 1, 2, 1, 1], [2, 2, 1, 1, 2, 2, 1, 2, 2], [1, 1, 1, 2, 2, 2, 2, 2, 2], [2, 2, 2, 2, 2, 2, 2, 2, 2], [2, 2, 2, 2, 2, 2, 2, 2, 2], [2, 2, 2, 2, 2, 2, 2, 2, 2], [2, 2, 2, 2, 2, 2, 2, 2, 2], [2, 2, 2, 2, 2, 2, 2, 2, 2], [2, 2, 2, 2, 2, 2, 2, 2, 2], [1, 2, 2, 2, 2, 2, 2, 1, 1], [2, 2, 2, 2, 2, 2, 2, 2, 2], [2, 2, 2, 2, 2, 2, 2, 2, 2], [2, 2, 2, 2, 2, 2, 2, 2, 2], [2, 2, 2, 2, 2, 2, 2, 2, 2], [2, 2, 2, 2, 2, 2, 2, 2, 2], [2, 2, 2, 2, 2, 2, 2, 2, 2], [2, 2, 2, 2, 2, 2, 2, 2, 2], [1, 2, 2, 1, 2, 2, 2, 1, 1], [2, 2, 2, 2, 2, 2, 2, 2, 2], [2, 2, 2, 2, 2, 2, 2, 2, 2], [2, 2, 2, 2, 2, 2, 2, 2, 2], [2, 2, 2, 2, 2, 2, 2, 2, 2], [2, 2, 2, 2, 2, 2, 2, 2, 2], [2, 2, 2, 2, 2, 2, 2, 2, 2], [2, 2, 2, 2, 2, 2, 2, 2, 2], [2, 2, 2, 2, 2, 2, 2, 2, 2], [2, 2, 2, 2, 1, 1, 1, 1, 1], [2, 2, 2, 2, 2, 2, 2, 2, 2], [2, 2, 2, 2, 2, 2, 2, 2, 2], [2, 2, 2, 2, 2, 2, 2, 2, 2]]
-- Generation 13 --
  Evaluated 47 individuals
The population: [[2, 2, 2, 2, 2, 2, 2, 2, 2], [2, 2, 2, 2, 2, 2, 2, 2, 2], [2, 2, 2, 2, 2, 2, 2, 2, 2], [2, 2, 2, 2, 2, 2, 2, 2, 2], [2, 2, 2, 2, 2, 2, 2, 2, 2], [2, 2, 2, 2, 2, 2, 2, 2, 2], [1, 2, 2, 1, 2, 2, 2, 2, 2], [2, 2, 2, 2, 2, 2, 2, 2, 2], [2, 2, 2, 2, 2, 2, 2, 2, 2], [2, 2, 2, 2, 2, 2, 2, 2, 2], [2, 2, 2, 2, 2, 2, 2, 2, 2], [2, 2, 2, 2, 2, 2, 2, 2, 2], [2, 2, 2, 2, 2, 2, 2, 2, 2], [2, 2, 2, 2, 2, 2, 2, 2, 2], [2, 2, 2, 2, 2, 2, 2, 2, 2], [2, 2, 2, 2, 2, 2, 2, 2, 2], [2, 2, 2, 2, 2, 2, 2, 2, 2], [2, 2, 2, 2, 2, 2, 2, 2, 2], [2, 2, 2, 2, 2, 2, 2, 2, 2], [2, 2, 2, 2, 2, 2, 2, 2, 2], [2, 2, 2, 2, 2, 2, 2, 2, 2], [2, 2, 2, 2, 2, 2, 2, 2, 2], [2, 2, 2, 2, 2, 2, 2, 2, 2], [2, 2, 2, 2, 2, 2, 2, 2, 2], [2, 2, 2, 2, 2, 2, 2, 2, 2], [2, 2, 2, 2, 2, 2, 2, 2, 2], [2, 2, 2, 2, 2, 2, 2, 2, 2], [2, 2, 2, 2, 2, 2, 2, 2, 2], [2, 2, 2, 2, 2, 2, 2, 2, 2], [2, 2, 2, 2, 2, 2, 2, 2, 2], [2, 2, 2, 2, 2, 2, 2, 2, 2], [2, 2, 2, 2, 2, 2, 2, 2, 2], [2, 2, 2, 2, 2, 2, 2, 2, 2], [2, 2, 2, 2, 2, 2, 2, 2, 2], [2, 2, 2, 2, 2, 2, 2, 2, 2], [2, 2, 2, 2, 2, 2, 2, 2, 2], [2, 2, 2, 2, 2, 2, 2, 2, 2], [1, 1, 2, 2, 2, 1, 1, 1, 2], [2, 2, 2, 2, 2, 2, 2, 2, 2], [2, 2, 2, 2, 2, 2, 2, 2, 2], [2, 2, 2, 2, 2, 2, 2, 2, 2], [2, 2, 2, 2, 2, 2, 2, 2, 2], [2, 2, 2, 2, 2, 2, 2, 2, 2], [2, 2, 2, 2, 2, 2, 2, 2, 2], [2, 2, 2, 2, 2, 2, 2, 2, 2], [2, 2, 2, 2, 2, 2, 2, 2, 2], [2, 2, 2, 2, 2, 2, 2, 2, 2], [2, 2, 2, 2, 2, 2, 2, 2, 2], [2, 2, 2, 2, 2, 2, 2, 2, 2], [1, 1, 2, 2, 2, 1, 1, 1, 1], [2, 2, 2, 2, 2, 2, 2, 2, 2], [2, 2, 2, 2, 2, 2, 2, 2, 2], [2, 2, 2, 2, 2, 2, 2, 2, 2], [2, 2, 2, 2, 2, 2, 2, 2, 2], [2, 2, 2, 2, 2, 2, 2, 2, 2], [2, 2, 2, 2, 2, 2, 2, 2, 2], [2, 2, 2, 2, 2, 2, 2, 2, 2], [2, 1, 2, 2, 1, 1, 1, 2, 1], [2, 2, 2, 2, 2, 2, 2, 2, 2], [2, 2, 2, 2, 2, 2, 2, 2, 2], [2, 2, 2, 2, 2, 2, 2, 2, 2], [2, 2, 2, 2, 2, 2, 2, 2, 2], [2, 2, 2, 2, 2, 2, 2, 2, 2], [2, 2, 2, 2, 2, 2, 2, 2, 2], [2, 2, 2, 2, 2, 2, 2, 2, 2], [2, 2, 2, 2, 2, 2, 2, 2, 2], [2, 2, 2, 2, 2, 2, 2, 2, 2], [2, 2, 2, 2, 2, 2, 2, 2, 2], [2, 2, 2, 2, 2, 2, 2, 2, 2], [2, 2, 2, 2, 2, 2, 2, 2, 2], [2, 2, 2, 2, 2, 2, 2, 2, 2], [2, 2, 2, 2, 2, 2, 2, 2, 2], [2, 2, 2, 2, 2, 2, 2, 2, 2], [2, 2, 2, 2, 1, 2, 1, 2, 2], [2, 2, 2, 2, 2, 2, 2, 2, 2]]
-- Generation 14 --
  Evaluated 40 individuals
The population: [[2, 2, 2, 2, 2, 2, 2, 2, 2], [2, 2, 2, 2, 2, 2, 2, 2, 2], [2, 2, 2, 2, 2, 2, 2, 2, 2], [2, 2, 2, 2, 2, 2, 2, 2, 2], [2, 2, 2, 2, 2, 2, 1, 2, 2], [2, 2, 2, 2, 2, 2, 2, 2, 2], [2, 2, 2, 2, 2, 2, 2, 2, 2], [2, 2, 2, 2, 2, 2, 2, 2, 2], [2, 2, 2, 2, 2, 2, 2, 2, 2], [2, 2, 2, 2, 2, 2, 2, 2, 2], [2, 2, 2, 2, 2, 2, 2, 2, 2], [2, 2, 2, 2, 2, 2, 2, 2, 2], [2, 2, 2, 2, 2, 2, 2, 2, 2], [2, 2, 2, 2, 2, 2, 1, 1, 2], [2, 2, 2, 2, 2, 2, 2, 2, 2], [2, 2, 2, 2, 2, 2, 2, 2, 2], [2, 2, 2, 2, 2, 2, 2, 2, 2], [2, 2, 2, 2, 2, 2, 2, 2, 2], [2, 2, 2, 2, 2, 2, 2, 2, 2], [2, 2, 2, 2, 2, 2, 2, 2, 2], [2, 2, 2, 2, 2, 2, 2, 2, 2], [2, 2, 2, 2, 2, 2, 2, 2, 2], [2, 2, 2, 2, 2, 2, 2, 2, 2], [2, 2, 2, 2, 2, 2, 2, 2, 2], [2, 2, 2, 2, 2, 2, 2, 2, 2], [2, 2, 2, 2, 2, 2, 2, 2, 2], [2, 2, 2, 2, 2, 2, 2, 2, 2], [2, 2, 2, 2, 2, 2, 2, 2, 2], [2, 2, 2, 2, 2, 2, 2, 2, 2], [2, 2, 2, 2, 2, 2, 2, 2, 2], [2, 2, 2, 1, 2, 2, 1, 2, 1], [1, 2, 2, 2, 1, 2, 1, 1, 2], [2, 2, 2, 2, 2, 2, 2, 2, 2], [2, 2, 2, 2, 2, 2, 2, 2, 2], [2, 2, 2, 2, 2, 2, 2, 2, 2], [1, 1, 2, 2, 2, 2, 2, 1, 1], [2, 2, 2, 2, 2, 2, 2, 2, 2], [2, 2, 2, 2, 2, 2, 2, 2, 2], [2, 2, 2, 2, 2, 2, 2, 2, 2], [2, 2, 2, 2, 2, 2, 2, 2, 2], [2, 2, 2, 2, 2, 2, 2, 2, 2], [2, 2, 2, 2, 2, 2, 2, 2, 2], [2, 2, 2, 2, 2, 2, 2, 2, 2], [2, 2, 2, 2, 2, 2, 2, 2, 2], [2, 2, 2, 2, 2, 2, 2, 2, 2], [2, 2, 2, 2, 2, 2, 2, 2, 2], [2, 2, 2, 2, 2, 2, 2, 2, 2], [2, 2, 2, 2, 2, 2, 2, 2, 2], [2, 2, 2, 2, 2, 2, 2, 2, 2], [2, 2, 2, 2, 2, 2, 2, 2, 2], [2, 2, 2, 2, 2, 2, 2, 2, 2], [2, 2, 2, 2, 2, 2, 2, 2, 2], [2, 2, 2, 2, 2, 2, 2, 2, 2], [2, 2, 2, 2, 2, 2, 2, 2, 2], [2, 2, 2, 2, 2, 2, 2, 2, 2], [2, 2, 2, 2, 2, 2, 2, 2, 2], [2, 2, 2, 2, 2, 2, 2, 2, 2], [2, 2, 2, 2, 2, 2, 2, 2, 2], [2, 2, 2, 2, 2, 2, 2, 2, 2], [1, 2, 2, 1, 1, 1, 2, 1, 1], [2, 2, 2, 2, 2, 2, 2, 2, 2], [2, 2, 2, 2, 2, 2, 2, 2, 2], [2, 2, 2, 2, 2, 2, 2, 2, 2], [2, 2, 2, 2, 2, 2, 2, 2, 2], [2, 2, 2, 2, 2, 2, 2, 2, 2], [2, 2, 2, 2, 2, 2, 2, 2, 2], [2, 2, 2, 2, 2, 2, 2, 2, 2], [2, 2, 2, 2, 2, 2, 2, 2, 2], [2, 2, 2, 2, 2, 2, 2, 2, 2], [2, 2, 2, 2, 2, 2, 2, 2, 2], [2, 2, 2, 2, 2, 2, 2, 2, 2], [2, 2, 2, 2, 2, 2, 2, 2, 2], [2, 2, 2, 2, 2, 2, 2, 2, 2], [2, 2, 2, 2, 2, 2, 2, 2, 2], [2, 2, 2, 2, 2, 2, 2, 2, 2]]
-- Generation 15 --
  Evaluated 39 individuals
The population: [[2, 2, 2, 2, 2, 2, 2, 2, 2], [2, 2, 2, 2, 2, 2, 2, 2, 2], [2, 2, 2, 2, 2, 2, 2, 2, 2], [2, 2, 2, 2, 2, 2, 2, 2, 2], [2, 2, 2, 2, 2, 2, 2, 2, 2], [2, 2, 2, 2, 2, 2, 2, 2, 2], [1, 2, 1, 2, 2, 2, 2, 2, 2], [2, 2, 2, 2, 2, 2, 2, 2, 2], [1, 1, 1, 2, 1, 2, 2, 1, 2], [2, 2, 2, 2, 2, 2, 2, 2, 2], [2, 2, 2, 2, 2, 2, 2, 2, 2], [2, 2, 2, 2, 2, 2, 2, 2, 2], [2, 2, 2, 2, 2, 2, 2, 2, 2], [2, 2, 2, 2, 2, 2, 2, 2, 2], [2, 2, 2, 2, 2, 2, 2, 2, 2], [1, 2, 1, 2, 1, 2, 2, 2, 2], [1, 2, 1, 2, 2, 2, 1, 1, 1], [2, 2, 2, 2, 2, 2, 2, 2, 2], [2, 2, 2, 2, 2, 2, 2, 2, 2], [2, 2, 2, 2, 2, 2, 2, 2, 2], [2, 2, 2, 2, 2, 2, 2, 2, 2], [2, 2, 2, 2, 2, 2, 2, 2, 2], [2, 2, 2, 2, 2, 2, 2, 2, 2], [2, 2, 2, 2, 2, 2, 2, 2, 2], [2, 2, 2, 2, 2, 2, 2, 2, 2], [2, 2, 2, 2, 2, 2, 2, 2, 2], [2, 2, 2, 2, 2, 2, 2, 2, 2], [2, 2, 2, 2, 2, 2, 2, 2, 2], [2, 2, 2, 2, 2, 2, 2, 2, 2], [2, 2, 2, 2, 2, 2, 2, 2, 2], [2, 2, 1, 1, 2, 1, 2, 2, 2], [2, 1, 1, 2, 2, 2, 2, 2, 2], [2, 2, 2, 2, 2, 2, 2, 2, 2], [2, 2, 2, 2, 2, 2, 2, 2, 2], [2, 2, 2, 2, 2, 2, 2, 2, 2], [2, 2, 2, 2, 2, 2, 2, 2, 2], [2, 2, 2, 2, 2, 2, 2, 2, 2], [2, 2, 2, 2, 2, 2, 2, 2, 2], [2, 2, 2, 2, 2, 2, 2, 2, 2], [2, 2, 2, 2, 2, 2, 2, 2, 2], [2, 2, 2, 2, 2, 2, 2, 2, 2], [2, 2, 2, 2, 2, 2, 2, 2, 2], [2, 2, 2, 2, 2, 2, 2, 2, 2], [2, 2, 2, 2, 2, 2, 2, 2, 2], [2, 2, 2, 2, 2, 2, 2, 2, 2], [2, 2, 2, 2, 2, 2, 2, 2, 2], [2, 2, 2, 2, 2, 2, 2, 2, 2], [2, 2, 2, 2, 2, 2, 2, 2, 2], [2, 2, 2, 2, 2, 2, 2, 2, 2], [2, 2, 2, 2, 2, 2, 2, 2, 2], [2, 2, 2, 2, 2, 2, 2, 2, 2], [2, 2, 2, 2, 2, 2, 2, 2, 2], [2, 2, 2, 2, 2, 2, 2, 2, 2], [2, 2, 2, 2, 2, 2, 2, 2, 2], [2, 2, 2, 2, 2, 2, 2, 2, 2], [2, 2, 2, 2, 2, 2, 2, 2, 2], [2, 2, 2, 2, 2, 2, 2, 2, 2], [2, 2, 2, 2, 2, 2, 2, 2, 2], [2, 2, 2, 2, 2, 2, 2, 2, 2], [2, 2, 2, 2, 2, 2, 2, 2, 2], [2, 2, 2, 2, 2, 2, 2, 2, 2], [2, 2, 2, 2, 2, 2, 2, 2, 2], [2, 2, 2, 2, 2, 2, 2, 2, 2], [2, 2, 2, 2, 2, 2, 2, 2, 2], [2, 2, 2, 2, 2, 2, 2, 2, 2], [2, 2, 2, 2, 2, 2, 2, 2, 2], [2, 2, 2, 1, 2, 2, 1, 2, 1], [2, 2, 2, 2, 2, 2, 2, 2, 2], [2, 2, 2, 2, 2, 2, 2, 2, 2], [2, 2, 2, 2, 2, 2, 2, 2, 2], [2, 2, 2, 2, 2, 2, 2, 2, 2], [2, 2, 2, 2, 2, 2, 2, 2, 2], [2, 2, 2, 2, 2, 2, 2, 2, 2], [2, 2, 2, 2, 2, 2, 2, 2, 2], [2, 2, 2, 2, 2, 2, 2, 2, 2]]
-- Generation 16 --
  Evaluated 44 individuals
The population: [[2, 2, 2, 2, 2, 2, 2, 2, 2], [2, 2, 2, 2, 2, 2, 2, 2, 2], [2, 2, 2, 2, 2, 2, 2, 2, 2], [2, 2, 2, 2, 2, 2, 2, 2, 2], [2, 2, 2, 2, 2, 2, 2, 2, 2], [2, 2, 2, 2, 2, 2, 2, 2, 2], [2, 2, 2, 2, 2, 2, 2, 2, 2], [2, 2, 2, 2, 2, 2, 2, 2, 2], [2, 2, 2, 2, 2, 2, 2, 2, 2], [2, 2, 2, 2, 2, 2, 2, 2, 2], [2, 2, 2, 2, 2, 2, 2, 2, 2], [2, 2, 2, 2, 2, 2, 2, 2, 2], [2, 2, 2, 2, 2, 2, 2, 2, 2], [2, 2, 2, 2, 2, 2, 2, 2, 2], [2, 2, 2, 2, 2, 2, 2, 2, 2], [2, 2, 2, 2, 2, 2, 2, 2, 2], [2, 2, 2, 2, 2, 2, 2, 2, 2], [2, 2, 2, 2, 2, 2, 2, 2, 2], [2, 2, 2, 2, 2, 2, 2, 2, 2], [2, 2, 2, 2, 2, 2, 2, 2, 2], [2, 2, 2, 2, 2, 2, 2, 2, 2], [2, 2, 2, 2, 2, 2, 2, 2, 2], [2, 2, 2, 2, 2, 2, 2, 2, 2], [2, 2, 2, 2, 2, 2, 2, 2, 2], [1, 2, 2, 2, 1, 2, 2, 2, 1], [2, 2, 2, 2, 2, 2, 2, 2, 2], [2, 1, 1, 2, 1, 1, 1, 1, 2], [2, 2, 2, 2, 2, 2, 2, 2, 2], [2, 2, 2, 2, 2, 2, 2, 2, 2], [2, 2, 2, 2, 2, 2, 2, 2, 2], [2, 2, 2, 2, 2, 2, 2, 2, 2], [2, 2, 2, 2, 2, 2, 2, 2, 2], [2, 2, 2, 2, 2, 2, 2, 2, 2], [1, 2, 1, 2, 1, 2, 2, 2, 1], [1, 2, 2, 2, 2, 2, 1, 1, 1], [2, 2, 2, 2, 2, 2, 2, 2, 2], [2, 2, 2, 2, 2, 2, 2, 2, 2], [2, 2, 2, 2, 2, 2, 2, 2, 2], [2, 2, 2, 2, 2, 2, 2, 2, 2], [2, 2, 2, 2, 2, 2, 2, 2, 2], [2, 2, 2, 2, 2, 2, 2, 2, 2], [2, 2, 2, 2, 2, 2, 2, 2, 2], [2, 2, 1, 2, 2, 2, 1, 2, 1], [2, 2, 2, 2, 2, 2, 2, 2, 2], [2, 2, 2, 2, 2, 2, 2, 2, 2], [2, 2, 2, 2, 2, 2, 2, 2, 2], [2, 2, 2, 2, 2, 2, 2, 2, 2], [2, 2, 2, 2, 2, 2, 2, 2, 2], [2, 2, 2, 2, 2, 2, 2, 2, 2], [2, 2, 1, 2, 2, 1, 2, 1, 2], [2, 2, 2, 2, 2, 2, 2, 2, 2], [2, 2, 2, 2, 2, 2, 2, 2, 2], [2, 2, 2, 2, 2, 2, 2, 2, 2], [2, 2, 2, 2, 2, 2, 2, 2, 2], [2, 2, 2, 2, 2, 2, 2, 2, 2], [2, 2, 2, 2, 2, 2, 2, 2, 2], [2, 2, 2, 2, 2, 2, 2, 2, 2], [2, 2, 2, 2, 2, 2, 2, 2, 2], [2, 2, 2, 2, 2, 2, 2, 2, 2], [2, 2, 2, 2, 2, 2, 2, 2, 2], [2, 2, 2, 2, 2, 2, 2, 2, 2], [2, 2, 2, 2, 2, 2, 2, 2, 2], [2, 2, 2, 2, 2, 2, 2, 2, 2], [2, 2, 2, 2, 2, 2, 2, 2, 2], [2, 2, 2, 2, 2, 2, 2, 2, 2], [2, 2, 2, 2, 2, 2, 2, 2, 2], [2, 2, 2, 2, 2, 2, 2, 2, 2], [2, 2, 2, 2, 2, 2, 2, 2, 2], [2, 2, 2, 2, 2, 2, 2, 2, 2], [2, 2, 2, 2, 2, 2, 2, 2, 2], [2, 2, 2, 2, 2, 2, 2, 2, 2], [2, 2, 2, 2, 2, 2, 2, 2, 2], [2, 2, 2, 2, 2, 2, 2, 2, 2], [2, 2, 2, 2, 2, 2, 2, 2, 2], [2, 2, 2, 2, 2, 2, 2, 2, 2]]
-- Generation 17 --
  Evaluated 36 individuals
The population: [[2, 2, 2, 2, 2, 2, 2, 2, 2], [2, 2, 2, 2, 2, 2, 2, 2, 2], [2, 2, 2, 2, 2, 2, 2, 2, 2], [2, 2, 2, 2, 2, 2, 2, 2, 2], [2, 1, 1, 1, 1, 2, 2, 2, 1], [2, 2, 2, 2, 2, 2, 2, 2, 2], [2, 2, 2, 2, 2, 2, 2, 2, 2], [2, 2, 2, 2, 2, 2, 2, 2, 2], [2, 2, 2, 2, 2, 2, 2, 2, 2], [2, 2, 2, 2, 2, 2, 2, 2, 2], [2, 2, 2, 2, 2, 2, 2, 2, 2], [2, 2, 2, 2, 2, 2, 2, 2, 2], [2, 2, 2, 2, 2, 2, 2, 2, 2], [2, 2, 2, 2, 2, 2, 2, 2, 2], [2, 2, 2, 2, 2, 2, 2, 2, 2], [2, 2, 2, 2, 2, 2, 2, 2, 2], [2, 2, 2, 2, 2, 2, 2, 2, 2], [2, 2, 2, 2, 2, 2, 2, 2, 2], [2, 2, 2, 2, 2, 2, 2, 2, 2], [2, 2, 2, 2, 2, 1, 1, 2, 2], [2, 2, 2, 2, 2, 2, 2, 2, 2], [2, 2, 2, 2, 2, 2, 2, 2, 2], [2, 2, 2, 2, 2, 2, 2, 2, 2], [2, 2, 2, 2, 2, 2, 2, 2, 2], [2, 1, 1, 2, 1, 2, 1, 1, 1], [2, 2, 2, 2, 2, 2, 2, 2, 2], [2, 2, 2, 2, 2, 2, 2, 2, 2], [2, 2, 2, 2, 2, 2, 2, 2, 2], [2, 2, 2, 2, 2, 2, 2, 2, 2], [2, 2, 2, 2, 2, 2, 2, 2, 2], [2, 2, 2, 2, 2, 2, 2, 2, 2], [2, 2, 2, 2, 2, 2, 2, 2, 2], [2, 2, 2, 2, 2, 2, 2, 2, 2], [2, 2, 1, 1, 2, 1, 1, 2, 2], [2, 2, 2, 2, 2, 2, 2, 2, 2], [2, 2, 2, 2, 2, 2, 2, 2, 2], [2, 2, 2, 2, 2, 2, 2, 2, 2], [2, 2, 2, 2, 2, 2, 2, 2, 2], [2, 2, 2, 2, 2, 2, 2, 2, 2], [2, 2, 2, 2, 2, 2, 2, 2, 2], [2, 2, 2, 2, 2, 2, 2, 2, 2], [2, 2, 2, 2, 2, 2, 2, 2, 2], [2, 2, 2, 2, 2, 2, 2, 2, 2], [2, 2, 2, 2, 2, 2, 2, 2, 2], [2, 2, 2, 2, 2, 2, 2, 2, 2], [2, 2, 2, 2, 2, 2, 2, 2, 2], [2, 2, 2, 2, 2, 2, 2, 2, 2], [2, 2, 2, 2, 2, 2, 2, 2, 2], [2, 2, 2, 2, 2, 2, 2, 2, 2], [2, 2, 2, 2, 2, 2, 2, 2, 2], [1, 2, 1, 2, 2, 2, 1, 1, 1], [2, 2, 2, 2, 2, 2, 2, 2, 2], [2, 2, 2, 2, 2, 2, 2, 2, 2], [2, 2, 2, 2, 2, 2, 2, 2, 2], [2, 2, 2, 2, 2, 2, 2, 2, 2], [2, 2, 2, 2, 2, 2, 2, 2, 2], [2, 2, 2, 2, 2, 2, 2, 2, 2], [2, 2, 2, 2, 2, 2, 2, 2, 2], [2, 2, 2, 2, 2, 2, 2, 2, 2], [2, 2, 2, 2, 2, 2, 2, 2, 2], [2, 2, 2, 2, 2, 2, 2, 2, 2], [2, 2, 2, 2, 2, 2, 2, 2, 2], [2, 2, 2, 2, 2, 2, 2, 2, 2], [2, 2, 2, 2, 2, 2, 2, 2, 2], [2, 1, 2, 2, 1, 2, 1, 1, 1], [2, 2, 2, 2, 2, 2, 2, 2, 2], [2, 2, 2, 2, 2, 2, 2, 2, 2], [2, 2, 2, 2, 2, 2, 2, 2, 2], [2, 2, 2, 2, 2, 2, 2, 2, 2], [2, 2, 2, 2, 2, 2, 2, 2, 2], [2, 2, 2, 2, 2, 2, 2, 2, 2], [2, 2, 2, 2, 2, 2, 2, 2, 2], [2, 2, 1, 1, 2, 1, 2, 2, 1], [2, 2, 2, 2, 2, 2, 2, 2, 2], [2, 2, 2, 2, 2, 2, 2, 2, 2]]
-- Generation 18 --
  Evaluated 43 individuals
The population: [[2, 2, 2, 2, 2, 2, 2, 2, 2], [2, 2, 2, 2, 2, 2, 2, 2, 2], [2, 2, 2, 2, 2, 2, 2, 2, 2], [2, 2, 2, 2, 2, 2, 2, 2, 2], [2, 2, 2, 2, 2, 2, 2, 2, 2], [2, 2, 2, 2, 2, 2, 2, 2, 2], [2, 2, 2, 2, 2, 2, 2, 2, 2], [2, 2, 2, 2, 2, 2, 2, 2, 2], [2, 2, 2, 2, 2, 2, 2, 2, 2], [2, 2, 2, 2, 2, 2, 2, 2, 2], [2, 2, 2, 2, 2, 2, 2, 2, 2], [2, 2, 2, 2, 2, 2, 2, 2, 2], [2, 2, 2, 2, 2, 2, 2, 2, 2], [2, 2, 2, 2, 2, 2, 2, 2, 2], [1, 2, 2, 2, 2, 1, 1, 2, 1], [2, 2, 2, 2, 2, 2, 2, 2, 2], [2, 2, 2, 2, 2, 2, 2, 2, 2], [2, 2, 2, 2, 2, 2, 2, 2, 2], [2, 2, 2, 2, 2, 2, 2, 2, 2], [2, 2, 2, 2, 2, 2, 2, 2, 2], [2, 2, 2, 2, 2, 2, 2, 2, 2], [1, 2, 2, 1, 2, 2, 1, 2, 1], [2, 2, 2, 2, 2, 2, 2, 2, 2], [2, 2, 2, 2, 2, 2, 2, 2, 2], [2, 2, 2, 2, 2, 2, 2, 2, 2], [2, 2, 2, 2, 2, 2, 2, 2, 2], [2, 2, 2, 2, 2, 2, 2, 2, 2], [2, 1, 2, 1, 1, 2, 1, 2, 2], [2, 2, 2, 2, 2, 2, 2, 2, 2], [2, 2, 2, 2, 2, 2, 2, 2, 2], [2, 2, 2, 2, 2, 2, 2, 2, 2], [2, 2, 2, 2, 2, 2, 2, 2, 2], [2, 2, 2, 2, 2, 2, 2, 2, 2], [2, 2, 2, 2, 2, 2, 2, 2, 2], [2, 2, 2, 2, 2, 2, 2, 2, 2], [2, 2, 2, 2, 2, 2, 2, 2, 2], [2, 2, 2, 2, 2, 2, 2, 2, 2], [2, 2, 2, 2, 2, 2, 2, 2, 2], [2, 2, 2, 2, 2, 2, 2, 2, 2], [2, 2, 2, 2, 2, 2, 2, 2, 2], [2, 2, 2, 2, 2, 2, 2, 2, 2], [2, 2, 2, 2, 2, 2, 2, 2, 2], [2, 2, 2, 2, 2, 2, 2, 2, 2], [2, 2, 2, 2, 2, 2, 2, 2, 2], [2, 2, 2, 2, 2, 2, 2, 2, 2], [2, 2, 2, 2, 2, 2, 2, 2, 2], [2, 2, 2, 2, 2, 2, 2, 2, 2], [2, 2, 2, 2, 2, 2, 2, 2, 2], [2, 2, 2, 2, 2, 2, 2, 2, 2], [2, 2, 2, 2, 2, 2, 2, 2, 2], [2, 2, 2, 2, 2, 2, 2, 2, 2], [2, 2, 2, 2, 2, 2, 2, 2, 2], [2, 2, 2, 2, 2, 2, 2, 2, 2], [2, 2, 2, 2, 2, 2, 2, 2, 2], [2, 2, 2, 2, 2, 2, 2, 2, 2], [2, 2, 2, 2, 2, 2, 2, 2, 2], [2, 2, 2, 2, 2, 2, 2, 2, 2], [2, 2, 2, 2, 2, 2, 2, 2, 2], [2, 2, 2, 2, 2, 2, 2, 2, 2], [2, 2, 2, 2, 2, 2, 2, 2, 2], [2, 2, 2, 2, 2, 2, 2, 2, 2], [2, 2, 2, 2, 2, 2, 2, 2, 2], [2, 2, 2, 2, 2, 2, 2, 2, 2], [2, 2, 2, 2, 2, 2, 2, 2, 2], [2, 2, 2, 2, 2, 2, 2, 2, 2], [2, 2, 2, 2, 2, 2, 2, 2, 2], [2, 2, 2, 1, 2, 2, 2, 2, 2], [2, 2, 2, 2, 2, 2, 2, 2, 2], [2, 2, 2, 2, 2, 2, 2, 2, 2], [2, 2, 2, 2, 2, 2, 2, 2, 2], [2, 2, 2, 2, 2, 2, 2, 2, 2], [2, 2, 2, 2, 2, 2, 2, 2, 2], [2, 2, 2, 2, 2, 2, 2, 2, 2], [2, 2, 2, 2, 2, 2, 2, 2, 2], [2, 2, 2, 2, 2, 2, 2, 2, 2]]
-- Generation 19 --
  Evaluated 45 individuals
The population: [[1, 2, 1, 2, 2, 1, 1, 2, 2], [2, 2, 2, 2, 2, 2, 2, 2, 2], [2, 2, 2, 2, 2, 2, 2, 2, 2], [2, 2, 2, 2, 2, 2, 2, 2, 2], [2, 2, 2, 2, 2, 2, 2, 2, 2], [2, 2, 2, 2, 2, 2, 2, 2, 2], [2, 2, 2, 2, 2, 2, 2, 2, 2], [2, 1, 1, 2, 2, 1, 2, 1, 2], [2, 2, 2, 2, 2, 2, 2, 2, 2], [2, 2, 2, 2, 2, 2, 2, 2, 2], [2, 2, 2, 2, 2, 2, 2, 2, 2], [2, 2, 2, 2, 2, 2, 2, 2, 2], [2, 2, 2, 2, 2, 2, 2, 2, 2], [2, 2, 2, 2, 2, 2, 2, 2, 2], [2, 2, 2, 2, 2, 2, 2, 2, 2], [2, 2, 2, 2, 2, 2, 2, 2, 2], [2, 2, 2, 2, 2, 2, 2, 2, 2], [2, 2, 2, 2, 2, 2, 2, 2, 2], [2, 2, 2, 2, 2, 2, 2, 2, 2], [2, 2, 2, 2, 2, 2, 2, 2, 2], [2, 2, 2, 2, 2, 2, 2, 2, 2], [2, 2, 2, 2, 2, 2, 2, 2, 2], [2, 2, 2, 2, 2, 2, 2, 2, 2], [2, 2, 2, 2, 2, 2, 2, 2, 2], [2, 2, 2, 2, 2, 2, 2, 2, 2], [2, 2, 2, 2, 2, 2, 2, 2, 2], [2, 2, 2, 2, 2, 2, 2, 2, 2], [2, 2, 2, 2, 2, 2, 2, 2, 2], [2, 2, 2, 2, 2, 2, 2, 2, 2], [2, 1, 2, 2, 1, 1, 2, 2, 1], [2, 2, 2, 2, 2, 2, 2, 2, 2], [2, 2, 2, 2, 2, 2, 2, 2, 2], [2, 2, 2, 2, 2, 2, 2, 2, 2], [2, 2, 2, 2, 2, 2, 2, 2, 2], [2, 2, 2, 2, 2, 2, 2, 2, 2], [2, 2, 2, 2, 2, 2, 2, 2, 2], [2, 2, 2, 2, 2, 2, 2, 2, 2], [2, 2, 2, 2, 2, 2, 2, 2, 2], [1, 2, 1, 1, 1, 2, 2, 1, 1], [1, 2, 2, 1, 1, 2, 1, 2, 1], [2, 2, 2, 2, 2, 2, 2, 2, 2], [2, 2, 2, 2, 2, 2, 2, 2, 2], [2, 2, 2, 2, 2, 2, 2, 2, 2], [2, 2, 2, 2, 2, 2, 2, 2, 2], [2, 2, 2, 2, 2, 2, 2, 2, 2], [2, 2, 2, 2, 2, 2, 2, 2, 2], [2, 2, 2, 2, 2, 2, 2, 2, 2], [2, 2, 2, 2, 2, 2, 2, 2, 2], [2, 2, 2, 2, 2, 2, 2, 2, 2], [2, 2, 2, 2, 2, 2, 2, 2, 2], [2, 2, 2, 2, 2, 2, 2, 2, 2], [2, 2, 2, 2, 2, 2, 2, 2, 2], [2, 2, 2, 2, 2, 2, 2, 2, 2], [2, 2, 2, 2, 2, 2, 2, 2, 2], [2, 2, 2, 2, 2, 2, 2, 2, 2], [2, 2, 2, 2, 2, 2, 2, 2, 2], [2, 2, 2, 2, 2, 2, 2, 2, 2], [2, 2, 2, 2, 2, 2, 2, 2, 2], [2, 2, 2, 2, 2, 2, 2, 2, 2], [2, 2, 2, 2, 2, 2, 2, 2, 2], [2, 2, 2, 2, 2, 2, 2, 2, 2], [2, 2, 2, 2, 2, 2, 2, 2, 2], [2, 2, 2, 2, 2, 2, 2, 2, 2], [2, 2, 2, 2, 2, 2, 2, 2, 2], [2, 2, 2, 2, 2, 2, 2, 2, 2], [2, 2, 2, 2, 2, 2, 2, 2, 2], [2, 2, 2, 2, 2, 2, 2, 2, 2], [1, 2, 2, 2, 1, 1, 1, 1, 2], [2, 2, 2, 2, 2, 2, 2, 2, 2], [2, 2, 2, 2, 2, 2, 2, 2, 2], [2, 2, 2, 2, 2, 2, 2, 2, 2], [2, 2, 2, 2, 2, 2, 2, 2, 2], [2, 2, 2, 2, 2, 2, 2, 2, 2], [2, 2, 2, 2, 2, 2, 2, 2, 2], [2, 2, 2, 2, 2, 2, 2, 2, 2]]
-- Generation 20 --
  Evaluated 45 individuals
The population: [[2, 2, 2, 2, 2, 2, 2, 2, 2], [2, 2, 2, 2, 2, 2, 2, 2, 2], [2, 2, 2, 2, 2, 2, 2, 2, 2], [2, 2, 2, 2, 2, 2, 2, 2, 2], [2, 1, 1, 1, 2, 2, 2, 1, 2], [2, 2, 2, 2, 2, 2, 2, 2, 2], [2, 2, 1, 2, 2, 2, 2, 2, 2], [1, 2, 2, 2, 2, 1, 1, 2, 2], [2, 2, 2, 2, 2, 2, 2, 2, 2], [2, 2, 2, 2, 2, 2, 2, 2, 2], [2, 2, 2, 2, 2, 2, 2, 2, 2], [2, 2, 2, 2, 2, 2, 2, 2, 2], [2, 2, 2, 2, 2, 2, 2, 2, 2], [2, 1, 2, 2, 2, 1, 2, 1, 1], [2, 2, 2, 2, 2, 2, 2, 2, 2], [2, 2, 2, 2, 2, 2, 2, 2, 2], [2, 2, 2, 2, 2, 2, 2, 2, 2], [2, 2, 2, 2, 2, 2, 2, 2, 2], [2, 2, 2, 2, 2, 2, 2, 2, 2], [2, 2, 2, 2, 2, 2, 2, 2, 2], [2, 2, 2, 2, 2, 2, 2, 2, 2], [2, 2, 2, 2, 2, 2, 2, 2, 2], [2, 2, 2, 2, 2, 2, 2, 2, 2], [2, 2, 2, 2, 2, 2, 2, 2, 2], [2, 2, 2, 2, 2, 2, 2, 2, 2], [2, 2, 2, 2, 2, 2, 2, 2, 2], [2, 2, 2, 2, 2, 2, 2, 2, 2], [2, 2, 2, 2, 2, 2, 2, 2, 2], [2, 2, 2, 2, 2, 2, 2, 2, 2], [2, 2, 2, 2, 2, 2, 2, 2, 2], [2, 2, 2, 2, 2, 2, 2, 2, 2], [2, 2, 2, 2, 2, 2, 2, 2, 2], [2, 2, 2, 2, 2, 2, 2, 2, 2], [2, 2, 2, 2, 2, 2, 2, 2, 2], [2, 2, 2, 2, 2, 2, 2, 2, 2], [2, 2, 2, 2, 2, 2, 2, 2, 2], [2, 2, 2, 2, 2, 2, 2, 2, 2], [2, 2, 1, 2, 2, 2, 2, 2, 2], [2, 2, 1, 2, 1, 2, 2, 1, 1], [2, 2, 2, 2, 2, 2, 2, 2, 2], [2, 2, 2, 2, 2, 2, 2, 2, 2], [2, 2, 2, 2, 2, 2, 2, 2, 2], [2, 2, 2, 2, 2, 2, 2, 2, 2], [2, 2, 2, 2, 2, 2, 2, 2, 2], [2, 2, 2, 2, 2, 2, 2, 2, 2], [2, 2, 2, 2, 2, 2, 2, 2, 2], [2, 2, 1, 1, 2, 1, 1, 1, 1], [2, 2, 2, 2, 2, 2, 2, 2, 2], [2, 2, 2, 2, 2, 2, 2, 2, 2], [2, 2, 2, 2, 2, 2, 2, 2, 2], [2, 2, 2, 2, 2, 2, 2, 2, 2], [2, 2, 2, 2, 2, 2, 2, 2, 2], [2, 2, 2, 2, 2, 2, 2, 2, 2], [2, 2, 2, 2, 2, 2, 2, 2, 2], [2, 2, 2, 2, 2, 2, 2, 2, 2], [2, 2, 2, 2, 2, 2, 2, 2, 2], [2, 2, 2, 2, 2, 2, 2, 2, 2], [2, 2, 2, 2, 2, 2, 2, 2, 2], [2, 2, 2, 2, 2, 2, 2, 2, 2], [2, 2, 2, 2, 2, 2, 2, 2, 2], [2, 2, 2, 2, 2, 2, 2, 2, 2], [2, 2, 2, 2, 2, 2, 2, 2, 2], [2, 2, 2, 2, 2, 2, 2, 2, 2], [2, 2, 2, 2, 2, 2, 2, 2, 2], [2, 2, 2, 2, 2, 2, 2, 2, 2], [2, 2, 2, 2, 2, 2, 2, 2, 2], [2, 2, 2, 2, 2, 2, 2, 2, 2], [2, 2, 2, 2, 2, 2, 2, 2, 2], [2, 1, 2, 2, 2, 2, 2, 2, 1], [2, 2, 2, 2, 2, 2, 2, 2, 2], [2, 1, 1, 2, 1, 2, 2, 1, 2], [2, 2, 2, 2, 2, 2, 2, 2, 2], [2, 2, 2, 2, 2, 2, 2, 2, 2], [2, 2, 2, 2, 2, 2, 2, 2, 2], [2, 2, 2, 2, 2, 2, 2, 2, 2]]
-- Generation 21 --
  Evaluated 42 individuals
The population: [[2, 2, 2, 2, 2, 2, 2, 2, 2], [2, 2, 2, 2, 2, 2, 2, 2, 2], [2, 2, 2, 2, 2, 2, 2, 2, 2], [2, 2, 2, 2, 2, 2, 2, 2, 2], [2, 1, 2, 2, 2, 1, 2, 1, 2], [2, 2, 2, 2, 2, 2, 2, 2, 2], [2, 2, 2, 2, 2, 2, 2, 2, 2], [2, 2, 2, 2, 2, 2, 2, 2, 2], [2, 2, 2, 2, 2, 2, 2, 2, 2], [2, 2, 2, 2, 2, 2, 2, 2, 2], [2, 2, 2, 2, 2, 2, 2, 2, 2], [2, 2, 2, 2, 2, 2, 2, 2, 2], [2, 2, 2, 2, 2, 2, 2, 2, 2], [2, 2, 2, 2, 2, 2, 2, 2, 2], [2, 2, 2, 2, 2, 2, 2, 2, 2], [2, 2, 2, 2, 2, 2, 2, 2, 2], [2, 2, 2, 2, 2, 2, 2, 2, 2], [2, 2, 2, 2, 2, 2, 2, 2, 2], [2, 2, 2, 2, 2, 2, 2, 2, 2], [2, 2, 2, 2, 2, 2, 2, 2, 2], [2, 2, 2, 2, 2, 2, 2, 2, 2], [2, 2, 2, 2, 2, 2, 2, 2, 2], [2, 2, 2, 2, 2, 2, 2, 2, 2], [2, 2, 2, 2, 2, 2, 2, 2, 2], [2, 2, 2, 2, 2, 2, 2, 2, 2], [2, 2, 2, 2, 2, 2, 2, 2, 2], [2, 2, 2, 2, 2, 2, 2, 2, 2], [2, 2, 2, 2, 2, 2, 2, 2, 2], [2, 2, 2, 2, 2, 2, 2, 2, 2], [2, 2, 2, 2, 2, 2, 2, 2, 2], [2, 2, 2, 2, 2, 2, 2, 2, 2], [2, 2, 2, 2, 2, 2, 2, 2, 2], [2, 2, 2, 2, 2, 2, 2, 2, 2], [2, 2, 2, 2, 2, 2, 2, 2, 2], [2, 2, 2, 2, 2, 2, 2, 2, 2], [2, 2, 2, 2, 2, 2, 2, 2, 2], [2, 2, 2, 2, 2, 2, 2, 2, 2], [2, 2, 2, 2, 2, 2, 2, 2, 2], [2, 2, 2, 2, 2, 2, 2, 2, 2], [2, 2, 2, 2, 2, 2, 2, 2, 2], [2, 2, 2, 2, 2, 2, 2, 2, 2], [2, 2, 1, 2, 2, 2, 2, 1, 2], [2, 2, 2, 2, 2, 2, 2, 2, 2], [1, 2, 2, 1, 2, 2, 1, 1, 2], [2, 2, 2, 2, 2, 2, 2, 2, 2], [2, 2, 2, 2, 2, 2, 2, 2, 2], [2, 2, 2, 2, 2, 2, 2, 2, 2], [2, 2, 2, 2, 2, 2, 2, 2, 2], [2, 2, 2, 2, 2, 2, 2, 2, 2], [2, 2, 2, 2, 2, 2, 2, 2, 2], [2, 2, 2, 2, 2, 2, 2, 2, 2], [2, 1, 1, 2, 1, 1, 2, 2, 1], [2, 2, 2, 2, 2, 2, 2, 2, 2], [2, 2, 2, 2, 2, 2, 2, 2, 2], [2, 2, 2, 2, 2, 2, 2, 2, 2], [2, 2, 2, 2, 2, 2, 2, 2, 2], [2, 2, 2, 2, 2, 2, 2, 2, 2], [2, 2, 2, 2, 2, 2, 2, 2, 2], [2, 2, 2, 2, 2, 2, 2, 2, 2], [2, 2, 2, 2, 2, 2, 2, 2, 2], [1, 1, 1, 2, 2, 1, 2, 1, 2], [2, 2, 2, 2, 2, 2, 2, 2, 2], [2, 2, 2, 2, 2, 2, 2, 2, 2], [1, 1, 1, 1, 2, 1, 2, 2, 1], [2, 2, 2, 2, 2, 2, 2, 2, 2], [2, 2, 2, 2, 2, 2, 2, 2, 2], [2, 2, 2, 2, 2, 2, 2, 2, 2], [2, 2, 2, 2, 2, 2, 2, 2, 2], [2, 2, 2, 2, 2, 2, 2, 2, 2], [2, 2, 2, 2, 2, 2, 2, 2, 2], [2, 2, 2, 2, 2, 2, 2, 2, 2], [2, 2, 2, 2, 2, 2, 2, 2, 2], [2, 2, 2, 2, 2, 2, 2, 2, 2], [2, 2, 2, 2, 2, 2, 2, 2, 2], [2, 2, 2, 2, 2, 2, 2, 2, 2]]
-- Generation 22 --
  Evaluated 44 individuals
The population: [[2, 2, 2, 1, 1, 2, 2, 2, 2], [2, 2, 2, 2, 2, 2, 2, 2, 2], [2, 2, 2, 2, 2, 2, 2, 2, 2], [2, 2, 2, 2, 2, 2, 2, 2, 2], [1, 2, 2, 1, 1, 1, 2, 2, 1], [2, 2, 2, 2, 2, 2, 2, 2, 2], [2, 2, 2, 2, 2, 2, 2, 2, 2], [2, 2, 2, 2, 2, 2, 2, 2, 2], [2, 2, 2, 2, 2, 2, 2, 2, 2], [2, 2, 2, 2, 2, 2, 2, 2, 2], [2, 2, 2, 2, 2, 2, 2, 2, 2], [1, 1, 2, 1, 2, 2, 2, 1, 2], [2, 2, 2, 2, 2, 2, 2, 2, 2], [2, 2, 2, 2, 2, 2, 2, 2, 2], [1, 2, 1, 2, 2, 1, 2, 1, 2], [1, 1, 1, 1, 1, 1, 2, 1, 1], [2, 2, 2, 2, 2, 2, 2, 2, 2], [2, 2, 2, 2, 2, 2, 2, 2, 2], [2, 2, 2, 2, 2, 2, 2, 2, 2], [1, 1, 1, 1, 2, 2, 2, 2, 2], [2, 2, 2, 2, 2, 2, 2, 2, 2], [2, 2, 2, 2, 2, 2, 2, 2, 2], [2, 2, 2, 2, 2, 2, 2, 2, 2], [2, 2, 2, 2, 2, 2, 2, 2, 2], [2, 2, 2, 2, 2, 2, 2, 2, 2], [2, 2, 2, 2, 2, 2, 2, 2, 2], [2, 2, 2, 2, 2, 1, 2, 2, 1], [2, 2, 2, 2, 2, 2, 2, 2, 2], [2, 2, 2, 2, 2, 2, 2, 2, 2], [2, 2, 2, 2, 2, 2, 2, 2, 2], [2, 2, 2, 2, 2, 2, 2, 2, 2], [2, 2, 2, 2, 2, 2, 2, 2, 2], [2, 2, 2, 2, 2, 2, 2, 2, 2], [2, 2, 2, 2, 2, 2, 2, 2, 2], [2, 2, 2, 2, 2, 2, 2, 2, 2], [2, 2, 2, 2, 2, 2, 2, 2, 2], [2, 2, 2, 2, 2, 2, 2, 2, 2], [2, 2, 2, 2, 2, 2, 2, 2, 2], [2, 2, 2, 2, 2, 2, 2, 2, 2], [2, 1, 1, 1, 2, 2, 1, 1, 1], [2, 2, 2, 2, 2, 2, 2, 2, 2], [2, 2, 2, 2, 2, 2, 2, 2, 2], [2, 2, 2, 2, 2, 2, 2, 2, 2], [2, 2, 2, 2, 2, 2, 2, 2, 2], [2, 2, 2, 2, 2, 2, 2, 2, 2], [2, 2, 2, 2, 2, 2, 2, 2, 2], [2, 2, 2, 2, 2, 2, 2, 2, 2], [2, 2, 2, 2, 2, 2, 2, 2, 2], [2, 2, 2, 2, 2, 2, 2, 2, 2], [2, 2, 2, 2, 2, 2, 2, 2, 2], [2, 2, 2, 2, 2, 2, 2, 2, 2], [2, 2, 2, 2, 2, 2, 2, 2, 2], [2, 2, 2, 2, 2, 2, 2, 2, 2], [2, 2, 2, 2, 2, 2, 2, 2, 2], [2, 2, 2, 2, 2, 2, 2, 2, 2], [2, 2, 2, 2, 2, 2, 2, 2, 2], [2, 2, 2, 2, 2, 2, 2, 2, 2], [2, 2, 2, 2, 2, 2, 2, 2, 2], [2, 2, 2, 2, 2, 2, 2, 2, 2], [2, 2, 2, 2, 2, 2, 2, 2, 2], [2, 2, 2, 2, 2, 2, 2, 2, 2], [2, 2, 2, 2, 2, 2, 2, 2, 2], [1, 2, 2, 1, 1, 1, 2, 2, 2], [2, 2, 2, 2, 2, 2, 2, 2, 2], [2, 2, 2, 2, 2, 2, 2, 2, 2], [2, 2, 2, 2, 2, 2, 2, 2, 2], [2, 2, 2, 2, 2, 2, 2, 2, 2], [2, 2, 2, 2, 2, 2, 2, 2, 2], [2, 2, 2, 2, 2, 2, 2, 2, 2], [2, 2, 2, 2, 2, 2, 2, 2, 2], [2, 2, 2, 2, 2, 2, 2, 2, 2], [2, 2, 2, 2, 2, 2, 2, 2, 2], [2, 2, 2, 2, 2, 2, 2, 2, 2], [2, 2, 2, 2, 2, 2, 2, 2, 2], [1, 1, 1, 2, 1, 2, 2, 1, 1]]
-- Generation 23 --
  Evaluated 41 individuals
The population: [[2, 2, 2, 2, 2, 2, 2, 2, 2], [2, 2, 2, 2, 2, 2, 2, 2, 2], [2, 2, 2, 2, 2, 2, 2, 2, 2], [2, 2, 2, 2, 2, 2, 2, 2, 2], [2, 2, 2, 2, 2, 2, 2, 2, 2], [2, 2, 2, 2, 2, 2, 2, 2, 2], [2, 2, 2, 2, 2, 2, 2, 2, 2], [2, 2, 2, 2, 2, 2, 2, 2, 2], [2, 2, 2, 2, 2, 2, 2, 2, 2], [2, 1, 1, 2, 2, 1, 2, 2, 1], [2, 2, 2, 2, 2, 2, 2, 2, 2], [2, 2, 2, 2, 2, 2, 2, 2, 2], [2, 2, 2, 2, 2, 2, 2, 2, 2], [2, 2, 2, 2, 2, 2, 2, 2, 2], [2, 2, 2, 2, 2, 2, 2, 2, 2], [2, 2, 2, 2, 2, 2, 2, 2, 2], [2, 2, 2, 2, 2, 2, 2, 2, 2], [2, 2, 2, 2, 2, 2, 2, 2, 2], [2, 2, 2, 2, 2, 2, 2, 2, 2], [2, 2, 1, 2, 1, 2, 2, 2, 1], [2, 2, 2, 2, 2, 2, 2, 2, 2], [2, 2, 2, 2, 2, 2, 2, 2, 2], [2, 2, 2, 2, 2, 2, 2, 2, 2], [2, 2, 2, 2, 2, 2, 2, 2, 2], [2, 2, 2, 2, 2, 2, 2, 2, 2], [2, 2, 2, 2, 2, 2, 2, 2, 2], [2, 2, 2, 2, 2, 2, 2, 2, 2], [2, 2, 2, 2, 2, 2, 2, 2, 2], [2, 2, 2, 2, 2, 2, 2, 2, 2], [2, 2, 2, 2, 2, 2, 2, 2, 2], [2, 2, 2, 2, 1, 2, 1, 1, 2], [1, 2, 2, 1, 2, 2, 1, 2, 1], [2, 2, 2, 2, 2, 2, 2, 2, 2], [2, 2, 2, 2, 2, 2, 2, 2, 2], [2, 2, 2, 2, 2, 2, 2, 2, 2], [2, 2, 2, 2, 2, 2, 2, 2, 2], [2, 2, 2, 2, 2, 2, 2, 2, 2], [2, 2, 2, 2, 2, 2, 2, 2, 2], [1, 2, 1, 1, 1, 2, 2, 2, 2], [2, 2, 2, 2, 2, 2, 2, 2, 2], [2, 2, 2, 1, 2, 1, 1, 1, 2], [2, 2, 2, 2, 2, 2, 2, 2, 2], [2, 2, 2, 2, 2, 2, 2, 2, 2], [2, 2, 2, 2, 2, 2, 2, 2, 2], [2, 2, 2, 2, 2, 2, 2, 2, 2], [2, 2, 2, 2, 2, 2, 2, 2, 2], [2, 2, 2, 2, 2, 2, 2, 2, 2], [2, 2, 2, 2, 2, 2, 2, 2, 2], [2, 2, 2, 2, 2, 2, 2, 2, 2], [2, 2, 2, 2, 2, 2, 2, 2, 2], [1, 2, 1, 2, 2, 2, 2, 2, 2], [2, 2, 2, 2, 2, 2, 2, 2, 2], [2, 2, 2, 2, 2, 2, 2, 2, 2], [2, 2, 2, 2, 2, 2, 2, 2, 2], [2, 2, 2, 2, 2, 2, 2, 2, 2], [2, 2, 2, 2, 2, 2, 2, 2, 2], [2, 2, 2, 2, 2, 2, 2, 2, 2], [2, 2, 2, 2, 2, 2, 2, 2, 2], [2, 2, 2, 2, 2, 2, 2, 2, 2], [2, 2, 2, 2, 2, 2, 2, 2, 2], [2, 2, 2, 2, 2, 2, 2, 2, 2], [2, 2, 2, 2, 2, 2, 2, 2, 2], [2, 2, 2, 2, 2, 2, 2, 2, 2], [2, 2, 2, 2, 2, 2, 2, 2, 2], [2, 2, 2, 2, 2, 2, 2, 2, 2], [1, 2, 2, 1, 2, 2, 2, 2, 1], [2, 2, 2, 2, 2, 2, 2, 2, 2], [2, 2, 2, 2, 2, 2, 2, 2, 2], [2, 2, 2, 2, 2, 2, 2, 2, 2], [2, 2, 2, 2, 2, 2, 2, 2, 2], [2, 2, 2, 2, 2, 2, 2, 2, 2], [2, 2, 2, 2, 2, 2, 2, 2, 2], [2, 1, 2, 1, 1, 1, 2, 1, 2], [2, 2, 2, 2, 2, 2, 2, 2, 2], [2, 2, 2, 2, 2, 2, 2, 2, 2]]
-- Generation 24 --
  Evaluated 42 individuals
The population: [[2, 2, 2, 2, 2, 2, 2, 2, 2], [2, 2, 2, 2, 2, 2, 2, 2, 2], [2, 2, 2, 2, 2, 2, 2, 2, 2], [2, 2, 2, 2, 2, 2, 2, 2, 2], [2, 2, 2, 2, 2, 2, 2, 2, 2], [2, 2, 2, 2, 2, 2, 2, 2, 2], [2, 2, 2, 2, 2, 2, 2, 2, 2], [2, 2, 2, 2, 2, 2, 2, 2, 2], [2, 2, 2, 2, 2, 2, 2, 2, 2], [2, 2, 2, 2, 2, 2, 2, 2, 2], [2, 2, 2, 2, 2, 2, 2, 2, 2], [2, 2, 2, 2, 2, 2, 2, 2, 2], [2, 2, 1, 2, 1, 1, 2, 1, 1], [2, 2, 2, 2, 2, 2, 2, 2, 2], [2, 1, 1, 1, 2, 2, 1, 1, 1], [2, 2, 2, 2, 2, 2, 2, 2, 2], [2, 2, 2, 2, 2, 2, 2, 2, 2], [2, 2, 2, 2, 2, 2, 2, 2, 2], [2, 2, 2, 2, 2, 2, 2, 2, 2], [2, 2, 2, 2, 2, 2, 2, 2, 2], [2, 2, 1, 2, 1, 2, 2, 1, 2], [2, 2, 2, 2, 2, 2, 2, 2, 2], [2, 2, 2, 2, 2, 2, 2, 2, 2], [2, 2, 2, 2, 2, 2, 2, 2, 2], [2, 2, 2, 2, 2, 2, 2, 2, 2], [2, 2, 2, 2, 2, 2, 2, 2, 2], [1, 2, 2, 2, 1, 2, 1, 1, 2], [2, 2, 2, 2, 2, 2, 2, 2, 2], [2, 2, 2, 2, 2, 2, 2, 2, 2], [2, 2, 2, 2, 2, 2, 2, 2, 2], [2, 2, 2, 1, 1, 2, 2, 1, 2], [2, 2, 2, 2, 2, 2, 2, 2, 2], [2, 2, 2, 2, 2, 2, 2, 2, 2], [2, 2, 2, 2, 2, 2, 2, 2, 2], [2, 2, 2, 2, 2, 2, 2, 2, 2], [1, 1, 2, 1, 1, 2, 2, 2, 2], [2, 2, 2, 2, 2, 2, 2, 2, 2], [2, 2, 2, 2, 2, 2, 2, 2, 2], [2, 2, 2, 2, 2, 2, 2, 2, 2], [2, 2, 2, 2, 2, 2, 2, 2, 2], [2, 2, 2, 2, 2, 2, 2, 2, 2], [2, 2, 2, 2, 2, 2, 2, 2, 2], [2, 2, 2, 2, 2, 2, 2, 2, 2], [2, 2, 2, 2, 2, 2, 2, 2, 2], [2, 2, 2, 2, 2, 2, 2, 2, 2], [2, 2, 2, 2, 1, 2, 1, 1, 2], [2, 2, 2, 2, 2, 2, 2, 2, 2], [2, 2, 2, 2, 2, 2, 2, 2, 2], [2, 2, 2, 2, 2, 2, 2, 2, 2], [2, 2, 2, 2, 2, 2, 2, 2, 2], [2, 2, 2, 2, 2, 2, 2, 2, 2], [2, 2, 2, 2, 2, 2, 2, 2, 2], [2, 2, 2, 2, 2, 2, 2, 2, 2], [2, 2, 2, 2, 2, 2, 2, 2, 2], [2, 2, 2, 2, 2, 2, 2, 2, 2], [2, 2, 2, 2, 2, 2, 2, 2, 2], [2, 2, 2, 2, 2, 2, 2, 2, 2], [2, 2, 1, 2, 2, 2, 1, 2, 2], [2, 2, 2, 2, 2, 2, 2, 2, 2], [2, 2, 2, 2, 2, 2, 2, 2, 2], [2, 2, 2, 2, 2, 2, 2, 2, 2], [2, 2, 2, 2, 2, 2, 2, 2, 2], [2, 2, 2, 2, 2, 2, 2, 2, 2], [2, 2, 2, 2, 2, 2, 2, 2, 2], [2, 2, 2, 2, 2, 2, 2, 2, 2], [2, 2, 2, 2, 2, 2, 2, 2, 2], [2, 2, 2, 2, 2, 2, 2, 2, 2], [2, 2, 2, 2, 2, 2, 2, 2, 2], [2, 2, 2, 2, 2, 2, 2, 2, 2], [2, 2, 2, 2, 2, 2, 2, 2, 2], [2, 2, 2, 2, 2, 2, 2, 2, 2], [2, 2, 2, 1, 2, 1, 2, 2, 1], [2, 2, 2, 2, 2, 2, 2, 2, 2], [2, 2, 2, 2, 2, 2, 2, 2, 2], [2, 2, 2, 2, 2, 2, 2, 2, 2]]
-- Generation 25 --
  Evaluated 33 individuals
The population: [[2, 2, 2, 2, 2, 2, 2, 2, 2], [2, 1, 1, 1, 2, 1, 1, 1, 1], [2, 2, 2, 2, 2, 2, 2, 2, 2], [2, 2, 2, 2, 2, 2, 2, 2, 2], [2, 2, 2, 2, 2, 2, 2, 2, 2], [2, 2, 2, 2, 2, 2, 2, 2, 2], [2, 2, 2, 2, 2, 2, 2, 2, 2], [2, 2, 2, 2, 2, 2, 2, 2, 2], [2, 2, 2, 2, 2, 2, 2, 2, 2], [2, 2, 1, 2, 1, 2, 2, 2, 2], [2, 2, 2, 2, 2, 2, 2, 2, 2], [2, 2, 2, 2, 2, 2, 2, 2, 2], [2, 2, 2, 2, 2, 2, 2, 2, 2], [2, 2, 2, 2, 2, 2, 2, 2, 2], [2, 2, 2, 2, 2, 2, 2, 2, 2], [2, 2, 2, 2, 2, 2, 2, 2, 2], [2, 2, 2, 2, 2, 2, 2, 2, 2], [2, 2, 2, 2, 2, 2, 2, 2, 2], [2, 2, 2, 2, 2, 2, 2, 2, 2], [2, 2, 2, 2, 2, 2, 2, 2, 2], [2, 2, 2, 2, 2, 2, 2, 2, 2], [2, 2, 2, 2, 2, 2, 2, 2, 2], [2, 2, 2, 2, 2, 2, 2, 2, 2], [2, 2, 2, 2, 2, 2, 2, 2, 2], [2, 2, 2, 2, 2, 2, 2, 2, 2], [2, 2, 2, 2, 2, 2, 2, 2, 2], [2, 2, 2, 2, 2, 2, 2, 2, 2], [2, 2, 2, 2, 2, 2, 2, 2, 2], [2, 2, 2, 2, 2, 2, 2, 2, 2], [2, 2, 2, 2, 2, 2, 2, 2, 2], [2, 2, 2, 2, 2, 2, 2, 2, 2], [2, 2, 2, 2, 2, 2, 2, 2, 2], [2, 2, 2, 2, 2, 2, 2, 2, 2], [2, 2, 2, 2, 2, 2, 2, 2, 2], [2, 2, 2, 2, 2, 2, 2, 2, 2], [2, 2, 2, 2, 2, 2, 2, 2, 2], [2, 2, 2, 2, 2, 2, 2, 2, 2], [2, 2, 2, 2, 2, 2, 2, 2, 2], [2, 2, 2, 2, 2, 2, 2, 2, 2], [2, 2, 2, 2, 2, 2, 2, 2, 2], [2, 2, 2, 2, 2, 2, 2, 2, 2], [2, 2, 2, 2, 2, 2, 2, 2, 2], [2, 2, 2, 2, 2, 2, 2, 2, 2], [2, 2, 2, 2, 2, 2, 2, 2, 2], [2, 2, 2, 2, 2, 2, 2, 2, 2], [2, 2, 2, 2, 2, 2, 2, 2, 2], [2, 2, 2, 2, 2, 2, 2, 2, 2], [2, 2, 2, 2, 2, 2, 2, 2, 2], [2, 2, 2, 2, 2, 2, 2, 2, 2], [2, 2, 2, 2, 2, 2, 2, 2, 2], [2, 2, 2, 2, 2, 2, 2, 2, 2], [2, 2, 2, 2, 2, 2, 2, 2, 2], [2, 2, 2, 2, 2, 2, 2, 2, 2], [2, 2, 2, 2, 2, 2, 2, 2, 2], [2, 2, 2, 2, 2, 2, 2, 2, 2], [2, 2, 2, 2, 2, 2, 2, 2, 2], [2, 2, 2, 2, 2, 2, 2, 2, 2], [2, 2, 2, 2, 2, 2, 2, 2, 2], [2, 2, 2, 2, 2, 2, 2, 2, 2], [2, 2, 2, 2, 2, 2, 2, 2, 2], [2, 2, 2, 2, 2, 2, 2, 2, 2], [2, 2, 2, 2, 2, 2, 2, 2, 2], [2, 2, 2, 2, 2, 2, 2, 2, 2], [2, 2, 2, 2, 2, 2, 2, 2, 2], [2, 2, 2, 2, 2, 2, 2, 2, 2], [2, 2, 2, 2, 2, 2, 2, 2, 2], [2, 2, 2, 2, 2, 2, 2, 2, 2], [2, 2, 2, 2, 2, 2, 2, 2, 2], [2, 2, 2, 2, 2, 2, 2, 2, 2], [2, 2, 2, 2, 2, 2, 2, 2, 2], [2, 2, 2, 2, 2, 2, 2, 2, 2], [2, 2, 2, 2, 2, 2, 2, 2, 2], [2, 2, 2, 2, 2, 2, 2, 2, 2], [2, 2, 2, 2, 2, 2, 2, 2, 2], [2, 2, 2, 2, 2, 2, 2, 2, 2]]
-- End of (successful) evolution --
Best reliability Metrics:
Best individual is [2, 2, 2, 2, 2, 2, 2, 2, 2], (0.6229508196721312, 0.9444798072129392)
Pareto Front:
[2, 2, 2, 2, 2, 2, 2, 2, 2], (0.6229508196721312, 0.9444798072129392)
[2, 2, 2, 2, 2, 2, 2, 2, 1], (0.6338797814207651, 0.955802447455963)
[1, 2, 2, 2, 2, 2, 2, 2, 1], (0.644808743169399, 0.9687888489717423)
[2, 2, 1, 2, 1, 2, 1, 2, 2], (0.6557377049180327, 0.9781891923809781)
[1, 2, 1, 2, 2, 2, 1, 2, 1], (0.6666666666666666, 0.9883841500800299)
[1, 2, 1, 2, 2, 2, 1, 1, 1], (0.6775956284153005, 0.9885330221295595)
[1, 2, 1, 1, 1, 2, 1, 2, 1], (0.6885245901639344, 0.9994907345041474)
[1, 1, 1, 1, 1, 2, 1, 2, 1], (0.6994535519125683, 0.9996825262879171)
[1, 1, 1, 1, 1, 1, 1, 2, 1], (0.7103825136612022, 0.9998329452188015)
Done.
