Copyright 1986-2017 Xilinx, Inc. All Rights Reserved.
-----------------------------------------------------------------------------------------------------------------------------------------------------------------------
| Tool Version : Vivado v.2017.1 (win64) Build 1846317 Fri Apr 14 18:55:03 MDT 2017
| Date         : Mon Nov 13 18:14:45 2017
| Host         : cfaed-pdpc003 running 64-bit major release  (build 9200)
| Command      : report_timing -to O -delay_type max -max_paths 10 -sort_by group -input_pins -file C:/Users/sanjeev/Desktop/Reports_EvoLib/tim_093_evolib.txt -name O
| Design       : mul8_093
| Device       : 7vx330t-ffg1157
| Speed File   : -3  PRODUCTION 1.11 2014-09-11
-----------------------------------------------------------------------------------------------------------------------------------------------------------------------

Timing Report

Slack:                    inf
  Source:                 A[6]
                            (input port)
  Destination:            O[15]
                            (output port)
  Path Group:             (none)
  Path Type:              Max at Slow Process Corner
  Data Path Delay:        10.411ns  (logic 2.911ns (27.961%)  route 7.500ns (72.039%))
  Logic Levels:           13  (IBUF=1 LUT2=1 LUT4=1 LUT6=9 OBUF=1)

    Location             Delay type                Incr(ns)  Path(ns)    Netlist Resource(s)
  -------------------------------------------------------------------    -------------------
    AM28                                              0.000     0.000 r  A[6] (IN)
                         net (fo=0)                   0.000     0.000    A[6]
    AM28                                                              r  A_IBUF[6]_inst/I
    AM28                 IBUF (Prop_ibuf_I_O)         0.587     0.587 r  A_IBUF[6]_inst/O
                         net (fo=23, routed)          1.438     2.024    A_IBUF[6]
    SLICE_X0Y63                                                       r  O_OBUF[6]_inst_i_13/I0
    SLICE_X0Y63          LUT2 (Prop_lut2_I0_O)        0.043     2.067 r  O_OBUF[6]_inst_i_13/O
                         net (fo=1, routed)           0.497     2.564    N_132
    SLICE_X1Y60                                                       r  O_OBUF[6]_inst_i_9/I0
    SLICE_X1Y60          LUT6 (Prop_lut6_I0_O)        0.043     2.607 r  O_OBUF[6]_inst_i_9/O
                         net (fo=3, routed)           0.486     3.093    N_382
    SLICE_X3Y59                                                       r  O_OBUF[9]_inst_i_15/I3
    SLICE_X3Y59          LUT4 (Prop_lut4_I3_O)        0.043     3.136 r  O_OBUF[9]_inst_i_15/O
                         net (fo=4, routed)           0.612     3.748    N_633
    SLICE_X6Y60                                                       r  O_OBUF[10]_inst_i_18/I2
    SLICE_X6Y60          LUT6 (Prop_lut6_I2_O)        0.043     3.791 r  O_OBUF[10]_inst_i_18/O
                         net (fo=1, routed)           0.509     4.299    O_OBUF[10]_inst_i_18_n_0
    SLICE_X3Y58                                                       r  O_OBUF[10]_inst_i_14/I0
    SLICE_X3Y58          LUT6 (Prop_lut6_I0_O)        0.043     4.342 r  O_OBUF[10]_inst_i_14/O
                         net (fo=3, routed)           0.500     4.842    N_932
    SLICE_X7Y60                                                       r  O_OBUF[15]_inst_i_13/I5
    SLICE_X7Y60          LUT6 (Prop_lut6_I5_O)        0.043     4.885 r  O_OBUF[15]_inst_i_13/O
                         net (fo=3, routed)           0.416     5.302    N_1183
    SLICE_X4Y60                                                       r  O_OBUF[15]_inst_i_10/I3
    SLICE_X4Y60          LUT6 (Prop_lut6_I3_O)        0.043     5.345 r  O_OBUF[15]_inst_i_10/O
                         net (fo=2, routed)           0.349     5.694    N_1214
    SLICE_X2Y61                                                       r  O_OBUF[12]_inst_i_5/I0
    SLICE_X2Y61          LUT6 (Prop_lut6_I0_O)        0.043     5.737 r  O_OBUF[12]_inst_i_5/O
                         net (fo=3, routed)           0.440     6.177    N_1464
    SLICE_X3Y61                                                       r  O_OBUF[15]_inst_i_7/I0
    SLICE_X3Y61          LUT6 (Prop_lut6_I0_O)        0.043     6.220 r  O_OBUF[15]_inst_i_7/O
                         net (fo=2, routed)           0.434     6.653    N_1733
    SLICE_X2Y63                                                       r  O_OBUF[15]_inst_i_4/I4
    SLICE_X2Y63          LUT6 (Prop_lut6_I4_O)        0.043     6.696 r  O_OBUF[15]_inst_i_4/O
                         net (fo=2, routed)           0.415     7.112    N_1749
    SLICE_X0Y63                                                       r  O_OBUF[15]_inst_i_1/I5
    SLICE_X0Y63          LUT6 (Prop_lut6_I5_O)        0.043     7.155 r  O_OBUF[15]_inst_i_1/O
                         net (fo=1, routed)           1.405     8.559    O_OBUF[15]
    AN30                                                              r  O_OBUF[15]_inst/I
    AN30                 OBUF (Prop_obuf_I_O)         1.851    10.411 r  O_OBUF[15]_inst/O
                         net (fo=0)                   0.000    10.411    O[15]
    AN30                                                              r  O[15] (OUT)
  -------------------------------------------------------------------    -------------------

Slack:                    inf
  Source:                 A[6]
                            (input port)
  Destination:            O[13]
                            (output port)
  Path Group:             (none)
  Path Type:              Max at Slow Process Corner
  Data Path Delay:        10.396ns  (logic 2.983ns (28.698%)  route 7.413ns (71.302%))
  Logic Levels:           13  (IBUF=1 LUT2=1 LUT4=3 LUT6=7 OBUF=1)

    Location             Delay type                Incr(ns)  Path(ns)    Netlist Resource(s)
  -------------------------------------------------------------------    -------------------
    AM28                                              0.000     0.000 r  A[6] (IN)
                         net (fo=0)                   0.000     0.000    A[6]
    AM28                                                              r  A_IBUF[6]_inst/I
    AM28                 IBUF (Prop_ibuf_I_O)         0.587     0.587 r  A_IBUF[6]_inst/O
                         net (fo=23, routed)          1.438     2.024    A_IBUF[6]
    SLICE_X0Y63                                                       r  O_OBUF[6]_inst_i_13/I0
    SLICE_X0Y63          LUT2 (Prop_lut2_I0_O)        0.043     2.067 r  O_OBUF[6]_inst_i_13/O
                         net (fo=1, routed)           0.497     2.564    N_132
    SLICE_X1Y60                                                       r  O_OBUF[6]_inst_i_9/I0
    SLICE_X1Y60          LUT6 (Prop_lut6_I0_O)        0.043     2.607 r  O_OBUF[6]_inst_i_9/O
                         net (fo=3, routed)           0.486     3.093    N_382
    SLICE_X3Y59                                                       r  O_OBUF[9]_inst_i_15/I3
    SLICE_X3Y59          LUT4 (Prop_lut4_I3_O)        0.043     3.136 r  O_OBUF[9]_inst_i_15/O
                         net (fo=4, routed)           0.612     3.748    N_633
    SLICE_X6Y60                                                       r  O_OBUF[10]_inst_i_18/I2
    SLICE_X6Y60          LUT6 (Prop_lut6_I2_O)        0.043     3.791 r  O_OBUF[10]_inst_i_18/O
                         net (fo=1, routed)           0.509     4.299    O_OBUF[10]_inst_i_18_n_0
    SLICE_X3Y58                                                       r  O_OBUF[10]_inst_i_14/I0
    SLICE_X3Y58          LUT6 (Prop_lut6_I0_O)        0.043     4.342 r  O_OBUF[10]_inst_i_14/O
                         net (fo=3, routed)           0.386     4.728    N_932
    SLICE_X7Y60                                                       r  O_OBUF[10]_inst_i_13/I0
    SLICE_X7Y60          LUT6 (Prop_lut6_I0_O)        0.043     4.771 r  O_OBUF[10]_inst_i_13/O
                         net (fo=4, routed)           0.519     5.291    N_1182
    SLICE_X2Y61                                                       r  O_OBUF[10]_inst_i_6/I0
    SLICE_X2Y61          LUT6 (Prop_lut6_I0_O)        0.043     5.334 r  O_OBUF[10]_inst_i_6/O
                         net (fo=4, routed)           0.427     5.761    N_1432
    SLICE_X1Y61                                                       r  O_OBUF[10]_inst_i_3/I2
    SLICE_X1Y61          LUT6 (Prop_lut6_I2_O)        0.043     5.804 r  O_OBUF[10]_inst_i_3/O
                         net (fo=2, routed)           0.335     6.139    N_1933
    SLICE_X0Y61                                                       r  O_OBUF[12]_inst_i_2/I0
    SLICE_X0Y61          LUT4 (Prop_lut4_I0_O)        0.043     6.182 r  O_OBUF[12]_inst_i_2/O
                         net (fo=3, routed)           0.351     6.533    N_1949
    SLICE_X0Y61                                                       r  O_OBUF[15]_inst_i_3/I2
    SLICE_X0Y61          LUT6 (Prop_lut6_I2_O)        0.043     6.576 r  O_OBUF[15]_inst_i_3/O
                         net (fo=3, routed)           0.438     7.014    N_1983
    SLICE_X0Y63                                                       r  O_OBUF[13]_inst_i_1/I3
    SLICE_X0Y63          LUT4 (Prop_lut4_I3_O)        0.048     7.062 r  O_OBUF[13]_inst_i_1/O
                         net (fo=1, routed)           1.416     8.477    O_OBUF[13]
    AK29                                                              r  O_OBUF[13]_inst/I
    AK29                 OBUF (Prop_obuf_I_O)         1.919    10.396 r  O_OBUF[13]_inst/O
                         net (fo=0)                   0.000    10.396    O[13]
    AK29                                                              r  O[13] (OUT)
  -------------------------------------------------------------------    -------------------

Slack:                    inf
  Source:                 A[6]
                            (input port)
  Destination:            O[14]
                            (output port)
  Path Group:             (none)
  Path Type:              Max at Slow Process Corner
  Data Path Delay:        10.209ns  (logic 2.895ns (28.360%)  route 7.314ns (71.640%))
  Logic Levels:           13  (IBUF=1 LUT2=1 LUT4=2 LUT6=8 OBUF=1)

    Location             Delay type                Incr(ns)  Path(ns)    Netlist Resource(s)
  -------------------------------------------------------------------    -------------------
    AM28                                              0.000     0.000 r  A[6] (IN)
                         net (fo=0)                   0.000     0.000    A[6]
    AM28                                                              r  A_IBUF[6]_inst/I
    AM28                 IBUF (Prop_ibuf_I_O)         0.587     0.587 r  A_IBUF[6]_inst/O
                         net (fo=23, routed)          1.438     2.024    A_IBUF[6]
    SLICE_X0Y63                                                       r  O_OBUF[6]_inst_i_13/I0
    SLICE_X0Y63          LUT2 (Prop_lut2_I0_O)        0.043     2.067 r  O_OBUF[6]_inst_i_13/O
                         net (fo=1, routed)           0.497     2.564    N_132
    SLICE_X1Y60                                                       r  O_OBUF[6]_inst_i_9/I0
    SLICE_X1Y60          LUT6 (Prop_lut6_I0_O)        0.043     2.607 r  O_OBUF[6]_inst_i_9/O
                         net (fo=3, routed)           0.486     3.093    N_382
    SLICE_X3Y59                                                       r  O_OBUF[9]_inst_i_15/I3
    SLICE_X3Y59          LUT4 (Prop_lut4_I3_O)        0.043     3.136 r  O_OBUF[9]_inst_i_15/O
                         net (fo=4, routed)           0.612     3.748    N_633
    SLICE_X6Y60                                                       r  O_OBUF[10]_inst_i_18/I2
    SLICE_X6Y60          LUT6 (Prop_lut6_I2_O)        0.043     3.791 r  O_OBUF[10]_inst_i_18/O
                         net (fo=1, routed)           0.509     4.299    O_OBUF[10]_inst_i_18_n_0
    SLICE_X3Y58                                                       r  O_OBUF[10]_inst_i_14/I0
    SLICE_X3Y58          LUT6 (Prop_lut6_I0_O)        0.043     4.342 r  O_OBUF[10]_inst_i_14/O
                         net (fo=3, routed)           0.386     4.728    N_932
    SLICE_X7Y60                                                       r  O_OBUF[10]_inst_i_13/I0
    SLICE_X7Y60          LUT6 (Prop_lut6_I0_O)        0.043     4.771 r  O_OBUF[10]_inst_i_13/O
                         net (fo=4, routed)           0.519     5.291    N_1182
    SLICE_X2Y61                                                       r  O_OBUF[10]_inst_i_6/I0
    SLICE_X2Y61          LUT6 (Prop_lut6_I0_O)        0.043     5.334 r  O_OBUF[10]_inst_i_6/O
                         net (fo=4, routed)           0.427     5.761    N_1432
    SLICE_X1Y61                                                       r  O_OBUF[10]_inst_i_3/I2
    SLICE_X1Y61          LUT6 (Prop_lut6_I2_O)        0.043     5.804 r  O_OBUF[10]_inst_i_3/O
                         net (fo=2, routed)           0.335     6.139    N_1933
    SLICE_X0Y61                                                       r  O_OBUF[12]_inst_i_2/I0
    SLICE_X0Y61          LUT4 (Prop_lut4_I0_O)        0.043     6.182 r  O_OBUF[12]_inst_i_2/O
                         net (fo=3, routed)           0.351     6.533    N_1949
    SLICE_X0Y61                                                       r  O_OBUF[15]_inst_i_3/I2
    SLICE_X0Y61          LUT6 (Prop_lut6_I2_O)        0.043     6.576 r  O_OBUF[15]_inst_i_3/O
                         net (fo=3, routed)           0.432     7.008    N_1983
    SLICE_X0Y63                                                       r  O_OBUF[14]_inst_i_1/I3
    SLICE_X0Y63          LUT6 (Prop_lut6_I3_O)        0.043     7.051 r  O_OBUF[14]_inst_i_1/O
                         net (fo=1, routed)           1.323     8.373    O_OBUF[14]
    AJ29                                                              r  O_OBUF[14]_inst/I
    AJ29                 OBUF (Prop_obuf_I_O)         1.836    10.209 r  O_OBUF[14]_inst/O
                         net (fo=0)                   0.000    10.209    O[14]
    AJ29                                                              r  O[14] (OUT)
  -------------------------------------------------------------------    -------------------

Slack:                    inf
  Source:                 A[6]
                            (input port)
  Destination:            O[11]
                            (output port)
  Path Group:             (none)
  Path Type:              Max at Slow Process Corner
  Data Path Delay:        9.791ns  (logic 2.858ns (29.188%)  route 6.933ns (70.812%))
  Logic Levels:           12  (IBUF=1 LUT2=1 LUT4=3 LUT6=6 OBUF=1)

    Location             Delay type                Incr(ns)  Path(ns)    Netlist Resource(s)
  -------------------------------------------------------------------    -------------------
    AM28                                              0.000     0.000 r  A[6] (IN)
                         net (fo=0)                   0.000     0.000    A[6]
    AM28                                                              r  A_IBUF[6]_inst/I
    AM28                 IBUF (Prop_ibuf_I_O)         0.587     0.587 r  A_IBUF[6]_inst/O
                         net (fo=23, routed)          1.438     2.024    A_IBUF[6]
    SLICE_X0Y63                                                       r  O_OBUF[6]_inst_i_13/I0
    SLICE_X0Y63          LUT2 (Prop_lut2_I0_O)        0.043     2.067 r  O_OBUF[6]_inst_i_13/O
                         net (fo=1, routed)           0.497     2.564    N_132
    SLICE_X1Y60                                                       r  O_OBUF[6]_inst_i_9/I0
    SLICE_X1Y60          LUT6 (Prop_lut6_I0_O)        0.043     2.607 r  O_OBUF[6]_inst_i_9/O
                         net (fo=3, routed)           0.486     3.093    N_382
    SLICE_X3Y59                                                       r  O_OBUF[9]_inst_i_15/I3
    SLICE_X3Y59          LUT4 (Prop_lut4_I3_O)        0.043     3.136 r  O_OBUF[9]_inst_i_15/O
                         net (fo=4, routed)           0.612     3.748    N_633
    SLICE_X6Y60                                                       r  O_OBUF[10]_inst_i_18/I2
    SLICE_X6Y60          LUT6 (Prop_lut6_I2_O)        0.043     3.791 r  O_OBUF[10]_inst_i_18/O
                         net (fo=1, routed)           0.509     4.299    O_OBUF[10]_inst_i_18_n_0
    SLICE_X3Y58                                                       r  O_OBUF[10]_inst_i_14/I0
    SLICE_X3Y58          LUT6 (Prop_lut6_I0_O)        0.043     4.342 r  O_OBUF[10]_inst_i_14/O
                         net (fo=3, routed)           0.386     4.728    N_932
    SLICE_X7Y60                                                       r  O_OBUF[10]_inst_i_13/I0
    SLICE_X7Y60          LUT6 (Prop_lut6_I0_O)        0.043     4.771 r  O_OBUF[10]_inst_i_13/O
                         net (fo=4, routed)           0.519     5.291    N_1182
    SLICE_X2Y61                                                       r  O_OBUF[10]_inst_i_6/I0
    SLICE_X2Y61          LUT6 (Prop_lut6_I0_O)        0.043     5.334 r  O_OBUF[10]_inst_i_6/O
                         net (fo=4, routed)           0.427     5.761    N_1432
    SLICE_X1Y61                                                       r  O_OBUF[10]_inst_i_3/I2
    SLICE_X1Y61          LUT6 (Prop_lut6_I2_O)        0.043     5.804 r  O_OBUF[10]_inst_i_3/O
                         net (fo=2, routed)           0.335     6.139    N_1933
    SLICE_X0Y61                                                       r  O_OBUF[12]_inst_i_2/I0
    SLICE_X0Y61          LUT4 (Prop_lut4_I0_O)        0.043     6.182 r  O_OBUF[12]_inst_i_2/O
                         net (fo=3, routed)           0.314     6.496    N_1949
    SLICE_X0Y60                                                       r  O_OBUF[11]_inst_i_1/I3
    SLICE_X0Y60          LUT4 (Prop_lut4_I3_O)        0.043     6.539 r  O_OBUF[11]_inst_i_1/O
                         net (fo=1, routed)           1.411     7.950    O_OBUF[11]
    AM31                                                              r  O_OBUF[11]_inst/I
    AM31                 OBUF (Prop_obuf_I_O)         1.841     9.791 r  O_OBUF[11]_inst/O
                         net (fo=0)                   0.000     9.791    O[11]
    AM31                                                              r  O[11] (OUT)
  -------------------------------------------------------------------    -------------------

Slack:                    inf
  Source:                 A[6]
                            (input port)
  Destination:            O[12]
                            (output port)
  Path Group:             (none)
  Path Type:              Max at Slow Process Corner
  Data Path Delay:        9.744ns  (logic 2.858ns (29.334%)  route 6.886ns (70.666%))
  Logic Levels:           12  (IBUF=1 LUT2=1 LUT4=2 LUT6=7 OBUF=1)

    Location             Delay type                Incr(ns)  Path(ns)    Netlist Resource(s)
  -------------------------------------------------------------------    -------------------
    AM28                                              0.000     0.000 r  A[6] (IN)
                         net (fo=0)                   0.000     0.000    A[6]
    AM28                                                              r  A_IBUF[6]_inst/I
    AM28                 IBUF (Prop_ibuf_I_O)         0.587     0.587 r  A_IBUF[6]_inst/O
                         net (fo=23, routed)          1.438     2.024    A_IBUF[6]
    SLICE_X0Y63                                                       r  O_OBUF[6]_inst_i_13/I0
    SLICE_X0Y63          LUT2 (Prop_lut2_I0_O)        0.043     2.067 r  O_OBUF[6]_inst_i_13/O
                         net (fo=1, routed)           0.497     2.564    N_132
    SLICE_X1Y60                                                       r  O_OBUF[6]_inst_i_9/I0
    SLICE_X1Y60          LUT6 (Prop_lut6_I0_O)        0.043     2.607 r  O_OBUF[6]_inst_i_9/O
                         net (fo=3, routed)           0.486     3.093    N_382
    SLICE_X3Y59                                                       r  O_OBUF[9]_inst_i_15/I3
    SLICE_X3Y59          LUT4 (Prop_lut4_I3_O)        0.043     3.136 r  O_OBUF[9]_inst_i_15/O
                         net (fo=4, routed)           0.612     3.748    N_633
    SLICE_X6Y60                                                       r  O_OBUF[10]_inst_i_18/I2
    SLICE_X6Y60          LUT6 (Prop_lut6_I2_O)        0.043     3.791 r  O_OBUF[10]_inst_i_18/O
                         net (fo=1, routed)           0.509     4.299    O_OBUF[10]_inst_i_18_n_0
    SLICE_X3Y58                                                       r  O_OBUF[10]_inst_i_14/I0
    SLICE_X3Y58          LUT6 (Prop_lut6_I0_O)        0.043     4.342 r  O_OBUF[10]_inst_i_14/O
                         net (fo=3, routed)           0.386     4.728    N_932
    SLICE_X7Y60                                                       r  O_OBUF[10]_inst_i_13/I0
    SLICE_X7Y60          LUT6 (Prop_lut6_I0_O)        0.043     4.771 r  O_OBUF[10]_inst_i_13/O
                         net (fo=4, routed)           0.519     5.291    N_1182
    SLICE_X2Y61                                                       r  O_OBUF[10]_inst_i_6/I0
    SLICE_X2Y61          LUT6 (Prop_lut6_I0_O)        0.043     5.334 r  O_OBUF[10]_inst_i_6/O
                         net (fo=4, routed)           0.427     5.761    N_1432
    SLICE_X1Y61                                                       r  O_OBUF[10]_inst_i_3/I2
    SLICE_X1Y61          LUT6 (Prop_lut6_I2_O)        0.043     5.804 r  O_OBUF[10]_inst_i_3/O
                         net (fo=2, routed)           0.335     6.139    N_1933
    SLICE_X0Y61                                                       r  O_OBUF[12]_inst_i_2/I0
    SLICE_X0Y61          LUT4 (Prop_lut4_I0_O)        0.043     6.182 r  O_OBUF[12]_inst_i_2/O
                         net (fo=3, routed)           0.350     6.532    N_1949
    SLICE_X0Y61                                                       r  O_OBUF[12]_inst_i_1/I0
    SLICE_X0Y61          LUT6 (Prop_lut6_I0_O)        0.043     6.575 r  O_OBUF[12]_inst_i_1/O
                         net (fo=1, routed)           1.328     7.902    O_OBUF[12]
    AL31                                                              r  O_OBUF[12]_inst/I
    AL31                 OBUF (Prop_obuf_I_O)         1.842     9.744 r  O_OBUF[12]_inst/O
                         net (fo=0)                   0.000     9.744    O[12]
    AL31                                                              r  O[12] (OUT)
  -------------------------------------------------------------------    -------------------

Slack:                    inf
  Source:                 A[6]
                            (input port)
  Destination:            O[10]
                            (output port)
  Path Group:             (none)
  Path Type:              Max at Slow Process Corner
  Data Path Delay:        9.448ns  (logic 2.896ns (30.651%)  route 6.552ns (69.349%))
  Logic Levels:           11  (IBUF=1 LUT2=1 LUT4=2 LUT6=6 OBUF=1)

    Location             Delay type                Incr(ns)  Path(ns)    Netlist Resource(s)
  -------------------------------------------------------------------    -------------------
    AM28                                              0.000     0.000 r  A[6] (IN)
                         net (fo=0)                   0.000     0.000    A[6]
    AM28                                                              r  A_IBUF[6]_inst/I
    AM28                 IBUF (Prop_ibuf_I_O)         0.587     0.587 r  A_IBUF[6]_inst/O
                         net (fo=23, routed)          1.438     2.024    A_IBUF[6]
    SLICE_X0Y63                                                       r  O_OBUF[6]_inst_i_13/I0
    SLICE_X0Y63          LUT2 (Prop_lut2_I0_O)        0.043     2.067 r  O_OBUF[6]_inst_i_13/O
                         net (fo=1, routed)           0.497     2.564    N_132
    SLICE_X1Y60                                                       r  O_OBUF[6]_inst_i_9/I0
    SLICE_X1Y60          LUT6 (Prop_lut6_I0_O)        0.043     2.607 r  O_OBUF[6]_inst_i_9/O
                         net (fo=3, routed)           0.486     3.093    N_382
    SLICE_X3Y59                                                       r  O_OBUF[9]_inst_i_15/I3
    SLICE_X3Y59          LUT4 (Prop_lut4_I3_O)        0.043     3.136 r  O_OBUF[9]_inst_i_15/O
                         net (fo=4, routed)           0.612     3.748    N_633
    SLICE_X6Y60                                                       r  O_OBUF[10]_inst_i_18/I2
    SLICE_X6Y60          LUT6 (Prop_lut6_I2_O)        0.043     3.791 r  O_OBUF[10]_inst_i_18/O
                         net (fo=1, routed)           0.509     4.299    O_OBUF[10]_inst_i_18_n_0
    SLICE_X3Y58                                                       r  O_OBUF[10]_inst_i_14/I0
    SLICE_X3Y58          LUT6 (Prop_lut6_I0_O)        0.043     4.342 r  O_OBUF[10]_inst_i_14/O
                         net (fo=3, routed)           0.386     4.728    N_932
    SLICE_X7Y60                                                       r  O_OBUF[10]_inst_i_13/I0
    SLICE_X7Y60          LUT6 (Prop_lut6_I0_O)        0.043     4.771 r  O_OBUF[10]_inst_i_13/O
                         net (fo=4, routed)           0.519     5.291    N_1182
    SLICE_X2Y61                                                       r  O_OBUF[10]_inst_i_6/I0
    SLICE_X2Y61          LUT6 (Prop_lut6_I0_O)        0.043     5.334 r  O_OBUF[10]_inst_i_6/O
                         net (fo=4, routed)           0.427     5.761    N_1432
    SLICE_X1Y61                                                       r  O_OBUF[10]_inst_i_3/I2
    SLICE_X1Y61          LUT6 (Prop_lut6_I2_O)        0.043     5.804 r  O_OBUF[10]_inst_i_3/O
                         net (fo=2, routed)           0.335     6.139    N_1933
    SLICE_X0Y61                                                       r  O_OBUF[10]_inst_i_1/I3
    SLICE_X0Y61          LUT4 (Prop_lut4_I3_O)        0.049     6.188 r  O_OBUF[10]_inst_i_1/O
                         net (fo=1, routed)           1.344     7.532    O_OBUF[10]
    AL29                                                              r  O_OBUF[10]_inst/I
    AL29                 OBUF (Prop_obuf_I_O)         1.916     9.448 r  O_OBUF[10]_inst/O
                         net (fo=0)                   0.000     9.448    O[10]
    AL29                                                              r  O[10] (OUT)
  -------------------------------------------------------------------    -------------------

Slack:                    inf
  Source:                 A[6]
                            (input port)
  Destination:            O[9]
                            (output port)
  Path Group:             (none)
  Path Type:              Max at Slow Process Corner
  Data Path Delay:        9.123ns  (logic 2.805ns (30.749%)  route 6.317ns (69.251%))
  Logic Levels:           11  (IBUF=1 LUT2=1 LUT4=3 LUT6=5 OBUF=1)

    Location             Delay type                Incr(ns)  Path(ns)    Netlist Resource(s)
  -------------------------------------------------------------------    -------------------
    AM28                                              0.000     0.000 r  A[6] (IN)
                         net (fo=0)                   0.000     0.000    A[6]
    AM28                                                              r  A_IBUF[6]_inst/I
    AM28                 IBUF (Prop_ibuf_I_O)         0.587     0.587 r  A_IBUF[6]_inst/O
                         net (fo=23, routed)          1.438     2.024    A_IBUF[6]
    SLICE_X0Y63                                                       r  O_OBUF[6]_inst_i_13/I0
    SLICE_X0Y63          LUT2 (Prop_lut2_I0_O)        0.043     2.067 r  O_OBUF[6]_inst_i_13/O
                         net (fo=1, routed)           0.497     2.564    N_132
    SLICE_X1Y60                                                       r  O_OBUF[6]_inst_i_9/I0
    SLICE_X1Y60          LUT6 (Prop_lut6_I0_O)        0.043     2.607 r  O_OBUF[6]_inst_i_9/O
                         net (fo=3, routed)           0.486     3.093    N_382
    SLICE_X3Y59                                                       r  O_OBUF[9]_inst_i_15/I3
    SLICE_X3Y59          LUT4 (Prop_lut4_I3_O)        0.043     3.136 r  O_OBUF[9]_inst_i_15/O
                         net (fo=4, routed)           0.612     3.748    N_633
    SLICE_X6Y60                                                       r  O_OBUF[10]_inst_i_18/I2
    SLICE_X6Y60          LUT6 (Prop_lut6_I2_O)        0.043     3.791 r  O_OBUF[10]_inst_i_18/O
                         net (fo=1, routed)           0.509     4.299    O_OBUF[10]_inst_i_18_n_0
    SLICE_X3Y58                                                       r  O_OBUF[10]_inst_i_14/I0
    SLICE_X3Y58          LUT6 (Prop_lut6_I0_O)        0.043     4.342 r  O_OBUF[10]_inst_i_14/O
                         net (fo=3, routed)           0.386     4.728    N_932
    SLICE_X7Y60                                                       r  O_OBUF[10]_inst_i_13/I0
    SLICE_X7Y60          LUT6 (Prop_lut6_I0_O)        0.043     4.771 r  O_OBUF[10]_inst_i_13/O
                         net (fo=4, routed)           0.519     5.291    N_1182
    SLICE_X2Y61                                                       r  O_OBUF[10]_inst_i_6/I0
    SLICE_X2Y61          LUT6 (Prop_lut6_I0_O)        0.043     5.334 r  O_OBUF[10]_inst_i_6/O
                         net (fo=4, routed)           0.239     5.573    N_1432
    SLICE_X2Y61                                                       r  O_OBUF[9]_inst_i_2/I0
    SLICE_X2Y61          LUT4 (Prop_lut4_I0_O)        0.043     5.616 r  O_OBUF[9]_inst_i_2/O
                         net (fo=1, routed)           0.318     5.934    N_1682
    SLICE_X1Y61                                                       r  O_OBUF[9]_inst_i_1/I0
    SLICE_X1Y61          LUT4 (Prop_lut4_I0_O)        0.043     5.977 r  O_OBUF[9]_inst_i_1/O
                         net (fo=1, routed)           1.314     7.291    O_OBUF[9]
    AL30                                                              r  O_OBUF[9]_inst/I
    AL30                 OBUF (Prop_obuf_I_O)         1.831     9.123 r  O_OBUF[9]_inst/O
                         net (fo=0)                   0.000     9.123    O[9]
    AL30                                                              r  O[9] (OUT)
  -------------------------------------------------------------------    -------------------

Slack:                    inf
  Source:                 A[6]
                            (input port)
  Destination:            O[8]
                            (output port)
  Path Group:             (none)
  Path Type:              Max at Slow Process Corner
  Data Path Delay:        8.507ns  (logic 2.840ns (33.389%)  route 5.667ns (66.611%))
  Logic Levels:           10  (IBUF=1 LUT2=1 LUT4=3 LUT6=4 OBUF=1)

    Location             Delay type                Incr(ns)  Path(ns)    Netlist Resource(s)
  -------------------------------------------------------------------    -------------------
    AM28                                              0.000     0.000 r  A[6] (IN)
                         net (fo=0)                   0.000     0.000    A[6]
    AM28                                                              r  A_IBUF[6]_inst/I
    AM28                 IBUF (Prop_ibuf_I_O)         0.587     0.587 r  A_IBUF[6]_inst/O
                         net (fo=23, routed)          1.438     2.024    A_IBUF[6]
    SLICE_X0Y63                                                       r  O_OBUF[6]_inst_i_13/I0
    SLICE_X0Y63          LUT2 (Prop_lut2_I0_O)        0.043     2.067 r  O_OBUF[6]_inst_i_13/O
                         net (fo=1, routed)           0.497     2.564    N_132
    SLICE_X1Y60                                                       r  O_OBUF[6]_inst_i_9/I0
    SLICE_X1Y60          LUT6 (Prop_lut6_I0_O)        0.043     2.607 r  O_OBUF[6]_inst_i_9/O
                         net (fo=3, routed)           0.381     2.988    N_382
    SLICE_X2Y59                                                       r  O_OBUF[6]_inst_i_7/I0
    SLICE_X2Y59          LUT4 (Prop_lut4_I0_O)        0.050     3.038 r  O_OBUF[6]_inst_i_7/O
                         net (fo=4, routed)           0.355     3.392    N_632
    SLICE_X3Y59                                                       r  O_OBUF[6]_inst_i_4/I0
    SLICE_X3Y59          LUT6 (Prop_lut6_I0_O)        0.127     3.519 r  O_OBUF[6]_inst_i_4/O
                         net (fo=6, routed)           0.440     3.959    N_882
    SLICE_X5Y60                                                       r  O_OBUF[8]_inst_i_9/I5
    SLICE_X5Y60          LUT6 (Prop_lut6_I5_O)        0.043     4.002 r  O_OBUF[8]_inst_i_9/O
                         net (fo=6, routed)           0.424     4.426    N_1148
    SLICE_X5Y61                                                       r  O_OBUF[8]_inst_i_4/I3
    SLICE_X5Y61          LUT4 (Prop_lut4_I3_O)        0.043     4.469 r  O_OBUF[8]_inst_i_4/O
                         net (fo=4, routed)           0.442     4.910    N_1399
    SLICE_X3Y62                                                       r  O_OBUF[8]_inst_i_2/I0
    SLICE_X3Y62          LUT6 (Prop_lut6_I0_O)        0.043     4.953 r  O_OBUF[8]_inst_i_2/O
                         net (fo=1, routed)           0.431     5.385    N_1664
    SLICE_X3Y62                                                       r  O_OBUF[8]_inst_i_1/I0
    SLICE_X3Y62          LUT4 (Prop_lut4_I0_O)        0.043     5.428 r  O_OBUF[8]_inst_i_1/O
                         net (fo=1, routed)           1.261     6.688    O_OBUF[8]
    AK28                                                              r  O_OBUF[8]_inst/I
    AK28                 OBUF (Prop_obuf_I_O)         1.819     8.507 r  O_OBUF[8]_inst/O
                         net (fo=0)                   0.000     8.507    O[8]
    AK28                                                              r  O[8] (OUT)
  -------------------------------------------------------------------    -------------------

Slack:                    inf
  Source:                 A[6]
                            (input port)
  Destination:            O[7]
                            (output port)
  Path Group:             (none)
  Path Type:              Max at Slow Process Corner
  Data Path Delay:        7.996ns  (logic 2.795ns (34.955%)  route 5.201ns (65.045%))
  Logic Levels:           9  (IBUF=1 LUT2=1 LUT3=1 LUT4=1 LUT6=4 OBUF=1)

    Location             Delay type                Incr(ns)  Path(ns)    Netlist Resource(s)
  -------------------------------------------------------------------    -------------------
    AM28                                              0.000     0.000 r  A[6] (IN)
                         net (fo=0)                   0.000     0.000    A[6]
    AM28                                                              r  A_IBUF[6]_inst/I
    AM28                 IBUF (Prop_ibuf_I_O)         0.587     0.587 r  A_IBUF[6]_inst/O
                         net (fo=23, routed)          1.438     2.024    A_IBUF[6]
    SLICE_X0Y63                                                       r  O_OBUF[6]_inst_i_13/I0
    SLICE_X0Y63          LUT2 (Prop_lut2_I0_O)        0.043     2.067 r  O_OBUF[6]_inst_i_13/O
                         net (fo=1, routed)           0.497     2.564    N_132
    SLICE_X1Y60                                                       r  O_OBUF[6]_inst_i_9/I0
    SLICE_X1Y60          LUT6 (Prop_lut6_I0_O)        0.043     2.607 r  O_OBUF[6]_inst_i_9/O
                         net (fo=3, routed)           0.381     2.988    N_382
    SLICE_X2Y59                                                       r  O_OBUF[6]_inst_i_7/I0
    SLICE_X2Y59          LUT4 (Prop_lut4_I0_O)        0.050     3.038 r  O_OBUF[6]_inst_i_7/O
                         net (fo=4, routed)           0.355     3.392    N_632
    SLICE_X3Y59                                                       r  O_OBUF[6]_inst_i_4/I0
    SLICE_X3Y59          LUT6 (Prop_lut6_I0_O)        0.127     3.519 r  O_OBUF[6]_inst_i_4/O
                         net (fo=6, routed)           0.440     3.959    N_882
    SLICE_X5Y60                                                       r  O_OBUF[8]_inst_i_9/I5
    SLICE_X5Y60          LUT6 (Prop_lut6_I5_O)        0.043     4.002 r  O_OBUF[8]_inst_i_9/O
                         net (fo=6, routed)           0.419     4.420    N_1148
    SLICE_X4Y62                                                       r  O_OBUF[7]_inst_i_2/I3
    SLICE_X4Y62          LUT6 (Prop_lut6_I3_O)        0.043     4.463 r  O_OBUF[7]_inst_i_2/O
                         net (fo=1, routed)           0.418     4.882    N_1648
    SLICE_X3Y62                                                       r  O_OBUF[7]_inst_i_1/I0
    SLICE_X3Y62          LUT3 (Prop_lut3_I0_O)        0.043     4.925 r  O_OBUF[7]_inst_i_1/O
                         net (fo=1, routed)           1.255     6.180    O_OBUF[7]
    AL28                                                              r  O_OBUF[7]_inst/I
    AL28                 OBUF (Prop_obuf_I_O)         1.816     7.996 r  O_OBUF[7]_inst/O
                         net (fo=0)                   0.000     7.996    O[7]
    AL28                                                              r  O[7] (OUT)
  -------------------------------------------------------------------    -------------------

Slack:                    inf
  Source:                 A[6]
                            (input port)
  Destination:            O[6]
                            (output port)
  Path Group:             (none)
  Path Type:              Max at Slow Process Corner
  Data Path Delay:        7.669ns  (logic 2.758ns (35.966%)  route 4.911ns (64.034%))
  Logic Levels:           8  (IBUF=1 LUT2=1 LUT3=1 LUT4=1 LUT6=3 OBUF=1)

    Location             Delay type                Incr(ns)  Path(ns)    Netlist Resource(s)
  -------------------------------------------------------------------    -------------------
    AM28                                              0.000     0.000 r  A[6] (IN)
                         net (fo=0)                   0.000     0.000    A[6]
    AM28                                                              r  A_IBUF[6]_inst/I
    AM28                 IBUF (Prop_ibuf_I_O)         0.587     0.587 r  A_IBUF[6]_inst/O
                         net (fo=23, routed)          1.438     2.024    A_IBUF[6]
    SLICE_X0Y63                                                       r  O_OBUF[6]_inst_i_13/I0
    SLICE_X0Y63          LUT2 (Prop_lut2_I0_O)        0.043     2.067 r  O_OBUF[6]_inst_i_13/O
                         net (fo=1, routed)           0.497     2.564    N_132
    SLICE_X1Y60                                                       r  O_OBUF[6]_inst_i_9/I0
    SLICE_X1Y60          LUT6 (Prop_lut6_I0_O)        0.043     2.607 r  O_OBUF[6]_inst_i_9/O
                         net (fo=3, routed)           0.381     2.988    N_382
    SLICE_X2Y59                                                       r  O_OBUF[6]_inst_i_7/I0
    SLICE_X2Y59          LUT4 (Prop_lut4_I0_O)        0.050     3.038 r  O_OBUF[6]_inst_i_7/O
                         net (fo=4, routed)           0.355     3.392    N_632
    SLICE_X3Y59                                                       r  O_OBUF[6]_inst_i_4/I0
    SLICE_X3Y59          LUT6 (Prop_lut6_I0_O)        0.127     3.519 r  O_OBUF[6]_inst_i_4/O
                         net (fo=6, routed)           0.536     4.055    N_882
    SLICE_X2Y60                                                       r  O_OBUF[6]_inst_i_2/I3
    SLICE_X2Y60          LUT6 (Prop_lut6_I3_O)        0.043     4.098 r  O_OBUF[6]_inst_i_2/O
                         net (fo=1, routed)           0.528     4.626    N_1382
    SLICE_X2Y62                                                       r  O_OBUF[6]_inst_i_1/I0
    SLICE_X2Y62          LUT3 (Prop_lut3_I0_O)        0.043     4.669 r  O_OBUF[6]_inst_i_1/O
                         net (fo=1, routed)           1.177     5.846    O_OBUF[6]
    AK26                                                              r  O_OBUF[6]_inst/I
    AK26                 OBUF (Prop_obuf_I_O)         1.823     7.669 r  O_OBUF[6]_inst/O
                         net (fo=0)                   0.000     7.669    O[6]
    AK26                                                              r  O[6] (OUT)
  -------------------------------------------------------------------    -------------------




