Copyright 1986-2017 Xilinx, Inc. All Rights Reserved.
-----------------------------------------------------------------------------------------------------------------------------------------------------------------------
| Tool Version : Vivado v.2017.1 (win64) Build 1846317 Fri Apr 14 18:55:03 MDT 2017
| Date         : Tue Nov 14 11:54:39 2017
| Host         : cfaed-pdpc003 running 64-bit major release  (build 9200)
| Command      : report_timing -to O -delay_type max -max_paths 10 -sort_by group -input_pins -file C:/Users/sanjeev/Desktop/Reports_EvoLib/tim_450_evolib.txt -name O
| Design       : mul8_450
| Device       : 7vx330t-ffg1157
| Speed File   : -3  PRODUCTION 1.11 2014-09-11
-----------------------------------------------------------------------------------------------------------------------------------------------------------------------

Timing Report

Slack:                    inf
  Source:                 A[6]
                            (input port)
  Destination:            O[14]
                            (output port)
  Path Group:             (none)
  Path Type:              Max at Slow Process Corner
  Data Path Delay:        10.334ns  (logic 3.072ns (29.729%)  route 7.262ns (70.271%))
  Logic Levels:           15  (IBUF=1 LUT4=3 LUT5=2 LUT6=8 OBUF=1)

    Location             Delay type                Incr(ns)  Path(ns)    Netlist Resource(s)
  -------------------------------------------------------------------    -------------------
    AM28                                              0.000     0.000 r  A[6] (IN)
                         net (fo=0)                   0.000     0.000    A[6]
    AM28                                                              r  A_IBUF[6]_inst/I
    AM28                 IBUF (Prop_ibuf_I_O)         0.587     0.587 r  A_IBUF[6]_inst/O
                         net (fo=23, routed)          1.164     1.751    A_IBUF[6]
    SLICE_X0Y61                                                       r  O_OBUF[4]_inst_i_10/I0
    SLICE_X0Y61          LUT5 (Prop_lut5_I0_O)        0.048     1.799 r  O_OBUF[4]_inst_i_10/O
                         net (fo=2, routed)           0.231     2.029    N_382
    SLICE_X0Y61                                                       r  O_OBUF[4]_inst_i_7/I5
    SLICE_X0Y61          LUT6 (Prop_lut6_I5_O)        0.129     2.158 r  O_OBUF[4]_inst_i_7/O
                         net (fo=4, routed)           0.341     2.499    N_633
    SLICE_X1Y61                                                       r  O_OBUF[4]_inst_i_4/I3
    SLICE_X1Y61          LUT6 (Prop_lut6_I3_O)        0.043     2.542 r  O_OBUF[4]_inst_i_4/O
                         net (fo=7, routed)           0.215     2.757    N_665
    SLICE_X1Y62                                                       r  O_OBUF[7]_inst_i_14/I1
    SLICE_X1Y62          LUT5 (Prop_lut5_I1_O)        0.043     2.800 r  O_OBUF[7]_inst_i_14/O
                         net (fo=1, routed)           0.431     3.231    N_865
    SLICE_X1Y62                                                       r  O_OBUF[7]_inst_i_7/I0
    SLICE_X1Y62          LUT4 (Prop_lut4_I0_O)        0.043     3.274 r  O_OBUF[7]_inst_i_7/O
                         net (fo=5, routed)           0.498     3.772    N_882
    SLICE_X3Y63                                                       r  O_OBUF[7]_inst_i_5/I2
    SLICE_X3Y63          LUT6 (Prop_lut6_I2_O)        0.043     3.815 r  O_OBUF[7]_inst_i_5/O
                         net (fo=3, routed)           0.420     4.235    N_1148
    SLICE_X3Y62                                                       r  O_OBUF[9]_inst_i_6/I3
    SLICE_X3Y62          LUT4 (Prop_lut4_I3_O)        0.043     4.278 r  O_OBUF[9]_inst_i_6/O
                         net (fo=4, routed)           0.427     4.705    N_1399
    SLICE_X3Y61                                                       r  O_OBUF[9]_inst_i_10/I1
    SLICE_X3Y61          LUT6 (Prop_lut6_I1_O)        0.043     4.748 r  O_OBUF[9]_inst_i_10/O
                         net (fo=2, routed)           0.491     5.239    N_1432
    SLICE_X4Y62                                                       r  O_OBUF[11]_inst_i_5/I3
    SLICE_X4Y62          LUT4 (Prop_lut4_I3_O)        0.043     5.282 r  O_OBUF[11]_inst_i_5/O
                         net (fo=3, routed)           0.420     5.702    N_1683
    SLICE_X3Y64                                                       r  O_OBUF[11]_inst_i_4/I1
    SLICE_X3Y64          LUT6 (Prop_lut6_I1_O)        0.043     5.745 r  O_OBUF[11]_inst_i_4/O
                         net (fo=2, routed)           0.499     6.244    N_1714
    SLICE_X1Y64                                                       r  O_OBUF[13]_inst_i_2/I5
    SLICE_X1Y64          LUT6 (Prop_lut6_I5_O)        0.043     6.287 r  O_OBUF[13]_inst_i_2/O
                         net (fo=3, routed)           0.350     6.637    N_1965
    SLICE_X0Y64                                                       r  O_OBUF[15]_inst_i_4/I3
    SLICE_X0Y64          LUT6 (Prop_lut6_I3_O)        0.043     6.680 r  O_OBUF[15]_inst_i_4/O
                         net (fo=2, routed)           0.417     7.097    N_1999
    SLICE_X0Y65                                                       r  O_OBUF[14]_inst_i_1/I4
    SLICE_X0Y65          LUT6 (Prop_lut6_I4_O)        0.043     7.140 r  O_OBUF[14]_inst_i_1/O
                         net (fo=1, routed)           1.358     8.498    O_OBUF[14]
    AJ29                                                              r  O_OBUF[14]_inst/I
    AJ29                 OBUF (Prop_obuf_I_O)         1.836    10.334 r  O_OBUF[14]_inst/O
                         net (fo=0)                   0.000    10.334    O[14]
    AJ29                                                              r  O[14] (OUT)
  -------------------------------------------------------------------    -------------------

Slack:                    inf
  Source:                 A[6]
                            (input port)
  Destination:            O[15]
                            (output port)
  Path Group:             (none)
  Path Type:              Max at Slow Process Corner
  Data Path Delay:        10.207ns  (logic 3.088ns (30.254%)  route 7.119ns (69.746%))
  Logic Levels:           15  (IBUF=1 LUT4=3 LUT5=2 LUT6=8 OBUF=1)

    Location             Delay type                Incr(ns)  Path(ns)    Netlist Resource(s)
  -------------------------------------------------------------------    -------------------
    AM28                                              0.000     0.000 r  A[6] (IN)
                         net (fo=0)                   0.000     0.000    A[6]
    AM28                                                              r  A_IBUF[6]_inst/I
    AM28                 IBUF (Prop_ibuf_I_O)         0.587     0.587 r  A_IBUF[6]_inst/O
                         net (fo=23, routed)          1.164     1.751    A_IBUF[6]
    SLICE_X0Y61                                                       r  O_OBUF[4]_inst_i_10/I0
    SLICE_X0Y61          LUT5 (Prop_lut5_I0_O)        0.048     1.799 r  O_OBUF[4]_inst_i_10/O
                         net (fo=2, routed)           0.231     2.029    N_382
    SLICE_X0Y61                                                       r  O_OBUF[4]_inst_i_7/I5
    SLICE_X0Y61          LUT6 (Prop_lut6_I5_O)        0.129     2.158 r  O_OBUF[4]_inst_i_7/O
                         net (fo=4, routed)           0.341     2.499    N_633
    SLICE_X1Y61                                                       r  O_OBUF[4]_inst_i_4/I3
    SLICE_X1Y61          LUT6 (Prop_lut6_I3_O)        0.043     2.542 r  O_OBUF[4]_inst_i_4/O
                         net (fo=7, routed)           0.215     2.757    N_665
    SLICE_X1Y62                                                       r  O_OBUF[7]_inst_i_14/I1
    SLICE_X1Y62          LUT5 (Prop_lut5_I1_O)        0.043     2.800 r  O_OBUF[7]_inst_i_14/O
                         net (fo=1, routed)           0.431     3.231    N_865
    SLICE_X1Y62                                                       r  O_OBUF[7]_inst_i_7/I0
    SLICE_X1Y62          LUT4 (Prop_lut4_I0_O)        0.043     3.274 r  O_OBUF[7]_inst_i_7/O
                         net (fo=5, routed)           0.498     3.772    N_882
    SLICE_X3Y63                                                       r  O_OBUF[7]_inst_i_5/I2
    SLICE_X3Y63          LUT6 (Prop_lut6_I2_O)        0.043     3.815 r  O_OBUF[7]_inst_i_5/O
                         net (fo=3, routed)           0.420     4.235    N_1148
    SLICE_X3Y62                                                       r  O_OBUF[9]_inst_i_6/I3
    SLICE_X3Y62          LUT4 (Prop_lut4_I3_O)        0.043     4.278 r  O_OBUF[9]_inst_i_6/O
                         net (fo=4, routed)           0.427     4.705    N_1399
    SLICE_X3Y61                                                       r  O_OBUF[9]_inst_i_10/I1
    SLICE_X3Y61          LUT6 (Prop_lut6_I1_O)        0.043     4.748 r  O_OBUF[9]_inst_i_10/O
                         net (fo=2, routed)           0.491     5.239    N_1432
    SLICE_X4Y62                                                       r  O_OBUF[11]_inst_i_5/I3
    SLICE_X4Y62          LUT4 (Prop_lut4_I3_O)        0.043     5.282 r  O_OBUF[11]_inst_i_5/O
                         net (fo=3, routed)           0.420     5.702    N_1683
    SLICE_X3Y64                                                       r  O_OBUF[11]_inst_i_4/I1
    SLICE_X3Y64          LUT6 (Prop_lut6_I1_O)        0.043     5.745 r  O_OBUF[11]_inst_i_4/O
                         net (fo=2, routed)           0.499     6.244    N_1714
    SLICE_X1Y64                                                       r  O_OBUF[13]_inst_i_2/I5
    SLICE_X1Y64          LUT6 (Prop_lut6_I5_O)        0.043     6.287 r  O_OBUF[13]_inst_i_2/O
                         net (fo=3, routed)           0.350     6.637    N_1965
    SLICE_X0Y64                                                       r  O_OBUF[15]_inst_i_4/I3
    SLICE_X0Y64          LUT6 (Prop_lut6_I3_O)        0.043     6.680 r  O_OBUF[15]_inst_i_4/O
                         net (fo=2, routed)           0.227     6.907    N_1999
    SLICE_X0Y65                                                       r  O_OBUF[15]_inst_i_1/I5
    SLICE_X0Y65          LUT6 (Prop_lut6_I5_O)        0.043     6.950 r  O_OBUF[15]_inst_i_1/O
                         net (fo=1, routed)           1.405     8.356    O_OBUF[15]
    AN30                                                              r  O_OBUF[15]_inst/I
    AN30                 OBUF (Prop_obuf_I_O)         1.851    10.207 r  O_OBUF[15]_inst/O
                         net (fo=0)                   0.000    10.207    O[15]
    AN30                                                              r  O[15] (OUT)
  -------------------------------------------------------------------    -------------------

Slack:                    inf
  Source:                 A[6]
                            (input port)
  Destination:            O[13]
                            (output port)
  Path Group:             (none)
  Path Type:              Max at Slow Process Corner
  Data Path Delay:        9.969ns  (logic 3.026ns (30.359%)  route 6.942ns (69.641%))
  Logic Levels:           14  (IBUF=1 LUT4=3 LUT5=2 LUT6=7 OBUF=1)

    Location             Delay type                Incr(ns)  Path(ns)    Netlist Resource(s)
  -------------------------------------------------------------------    -------------------
    AM28                                              0.000     0.000 r  A[6] (IN)
                         net (fo=0)                   0.000     0.000    A[6]
    AM28                                                              r  A_IBUF[6]_inst/I
    AM28                 IBUF (Prop_ibuf_I_O)         0.587     0.587 r  A_IBUF[6]_inst/O
                         net (fo=23, routed)          1.164     1.751    A_IBUF[6]
    SLICE_X0Y61                                                       r  O_OBUF[4]_inst_i_10/I0
    SLICE_X0Y61          LUT5 (Prop_lut5_I0_O)        0.048     1.799 r  O_OBUF[4]_inst_i_10/O
                         net (fo=2, routed)           0.231     2.029    N_382
    SLICE_X0Y61                                                       r  O_OBUF[4]_inst_i_7/I5
    SLICE_X0Y61          LUT6 (Prop_lut6_I5_O)        0.129     2.158 r  O_OBUF[4]_inst_i_7/O
                         net (fo=4, routed)           0.341     2.499    N_633
    SLICE_X1Y61                                                       r  O_OBUF[4]_inst_i_4/I3
    SLICE_X1Y61          LUT6 (Prop_lut6_I3_O)        0.043     2.542 r  O_OBUF[4]_inst_i_4/O
                         net (fo=7, routed)           0.215     2.757    N_665
    SLICE_X1Y62                                                       r  O_OBUF[7]_inst_i_14/I1
    SLICE_X1Y62          LUT5 (Prop_lut5_I1_O)        0.043     2.800 r  O_OBUF[7]_inst_i_14/O
                         net (fo=1, routed)           0.431     3.231    N_865
    SLICE_X1Y62                                                       r  O_OBUF[7]_inst_i_7/I0
    SLICE_X1Y62          LUT4 (Prop_lut4_I0_O)        0.043     3.274 r  O_OBUF[7]_inst_i_7/O
                         net (fo=5, routed)           0.498     3.772    N_882
    SLICE_X3Y63                                                       r  O_OBUF[7]_inst_i_5/I2
    SLICE_X3Y63          LUT6 (Prop_lut6_I2_O)        0.043     3.815 r  O_OBUF[7]_inst_i_5/O
                         net (fo=3, routed)           0.420     4.235    N_1148
    SLICE_X3Y62                                                       r  O_OBUF[9]_inst_i_6/I3
    SLICE_X3Y62          LUT4 (Prop_lut4_I3_O)        0.043     4.278 r  O_OBUF[9]_inst_i_6/O
                         net (fo=4, routed)           0.427     4.705    N_1399
    SLICE_X3Y61                                                       r  O_OBUF[9]_inst_i_10/I1
    SLICE_X3Y61          LUT6 (Prop_lut6_I1_O)        0.043     4.748 r  O_OBUF[9]_inst_i_10/O
                         net (fo=2, routed)           0.491     5.239    N_1432
    SLICE_X4Y62                                                       r  O_OBUF[11]_inst_i_5/I3
    SLICE_X4Y62          LUT4 (Prop_lut4_I3_O)        0.043     5.282 r  O_OBUF[11]_inst_i_5/O
                         net (fo=3, routed)           0.420     5.702    N_1683
    SLICE_X3Y64                                                       r  O_OBUF[11]_inst_i_4/I1
    SLICE_X3Y64          LUT6 (Prop_lut6_I1_O)        0.043     5.745 r  O_OBUF[11]_inst_i_4/O
                         net (fo=2, routed)           0.499     6.244    N_1714
    SLICE_X1Y64                                                       r  O_OBUF[13]_inst_i_2/I5
    SLICE_X1Y64          LUT6 (Prop_lut6_I5_O)        0.043     6.287 r  O_OBUF[13]_inst_i_2/O
                         net (fo=3, routed)           0.448     6.735    N_1965
    SLICE_X0Y64                                                       r  O_OBUF[13]_inst_i_1/I2
    SLICE_X0Y64          LUT6 (Prop_lut6_I2_O)        0.043     6.778 r  O_OBUF[13]_inst_i_1/O
                         net (fo=1, routed)           1.358     8.136    O_OBUF[13]
    AK29                                                              r  O_OBUF[13]_inst/I
    AK29                 OBUF (Prop_obuf_I_O)         1.833     9.969 r  O_OBUF[13]_inst/O
                         net (fo=0)                   0.000     9.969    O[13]
    AK29                                                              r  O[13] (OUT)
  -------------------------------------------------------------------    -------------------

Slack:                    inf
  Source:                 A[6]
                            (input port)
  Destination:            O[12]
                            (output port)
  Path Group:             (none)
  Path Type:              Max at Slow Process Corner
  Data Path Delay:        9.751ns  (logic 3.035ns (31.127%)  route 6.716ns (68.873%))
  Logic Levels:           14  (IBUF=1 LUT4=4 LUT5=2 LUT6=6 OBUF=1)

    Location             Delay type                Incr(ns)  Path(ns)    Netlist Resource(s)
  -------------------------------------------------------------------    -------------------
    AM28                                              0.000     0.000 r  A[6] (IN)
                         net (fo=0)                   0.000     0.000    A[6]
    AM28                                                              r  A_IBUF[6]_inst/I
    AM28                 IBUF (Prop_ibuf_I_O)         0.587     0.587 r  A_IBUF[6]_inst/O
                         net (fo=23, routed)          1.164     1.751    A_IBUF[6]
    SLICE_X0Y61                                                       r  O_OBUF[4]_inst_i_10/I0
    SLICE_X0Y61          LUT5 (Prop_lut5_I0_O)        0.048     1.799 r  O_OBUF[4]_inst_i_10/O
                         net (fo=2, routed)           0.231     2.029    N_382
    SLICE_X0Y61                                                       r  O_OBUF[4]_inst_i_7/I5
    SLICE_X0Y61          LUT6 (Prop_lut6_I5_O)        0.129     2.158 r  O_OBUF[4]_inst_i_7/O
                         net (fo=4, routed)           0.341     2.499    N_633
    SLICE_X1Y61                                                       r  O_OBUF[4]_inst_i_4/I3
    SLICE_X1Y61          LUT6 (Prop_lut6_I3_O)        0.043     2.542 r  O_OBUF[4]_inst_i_4/O
                         net (fo=7, routed)           0.215     2.757    N_665
    SLICE_X1Y62                                                       r  O_OBUF[7]_inst_i_14/I1
    SLICE_X1Y62          LUT5 (Prop_lut5_I1_O)        0.043     2.800 r  O_OBUF[7]_inst_i_14/O
                         net (fo=1, routed)           0.431     3.231    N_865
    SLICE_X1Y62                                                       r  O_OBUF[7]_inst_i_7/I0
    SLICE_X1Y62          LUT4 (Prop_lut4_I0_O)        0.043     3.274 r  O_OBUF[7]_inst_i_7/O
                         net (fo=5, routed)           0.498     3.772    N_882
    SLICE_X3Y63                                                       r  O_OBUF[7]_inst_i_5/I2
    SLICE_X3Y63          LUT6 (Prop_lut6_I2_O)        0.043     3.815 r  O_OBUF[7]_inst_i_5/O
                         net (fo=3, routed)           0.420     4.235    N_1148
    SLICE_X3Y62                                                       r  O_OBUF[9]_inst_i_6/I3
    SLICE_X3Y62          LUT4 (Prop_lut4_I3_O)        0.043     4.278 r  O_OBUF[9]_inst_i_6/O
                         net (fo=4, routed)           0.427     4.705    N_1399
    SLICE_X3Y61                                                       r  O_OBUF[9]_inst_i_10/I1
    SLICE_X3Y61          LUT6 (Prop_lut6_I1_O)        0.043     4.748 r  O_OBUF[9]_inst_i_10/O
                         net (fo=2, routed)           0.491     5.239    N_1432
    SLICE_X4Y62                                                       r  O_OBUF[11]_inst_i_5/I3
    SLICE_X4Y62          LUT4 (Prop_lut4_I3_O)        0.043     5.282 r  O_OBUF[11]_inst_i_5/O
                         net (fo=3, routed)           0.420     5.702    N_1683
    SLICE_X3Y64                                                       r  O_OBUF[11]_inst_i_4/I1
    SLICE_X3Y64          LUT6 (Prop_lut6_I1_O)        0.043     5.745 r  O_OBUF[11]_inst_i_4/O
                         net (fo=2, routed)           0.499     6.244    N_1714
    SLICE_X1Y64                                                       r  O_OBUF[13]_inst_i_2/I5
    SLICE_X1Y64          LUT6 (Prop_lut6_I5_O)        0.043     6.287 r  O_OBUF[13]_inst_i_2/O
                         net (fo=3, routed)           0.233     6.520    N_1965
    SLICE_X1Y64                                                       r  O_OBUF[12]_inst_i_1/I0
    SLICE_X1Y64          LUT4 (Prop_lut4_I0_O)        0.043     6.563 r  O_OBUF[12]_inst_i_1/O
                         net (fo=1, routed)           1.347     7.910    O_OBUF[12]
    AL31                                                              r  O_OBUF[12]_inst/I
    AL31                 OBUF (Prop_obuf_I_O)         1.842     9.751 r  O_OBUF[12]_inst/O
                         net (fo=0)                   0.000     9.751    O[12]
    AL31                                                              r  O[12] (OUT)
  -------------------------------------------------------------------    -------------------

Slack:                    inf
  Source:                 A[6]
                            (input port)
  Destination:            O[10]
                            (output port)
  Path Group:             (none)
  Path Type:              Max at Slow Process Corner
  Data Path Delay:        9.475ns  (logic 3.079ns (32.494%)  route 6.396ns (67.506%))
  Logic Levels:           13  (IBUF=1 LUT4=5 LUT5=2 LUT6=4 OBUF=1)

    Location             Delay type                Incr(ns)  Path(ns)    Netlist Resource(s)
  -------------------------------------------------------------------    -------------------
    AM28                                              0.000     0.000 r  A[6] (IN)
                         net (fo=0)                   0.000     0.000    A[6]
    AM28                                                              r  A_IBUF[6]_inst/I
    AM28                 IBUF (Prop_ibuf_I_O)         0.587     0.587 r  A_IBUF[6]_inst/O
                         net (fo=23, routed)          1.164     1.751    A_IBUF[6]
    SLICE_X0Y61                                                       r  O_OBUF[4]_inst_i_10/I0
    SLICE_X0Y61          LUT5 (Prop_lut5_I0_O)        0.048     1.799 r  O_OBUF[4]_inst_i_10/O
                         net (fo=2, routed)           0.231     2.029    N_382
    SLICE_X0Y61                                                       r  O_OBUF[4]_inst_i_7/I5
    SLICE_X0Y61          LUT6 (Prop_lut6_I5_O)        0.129     2.158 r  O_OBUF[4]_inst_i_7/O
                         net (fo=4, routed)           0.341     2.499    N_633
    SLICE_X1Y61                                                       r  O_OBUF[4]_inst_i_4/I3
    SLICE_X1Y61          LUT6 (Prop_lut6_I3_O)        0.043     2.542 r  O_OBUF[4]_inst_i_4/O
                         net (fo=7, routed)           0.215     2.757    N_665
    SLICE_X1Y62                                                       r  O_OBUF[7]_inst_i_14/I1
    SLICE_X1Y62          LUT5 (Prop_lut5_I1_O)        0.043     2.800 r  O_OBUF[7]_inst_i_14/O
                         net (fo=1, routed)           0.431     3.231    N_865
    SLICE_X1Y62                                                       r  O_OBUF[7]_inst_i_7/I0
    SLICE_X1Y62          LUT4 (Prop_lut4_I0_O)        0.043     3.274 r  O_OBUF[7]_inst_i_7/O
                         net (fo=5, routed)           0.498     3.772    N_882
    SLICE_X3Y63                                                       r  O_OBUF[7]_inst_i_5/I2
    SLICE_X3Y63          LUT6 (Prop_lut6_I2_O)        0.043     3.815 r  O_OBUF[7]_inst_i_5/O
                         net (fo=3, routed)           0.420     4.235    N_1148
    SLICE_X3Y62                                                       r  O_OBUF[9]_inst_i_6/I3
    SLICE_X3Y62          LUT4 (Prop_lut4_I3_O)        0.043     4.278 r  O_OBUF[9]_inst_i_6/O
                         net (fo=4, routed)           0.427     4.705    N_1399
    SLICE_X3Y61                                                       r  O_OBUF[9]_inst_i_10/I1
    SLICE_X3Y61          LUT6 (Prop_lut6_I1_O)        0.043     4.748 r  O_OBUF[9]_inst_i_10/O
                         net (fo=2, routed)           0.491     5.239    N_1432
    SLICE_X4Y62                                                       r  O_OBUF[11]_inst_i_5/I3
    SLICE_X4Y62          LUT4 (Prop_lut4_I3_O)        0.043     5.282 r  O_OBUF[11]_inst_i_5/O
                         net (fo=3, routed)           0.380     5.662    N_1683
    SLICE_X3Y63                                                       r  O_OBUF[11]_inst_i_3/I0
    SLICE_X3Y63          LUT4 (Prop_lut4_I0_O)        0.053     5.715 r  O_OBUF[11]_inst_i_3/O
                         net (fo=3, routed)           0.501     6.216    N_1698
    SLICE_X1Y65                                                       r  O_OBUF[10]_inst_i_1/I1
    SLICE_X1Y65          LUT4 (Prop_lut4_I1_O)        0.131     6.347 r  O_OBUF[10]_inst_i_1/O
                         net (fo=1, routed)           1.298     7.645    O_OBUF[10]
    AL29                                                              r  O_OBUF[10]_inst/I
    AL29                 OBUF (Prop_obuf_I_O)         1.830     9.475 r  O_OBUF[10]_inst/O
                         net (fo=0)                   0.000     9.475    O[10]
    AL29                                                              r  O[10] (OUT)
  -------------------------------------------------------------------    -------------------

Slack:                    inf
  Source:                 A[6]
                            (input port)
  Destination:            O[11]
                            (output port)
  Path Group:             (none)
  Path Type:              Max at Slow Process Corner
  Data Path Delay:        9.399ns  (logic 2.992ns (31.831%)  route 6.407ns (68.169%))
  Logic Levels:           13  (IBUF=1 LUT4=3 LUT5=2 LUT6=6 OBUF=1)

    Location             Delay type                Incr(ns)  Path(ns)    Netlist Resource(s)
  -------------------------------------------------------------------    -------------------
    AM28                                              0.000     0.000 r  A[6] (IN)
                         net (fo=0)                   0.000     0.000    A[6]
    AM28                                                              r  A_IBUF[6]_inst/I
    AM28                 IBUF (Prop_ibuf_I_O)         0.587     0.587 r  A_IBUF[6]_inst/O
                         net (fo=23, routed)          1.164     1.751    A_IBUF[6]
    SLICE_X0Y61                                                       r  O_OBUF[4]_inst_i_10/I0
    SLICE_X0Y61          LUT5 (Prop_lut5_I0_O)        0.048     1.799 r  O_OBUF[4]_inst_i_10/O
                         net (fo=2, routed)           0.231     2.029    N_382
    SLICE_X0Y61                                                       r  O_OBUF[4]_inst_i_7/I5
    SLICE_X0Y61          LUT6 (Prop_lut6_I5_O)        0.129     2.158 r  O_OBUF[4]_inst_i_7/O
                         net (fo=4, routed)           0.341     2.499    N_633
    SLICE_X1Y61                                                       r  O_OBUF[4]_inst_i_4/I3
    SLICE_X1Y61          LUT6 (Prop_lut6_I3_O)        0.043     2.542 r  O_OBUF[4]_inst_i_4/O
                         net (fo=7, routed)           0.215     2.757    N_665
    SLICE_X1Y62                                                       r  O_OBUF[7]_inst_i_14/I1
    SLICE_X1Y62          LUT5 (Prop_lut5_I1_O)        0.043     2.800 r  O_OBUF[7]_inst_i_14/O
                         net (fo=1, routed)           0.431     3.231    N_865
    SLICE_X1Y62                                                       r  O_OBUF[7]_inst_i_7/I0
    SLICE_X1Y62          LUT4 (Prop_lut4_I0_O)        0.043     3.274 r  O_OBUF[7]_inst_i_7/O
                         net (fo=5, routed)           0.498     3.772    N_882
    SLICE_X3Y63                                                       r  O_OBUF[7]_inst_i_5/I2
    SLICE_X3Y63          LUT6 (Prop_lut6_I2_O)        0.043     3.815 r  O_OBUF[7]_inst_i_5/O
                         net (fo=3, routed)           0.420     4.235    N_1148
    SLICE_X3Y62                                                       r  O_OBUF[9]_inst_i_6/I3
    SLICE_X3Y62          LUT4 (Prop_lut4_I3_O)        0.043     4.278 r  O_OBUF[9]_inst_i_6/O
                         net (fo=4, routed)           0.427     4.705    N_1399
    SLICE_X3Y61                                                       r  O_OBUF[9]_inst_i_10/I1
    SLICE_X3Y61          LUT6 (Prop_lut6_I1_O)        0.043     4.748 r  O_OBUF[9]_inst_i_10/O
                         net (fo=2, routed)           0.491     5.239    N_1432
    SLICE_X4Y62                                                       r  O_OBUF[11]_inst_i_5/I3
    SLICE_X4Y62          LUT4 (Prop_lut4_I3_O)        0.043     5.282 r  O_OBUF[11]_inst_i_5/O
                         net (fo=3, routed)           0.420     5.702    N_1683
    SLICE_X3Y64                                                       r  O_OBUF[11]_inst_i_4/I1
    SLICE_X3Y64          LUT6 (Prop_lut6_I1_O)        0.043     5.745 r  O_OBUF[11]_inst_i_4/O
                         net (fo=2, routed)           0.499     6.244    N_1714
    SLICE_X1Y64                                                       r  O_OBUF[11]_inst_i_1/I4
    SLICE_X1Y64          LUT6 (Prop_lut6_I4_O)        0.043     6.287 r  O_OBUF[11]_inst_i_1/O
                         net (fo=1, routed)           1.271     7.558    O_OBUF[11]
    AM31                                                              r  O_OBUF[11]_inst/I
    AM31                 OBUF (Prop_obuf_I_O)         1.841     9.399 r  O_OBUF[11]_inst/O
                         net (fo=0)                   0.000     9.399    O[11]
    AM31                                                              r  O[11] (OUT)
  -------------------------------------------------------------------    -------------------

Slack:                    inf
  Source:                 A[6]
                            (input port)
  Destination:            O[9]
                            (output port)
  Path Group:             (none)
  Path Type:              Max at Slow Process Corner
  Data Path Delay:        9.018ns  (logic 3.033ns (33.635%)  route 5.985ns (66.365%))
  Logic Levels:           12  (IBUF=1 LUT4=3 LUT5=2 LUT6=5 OBUF=1)

    Location             Delay type                Incr(ns)  Path(ns)    Netlist Resource(s)
  -------------------------------------------------------------------    -------------------
    AM28                                              0.000     0.000 r  A[6] (IN)
                         net (fo=0)                   0.000     0.000    A[6]
    AM28                                                              r  A_IBUF[6]_inst/I
    AM28                 IBUF (Prop_ibuf_I_O)         0.587     0.587 r  A_IBUF[6]_inst/O
                         net (fo=23, routed)          1.164     1.751    A_IBUF[6]
    SLICE_X0Y61                                                       r  O_OBUF[4]_inst_i_10/I0
    SLICE_X0Y61          LUT5 (Prop_lut5_I0_O)        0.048     1.799 r  O_OBUF[4]_inst_i_10/O
                         net (fo=2, routed)           0.231     2.029    N_382
    SLICE_X0Y61                                                       r  O_OBUF[4]_inst_i_7/I5
    SLICE_X0Y61          LUT6 (Prop_lut6_I5_O)        0.129     2.158 r  O_OBUF[4]_inst_i_7/O
                         net (fo=4, routed)           0.341     2.499    N_633
    SLICE_X1Y61                                                       r  O_OBUF[4]_inst_i_4/I3
    SLICE_X1Y61          LUT6 (Prop_lut6_I3_O)        0.043     2.542 r  O_OBUF[4]_inst_i_4/O
                         net (fo=7, routed)           0.215     2.757    N_665
    SLICE_X1Y62                                                       r  O_OBUF[7]_inst_i_14/I1
    SLICE_X1Y62          LUT5 (Prop_lut5_I1_O)        0.043     2.800 r  O_OBUF[7]_inst_i_14/O
                         net (fo=1, routed)           0.431     3.231    N_865
    SLICE_X1Y62                                                       r  O_OBUF[7]_inst_i_7/I0
    SLICE_X1Y62          LUT4 (Prop_lut4_I0_O)        0.043     3.274 r  O_OBUF[7]_inst_i_7/O
                         net (fo=5, routed)           0.498     3.772    N_882
    SLICE_X3Y63                                                       r  O_OBUF[7]_inst_i_5/I2
    SLICE_X3Y63          LUT6 (Prop_lut6_I2_O)        0.043     3.815 r  O_OBUF[7]_inst_i_5/O
                         net (fo=3, routed)           0.420     4.235    N_1148
    SLICE_X3Y62                                                       r  O_OBUF[9]_inst_i_6/I3
    SLICE_X3Y62          LUT4 (Prop_lut4_I3_O)        0.043     4.278 r  O_OBUF[9]_inst_i_6/O
                         net (fo=4, routed)           0.427     4.705    N_1399
    SLICE_X3Y61                                                       r  O_OBUF[9]_inst_i_10/I1
    SLICE_X3Y61          LUT6 (Prop_lut6_I1_O)        0.043     4.748 r  O_OBUF[9]_inst_i_10/O
                         net (fo=2, routed)           0.491     5.239    N_1432
    SLICE_X4Y62                                                       r  O_OBUF[9]_inst_i_4/I1
    SLICE_X4Y62          LUT4 (Prop_lut4_I1_O)        0.051     5.290 r  O_OBUF[9]_inst_i_4/O
                         net (fo=2, routed)           0.502     5.792    N_1682
    SLICE_X1Y63                                                       r  O_OBUF[9]_inst_i_1/I4
    SLICE_X1Y63          LUT6 (Prop_lut6_I4_O)        0.129     5.921 r  O_OBUF[9]_inst_i_1/O
                         net (fo=1, routed)           1.265     7.186    O_OBUF[9]
    AL30                                                              r  O_OBUF[9]_inst/I
    AL30                 OBUF (Prop_obuf_I_O)         1.831     9.018 r  O_OBUF[9]_inst/O
                         net (fo=0)                   0.000     9.018    O[9]
    AL30                                                              r  O[9] (OUT)
  -------------------------------------------------------------------    -------------------

Slack:                    inf
  Source:                 A[6]
                            (input port)
  Destination:            O[8]
                            (output port)
  Path Group:             (none)
  Path Type:              Max at Slow Process Corner
  Data Path Delay:        8.355ns  (logic 2.883ns (34.511%)  route 5.471ns (65.489%))
  Logic Levels:           11  (IBUF=1 LUT4=3 LUT5=2 LUT6=4 OBUF=1)

    Location             Delay type                Incr(ns)  Path(ns)    Netlist Resource(s)
  -------------------------------------------------------------------    -------------------
    AM28                                              0.000     0.000 r  A[6] (IN)
                         net (fo=0)                   0.000     0.000    A[6]
    AM28                                                              r  A_IBUF[6]_inst/I
    AM28                 IBUF (Prop_ibuf_I_O)         0.587     0.587 r  A_IBUF[6]_inst/O
                         net (fo=23, routed)          1.164     1.751    A_IBUF[6]
    SLICE_X0Y61                                                       r  O_OBUF[4]_inst_i_10/I0
    SLICE_X0Y61          LUT5 (Prop_lut5_I0_O)        0.048     1.799 r  O_OBUF[4]_inst_i_10/O
                         net (fo=2, routed)           0.231     2.029    N_382
    SLICE_X0Y61                                                       r  O_OBUF[4]_inst_i_7/I5
    SLICE_X0Y61          LUT6 (Prop_lut6_I5_O)        0.129     2.158 r  O_OBUF[4]_inst_i_7/O
                         net (fo=4, routed)           0.341     2.499    N_633
    SLICE_X1Y61                                                       r  O_OBUF[4]_inst_i_4/I3
    SLICE_X1Y61          LUT6 (Prop_lut6_I3_O)        0.043     2.542 r  O_OBUF[4]_inst_i_4/O
                         net (fo=7, routed)           0.215     2.757    N_665
    SLICE_X1Y62                                                       r  O_OBUF[7]_inst_i_14/I1
    SLICE_X1Y62          LUT5 (Prop_lut5_I1_O)        0.043     2.800 r  O_OBUF[7]_inst_i_14/O
                         net (fo=1, routed)           0.431     3.231    N_865
    SLICE_X1Y62                                                       r  O_OBUF[7]_inst_i_7/I0
    SLICE_X1Y62          LUT4 (Prop_lut4_I0_O)        0.043     3.274 r  O_OBUF[7]_inst_i_7/O
                         net (fo=5, routed)           0.503     3.777    N_882
    SLICE_X3Y63                                                       r  O_OBUF[9]_inst_i_12/I4
    SLICE_X3Y63          LUT6 (Prop_lut6_I4_O)        0.043     3.820 r  O_OBUF[9]_inst_i_12/O
                         net (fo=3, routed)           0.493     4.313    N_1149
    SLICE_X3Y61                                                       r  O_OBUF[9]_inst_i_7/I0
    SLICE_X3Y61          LUT4 (Prop_lut4_I0_O)        0.043     4.356 r  O_OBUF[9]_inst_i_7/O
                         net (fo=4, routed)           0.530     4.886    N_1164
    SLICE_X3Y62                                                       r  O_OBUF[9]_inst_i_3/I2
    SLICE_X3Y62          LUT6 (Prop_lut6_I2_O)        0.043     4.929 r  O_OBUF[9]_inst_i_3/O
                         net (fo=3, routed)           0.304     5.232    N_1664
    SLICE_X1Y63                                                       r  O_OBUF[8]_inst_i_1/I1
    SLICE_X1Y63          LUT4 (Prop_lut4_I1_O)        0.043     5.275 r  O_OBUF[8]_inst_i_1/O
                         net (fo=1, routed)           1.261     6.536    O_OBUF[8]
    AK28                                                              r  O_OBUF[8]_inst/I
    AK28                 OBUF (Prop_obuf_I_O)         1.819     8.355 r  O_OBUF[8]_inst/O
                         net (fo=0)                   0.000     8.355    O[8]
    AK28                                                              r  O[8] (OUT)
  -------------------------------------------------------------------    -------------------

Slack:                    inf
  Source:                 A[6]
                            (input port)
  Destination:            O[7]
                            (output port)
  Path Group:             (none)
  Path Type:              Max at Slow Process Corner
  Data Path Delay:        7.725ns  (logic 2.930ns (37.927%)  route 4.795ns (62.073%))
  Logic Levels:           10  (IBUF=1 LUT4=2 LUT5=2 LUT6=4 OBUF=1)

    Location             Delay type                Incr(ns)  Path(ns)    Netlist Resource(s)
  -------------------------------------------------------------------    -------------------
    AM28                                              0.000     0.000 r  A[6] (IN)
                         net (fo=0)                   0.000     0.000    A[6]
    AM28                                                              r  A_IBUF[6]_inst/I
    AM28                 IBUF (Prop_ibuf_I_O)         0.587     0.587 r  A_IBUF[6]_inst/O
                         net (fo=23, routed)          1.164     1.751    A_IBUF[6]
    SLICE_X0Y61                                                       r  O_OBUF[4]_inst_i_10/I0
    SLICE_X0Y61          LUT5 (Prop_lut5_I0_O)        0.048     1.799 r  O_OBUF[4]_inst_i_10/O
                         net (fo=2, routed)           0.231     2.029    N_382
    SLICE_X0Y61                                                       r  O_OBUF[4]_inst_i_7/I5
    SLICE_X0Y61          LUT6 (Prop_lut6_I5_O)        0.129     2.158 r  O_OBUF[4]_inst_i_7/O
                         net (fo=4, routed)           0.341     2.499    N_633
    SLICE_X1Y61                                                       r  O_OBUF[4]_inst_i_4/I3
    SLICE_X1Y61          LUT6 (Prop_lut6_I3_O)        0.043     2.542 r  O_OBUF[4]_inst_i_4/O
                         net (fo=7, routed)           0.215     2.757    N_665
    SLICE_X1Y62                                                       r  O_OBUF[7]_inst_i_14/I1
    SLICE_X1Y62          LUT5 (Prop_lut5_I1_O)        0.043     2.800 r  O_OBUF[7]_inst_i_14/O
                         net (fo=1, routed)           0.431     3.231    N_865
    SLICE_X1Y62                                                       r  O_OBUF[7]_inst_i_7/I0
    SLICE_X1Y62          LUT4 (Prop_lut4_I0_O)        0.043     3.274 r  O_OBUF[7]_inst_i_7/O
                         net (fo=5, routed)           0.498     3.772    N_882
    SLICE_X3Y63                                                       r  O_OBUF[7]_inst_i_5/I2
    SLICE_X3Y63          LUT6 (Prop_lut6_I2_O)        0.043     3.815 r  O_OBUF[7]_inst_i_5/O
                         net (fo=3, routed)           0.420     4.235    N_1148
    SLICE_X3Y62                                                       r  O_OBUF[7]_inst_i_2/I1
    SLICE_X3Y62          LUT4 (Prop_lut4_I1_O)        0.049     4.284 r  O_OBUF[7]_inst_i_2/O
                         net (fo=2, routed)           0.308     4.592    N_1398
    SLICE_X3Y64                                                       r  O_OBUF[7]_inst_i_1/I4
    SLICE_X3Y64          LUT6 (Prop_lut6_I4_O)        0.129     4.721 r  O_OBUF[7]_inst_i_1/O
                         net (fo=1, routed)           1.188     5.909    O_OBUF[7]
    AL28                                                              r  O_OBUF[7]_inst/I
    AL28                 OBUF (Prop_obuf_I_O)         1.816     7.725 r  O_OBUF[7]_inst/O
                         net (fo=0)                   0.000     7.725    O[7]
    AL28                                                              r  O[7] (OUT)
  -------------------------------------------------------------------    -------------------

Slack:                    inf
  Source:                 A[6]
                            (input port)
  Destination:            O[6]
                            (output port)
  Path Group:             (none)
  Path Type:              Max at Slow Process Corner
  Data Path Delay:        7.217ns  (logic 2.895ns (40.113%)  route 4.322ns (59.887%))
  Logic Levels:           9  (IBUF=1 LUT3=1 LUT4=1 LUT5=2 LUT6=3 OBUF=1)

    Location             Delay type                Incr(ns)  Path(ns)    Netlist Resource(s)
  -------------------------------------------------------------------    -------------------
    AM28                                              0.000     0.000 r  A[6] (IN)
                         net (fo=0)                   0.000     0.000    A[6]
    AM28                                                              r  A_IBUF[6]_inst/I
    AM28                 IBUF (Prop_ibuf_I_O)         0.587     0.587 r  A_IBUF[6]_inst/O
                         net (fo=23, routed)          1.164     1.751    A_IBUF[6]
    SLICE_X0Y61                                                       r  O_OBUF[4]_inst_i_10/I0
    SLICE_X0Y61          LUT5 (Prop_lut5_I0_O)        0.048     1.799 r  O_OBUF[4]_inst_i_10/O
                         net (fo=2, routed)           0.231     2.029    N_382
    SLICE_X0Y61                                                       r  O_OBUF[4]_inst_i_7/I5
    SLICE_X0Y61          LUT6 (Prop_lut6_I5_O)        0.129     2.158 r  O_OBUF[4]_inst_i_7/O
                         net (fo=4, routed)           0.341     2.499    N_633
    SLICE_X1Y61                                                       r  O_OBUF[4]_inst_i_4/I3
    SLICE_X1Y61          LUT6 (Prop_lut6_I3_O)        0.043     2.542 r  O_OBUF[4]_inst_i_4/O
                         net (fo=7, routed)           0.215     2.757    N_665
    SLICE_X1Y62                                                       r  O_OBUF[7]_inst_i_14/I1
    SLICE_X1Y62          LUT5 (Prop_lut5_I1_O)        0.043     2.800 r  O_OBUF[7]_inst_i_14/O
                         net (fo=1, routed)           0.431     3.231    N_865
    SLICE_X1Y62                                                       r  O_OBUF[7]_inst_i_7/I0
    SLICE_X1Y62          LUT4 (Prop_lut4_I0_O)        0.043     3.274 r  O_OBUF[7]_inst_i_7/O
                         net (fo=5, routed)           0.411     3.685    N_882
    SLICE_X1Y63                                                       r  O_OBUF[6]_inst_i_2/I4
    SLICE_X1Y63          LUT6 (Prop_lut6_I4_O)        0.043     3.728 r  O_OBUF[6]_inst_i_2/O
                         net (fo=1, routed)           0.394     4.123    N_1382
    SLICE_X0Y65                                                       r  O_OBUF[6]_inst_i_1/I2
    SLICE_X0Y65          LUT3 (Prop_lut3_I2_O)        0.051     4.174 r  O_OBUF[6]_inst_i_1/O
                         net (fo=1, routed)           1.135     5.309    O_OBUF[6]
    AK26                                                              r  O_OBUF[6]_inst/I
    AK26                 OBUF (Prop_obuf_I_O)         1.909     7.217 r  O_OBUF[6]_inst/O
                         net (fo=0)                   0.000     7.217    O[6]
    AK26                                                              r  O[6] (OUT)
  -------------------------------------------------------------------    -------------------




