Copyright 1986-2017 Xilinx, Inc. All Rights Reserved.
-----------------------------------------------------------------------------------------------------------------------------------------------------------------------
| Tool Version : Vivado v.2017.1 (win64) Build 1846317 Fri Apr 14 18:55:03 MDT 2017
| Date         : Mon Nov 13 15:10:45 2017
| Host         : cfaed-pdpc003 running 64-bit major release  (build 9200)
| Command      : report_timing -to O -delay_type max -max_paths 10 -sort_by group -input_pins -file C:/Users/sanjeev/Desktop/Reports_EvoLib/tim_032_evolib.txt -name O
| Design       : mul8_032
| Device       : 7vx330t-ffg1157
| Speed File   : -3  PRODUCTION 1.11 2014-09-11
-----------------------------------------------------------------------------------------------------------------------------------------------------------------------

Timing Report

Slack:                    inf
  Source:                 A[4]
                            (input port)
  Destination:            O[14]
                            (output port)
  Path Group:             (none)
  Path Type:              Max at Slow Process Corner
  Data Path Delay:        11.792ns  (logic 3.027ns (25.672%)  route 8.765ns (74.328%))
  Logic Levels:           16  (IBUF=1 LUT4=4 LUT6=10 OBUF=1)

    Location             Delay type                Incr(ns)  Path(ns)    Netlist Resource(s)
  -------------------------------------------------------------------    -------------------
    AP25                                              0.000     0.000 r  A[4] (IN)
                         net (fo=0)                   0.000     0.000    A[4]
    AP25                                                              r  A_IBUF[4]_inst/I
    AP25                 IBUF (Prop_ibuf_I_O)         0.590     0.590 r  A_IBUF[4]_inst/O
                         net (fo=21, routed)          1.340     1.929    A_IBUF[4]
    SLICE_X0Y59                                                       r  O_OBUF[5]_inst_i_10/I3
    SLICE_X0Y59          LUT4 (Prop_lut4_I3_O)        0.043     1.972 r  O_OBUF[5]_inst_i_10/O
                         net (fo=3, routed)           0.509     2.481    N_364
    SLICE_X0Y60                                                       r  O_OBUF[4]_inst_i_4/I1
    SLICE_X0Y60          LUT6 (Prop_lut6_I1_O)        0.043     2.524 r  O_OBUF[4]_inst_i_4/O
                         net (fo=4, routed)           0.425     2.949    N_633
    SLICE_X3Y60                                                       r  O_OBUF[7]_inst_i_14/I2
    SLICE_X3Y60          LUT6 (Prop_lut6_I2_O)        0.043     2.992 r  O_OBUF[7]_inst_i_14/O
                         net (fo=1, routed)           0.419     3.411    N_849
    SLICE_X2Y60                                                       r  O_OBUF[7]_inst_i_12/I3
    SLICE_X2Y60          LUT6 (Prop_lut6_I3_O)        0.043     3.454 r  O_OBUF[7]_inst_i_12/O
                         net (fo=3, routed)           0.508     3.962    N_883
    SLICE_X4Y60                                                       r  O_OBUF[5]_inst_i_5/I3
    SLICE_X4Y60          LUT6 (Prop_lut6_I3_O)        0.043     4.005 r  O_OBUF[5]_inst_i_5/O
                         net (fo=3, routed)           0.588     4.594    N_915
    SLICE_X3Y61                                                       r  O_OBUF[5]_inst_i_2/I4
    SLICE_X3Y61          LUT6 (Prop_lut6_I4_O)        0.043     4.637 r  O_OBUF[5]_inst_i_2/O
                         net (fo=5, routed)           0.264     4.900    N_1099
    SLICE_X1Y60                                                       r  O_OBUF[7]_inst_i_5/I3
    SLICE_X1Y60          LUT6 (Prop_lut6_I3_O)        0.043     4.943 r  O_OBUF[7]_inst_i_5/O
                         net (fo=4, routed)           0.585     5.528    N_1133
    SLICE_X4Y61                                                       r  O_OBUF[15]_inst_i_12/I3
    SLICE_X4Y61          LUT6 (Prop_lut6_I3_O)        0.043     5.571 r  O_OBUF[15]_inst_i_12/O
                         net (fo=3, routed)           0.432     6.004    N_1165
    SLICE_X2Y61                                                       r  O_OBUF[10]_inst_i_9/I0
    SLICE_X2Y61          LUT4 (Prop_lut4_I0_O)        0.043     6.047 r  O_OBUF[10]_inst_i_9/O
                         net (fo=3, routed)           0.522     6.569    N_1182
    SLICE_X2Y62                                                       r  O_OBUF[10]_inst_i_5/I1
    SLICE_X2Y62          LUT4 (Prop_lut4_I1_O)        0.043     6.612 r  O_OBUF[10]_inst_i_5/O
                         net (fo=4, routed)           0.606     7.218    N_1432
    SLICE_X0Y63                                                       r  O_OBUF[10]_inst_i_2/I4
    SLICE_X0Y63          LUT6 (Prop_lut6_I4_O)        0.043     7.261 r  O_OBUF[10]_inst_i_2/O
                         net (fo=2, routed)           0.300     7.561    N_1933
    SLICE_X0Y64                                                       r  O_OBUF[12]_inst_i_2/I2
    SLICE_X0Y64          LUT4 (Prop_lut4_I2_O)        0.043     7.604 r  O_OBUF[12]_inst_i_2/O
                         net (fo=3, routed)           0.424     8.027    N_1949
    SLICE_X0Y64                                                       r  O_OBUF[15]_inst_i_2/I3
    SLICE_X0Y64          LUT6 (Prop_lut6_I3_O)        0.043     8.070 r  O_OBUF[15]_inst_i_2/O
                         net (fo=3, routed)           0.418     8.489    N_1983
    SLICE_X0Y62                                                       r  O_OBUF[14]_inst_i_1/I1
    SLICE_X0Y62          LUT6 (Prop_lut6_I1_O)        0.043     8.532 r  O_OBUF[14]_inst_i_1/O
                         net (fo=1, routed)           1.425     9.956    O_OBUF[14]
    AJ29                                                              r  O_OBUF[14]_inst/I
    AJ29                 OBUF (Prop_obuf_I_O)         1.836    11.792 r  O_OBUF[14]_inst/O
                         net (fo=0)                   0.000    11.792    O[14]
    AJ29                                                              r  O[14] (OUT)
  -------------------------------------------------------------------    -------------------

Slack:                    inf
  Source:                 A[4]
                            (input port)
  Destination:            O[15]
                            (output port)
  Path Group:             (none)
  Path Type:              Max at Slow Process Corner
  Data Path Delay:        11.778ns  (logic 3.043ns (25.836%)  route 8.735ns (74.164%))
  Logic Levels:           16  (IBUF=1 LUT4=4 LUT6=10 OBUF=1)

    Location             Delay type                Incr(ns)  Path(ns)    Netlist Resource(s)
  -------------------------------------------------------------------    -------------------
    AP25                                              0.000     0.000 r  A[4] (IN)
                         net (fo=0)                   0.000     0.000    A[4]
    AP25                                                              r  A_IBUF[4]_inst/I
    AP25                 IBUF (Prop_ibuf_I_O)         0.590     0.590 r  A_IBUF[4]_inst/O
                         net (fo=21, routed)          1.340     1.929    A_IBUF[4]
    SLICE_X0Y59                                                       r  O_OBUF[5]_inst_i_10/I3
    SLICE_X0Y59          LUT4 (Prop_lut4_I3_O)        0.043     1.972 r  O_OBUF[5]_inst_i_10/O
                         net (fo=3, routed)           0.509     2.481    N_364
    SLICE_X0Y60                                                       r  O_OBUF[4]_inst_i_4/I1
    SLICE_X0Y60          LUT6 (Prop_lut6_I1_O)        0.043     2.524 r  O_OBUF[4]_inst_i_4/O
                         net (fo=4, routed)           0.425     2.949    N_633
    SLICE_X3Y60                                                       r  O_OBUF[7]_inst_i_14/I2
    SLICE_X3Y60          LUT6 (Prop_lut6_I2_O)        0.043     2.992 r  O_OBUF[7]_inst_i_14/O
                         net (fo=1, routed)           0.419     3.411    N_849
    SLICE_X2Y60                                                       r  O_OBUF[7]_inst_i_12/I3
    SLICE_X2Y60          LUT6 (Prop_lut6_I3_O)        0.043     3.454 r  O_OBUF[7]_inst_i_12/O
                         net (fo=3, routed)           0.508     3.962    N_883
    SLICE_X4Y60                                                       r  O_OBUF[5]_inst_i_5/I3
    SLICE_X4Y60          LUT6 (Prop_lut6_I3_O)        0.043     4.005 r  O_OBUF[5]_inst_i_5/O
                         net (fo=3, routed)           0.588     4.594    N_915
    SLICE_X3Y61                                                       r  O_OBUF[5]_inst_i_2/I4
    SLICE_X3Y61          LUT6 (Prop_lut6_I4_O)        0.043     4.637 r  O_OBUF[5]_inst_i_2/O
                         net (fo=5, routed)           0.264     4.900    N_1099
    SLICE_X1Y60                                                       r  O_OBUF[7]_inst_i_5/I3
    SLICE_X1Y60          LUT6 (Prop_lut6_I3_O)        0.043     4.943 r  O_OBUF[7]_inst_i_5/O
                         net (fo=4, routed)           0.585     5.528    N_1133
    SLICE_X4Y61                                                       r  O_OBUF[15]_inst_i_12/I3
    SLICE_X4Y61          LUT6 (Prop_lut6_I3_O)        0.043     5.571 r  O_OBUF[15]_inst_i_12/O
                         net (fo=3, routed)           0.432     6.004    N_1165
    SLICE_X2Y61                                                       r  O_OBUF[10]_inst_i_9/I0
    SLICE_X2Y61          LUT4 (Prop_lut4_I0_O)        0.043     6.047 r  O_OBUF[10]_inst_i_9/O
                         net (fo=3, routed)           0.522     6.569    N_1182
    SLICE_X2Y62                                                       r  O_OBUF[10]_inst_i_5/I1
    SLICE_X2Y62          LUT4 (Prop_lut4_I1_O)        0.043     6.612 r  O_OBUF[10]_inst_i_5/O
                         net (fo=4, routed)           0.606     7.218    N_1432
    SLICE_X0Y63                                                       r  O_OBUF[10]_inst_i_2/I4
    SLICE_X0Y63          LUT6 (Prop_lut6_I4_O)        0.043     7.261 r  O_OBUF[10]_inst_i_2/O
                         net (fo=2, routed)           0.300     7.561    N_1933
    SLICE_X0Y64                                                       r  O_OBUF[12]_inst_i_2/I2
    SLICE_X0Y64          LUT4 (Prop_lut4_I2_O)        0.043     7.604 r  O_OBUF[12]_inst_i_2/O
                         net (fo=3, routed)           0.424     8.027    N_1949
    SLICE_X0Y64                                                       r  O_OBUF[15]_inst_i_2/I3
    SLICE_X0Y64          LUT6 (Prop_lut6_I3_O)        0.043     8.070 r  O_OBUF[15]_inst_i_2/O
                         net (fo=3, routed)           0.413     8.484    N_1983
    SLICE_X0Y62                                                       r  O_OBUF[15]_inst_i_1/I3
    SLICE_X0Y62          LUT6 (Prop_lut6_I3_O)        0.043     8.527 r  O_OBUF[15]_inst_i_1/O
                         net (fo=1, routed)           1.400     9.927    O_OBUF[15]
    AN30                                                              r  O_OBUF[15]_inst/I
    AN30                 OBUF (Prop_obuf_I_O)         1.851    11.778 r  O_OBUF[15]_inst/O
                         net (fo=0)                   0.000    11.778    O[15]
    AN30                                                              r  O[15] (OUT)
  -------------------------------------------------------------------    -------------------

Slack:                    inf
  Source:                 A[4]
                            (input port)
  Destination:            O[13]
                            (output port)
  Path Group:             (none)
  Path Type:              Max at Slow Process Corner
  Data Path Delay:        11.620ns  (logic 3.024ns (26.027%)  route 8.596ns (73.973%))
  Logic Levels:           16  (IBUF=1 LUT4=5 LUT6=9 OBUF=1)

    Location             Delay type                Incr(ns)  Path(ns)    Netlist Resource(s)
  -------------------------------------------------------------------    -------------------
    AP25                                              0.000     0.000 r  A[4] (IN)
                         net (fo=0)                   0.000     0.000    A[4]
    AP25                                                              r  A_IBUF[4]_inst/I
    AP25                 IBUF (Prop_ibuf_I_O)         0.590     0.590 r  A_IBUF[4]_inst/O
                         net (fo=21, routed)          1.340     1.929    A_IBUF[4]
    SLICE_X0Y59                                                       r  O_OBUF[5]_inst_i_10/I3
    SLICE_X0Y59          LUT4 (Prop_lut4_I3_O)        0.043     1.972 r  O_OBUF[5]_inst_i_10/O
                         net (fo=3, routed)           0.509     2.481    N_364
    SLICE_X0Y60                                                       r  O_OBUF[4]_inst_i_4/I1
    SLICE_X0Y60          LUT6 (Prop_lut6_I1_O)        0.043     2.524 r  O_OBUF[4]_inst_i_4/O
                         net (fo=4, routed)           0.425     2.949    N_633
    SLICE_X3Y60                                                       r  O_OBUF[7]_inst_i_14/I2
    SLICE_X3Y60          LUT6 (Prop_lut6_I2_O)        0.043     2.992 r  O_OBUF[7]_inst_i_14/O
                         net (fo=1, routed)           0.419     3.411    N_849
    SLICE_X2Y60                                                       r  O_OBUF[7]_inst_i_12/I3
    SLICE_X2Y60          LUT6 (Prop_lut6_I3_O)        0.043     3.454 r  O_OBUF[7]_inst_i_12/O
                         net (fo=3, routed)           0.508     3.962    N_883
    SLICE_X4Y60                                                       r  O_OBUF[5]_inst_i_5/I3
    SLICE_X4Y60          LUT6 (Prop_lut6_I3_O)        0.043     4.005 r  O_OBUF[5]_inst_i_5/O
                         net (fo=3, routed)           0.588     4.594    N_915
    SLICE_X3Y61                                                       r  O_OBUF[5]_inst_i_2/I4
    SLICE_X3Y61          LUT6 (Prop_lut6_I4_O)        0.043     4.637 r  O_OBUF[5]_inst_i_2/O
                         net (fo=5, routed)           0.264     4.900    N_1099
    SLICE_X1Y60                                                       r  O_OBUF[7]_inst_i_5/I3
    SLICE_X1Y60          LUT6 (Prop_lut6_I3_O)        0.043     4.943 r  O_OBUF[7]_inst_i_5/O
                         net (fo=4, routed)           0.585     5.528    N_1133
    SLICE_X4Y61                                                       r  O_OBUF[15]_inst_i_12/I3
    SLICE_X4Y61          LUT6 (Prop_lut6_I3_O)        0.043     5.571 r  O_OBUF[15]_inst_i_12/O
                         net (fo=3, routed)           0.432     6.004    N_1165
    SLICE_X2Y61                                                       r  O_OBUF[10]_inst_i_9/I0
    SLICE_X2Y61          LUT4 (Prop_lut4_I0_O)        0.043     6.047 r  O_OBUF[10]_inst_i_9/O
                         net (fo=3, routed)           0.522     6.569    N_1182
    SLICE_X2Y62                                                       r  O_OBUF[10]_inst_i_5/I1
    SLICE_X2Y62          LUT4 (Prop_lut4_I1_O)        0.043     6.612 r  O_OBUF[10]_inst_i_5/O
                         net (fo=4, routed)           0.606     7.218    N_1432
    SLICE_X0Y63                                                       r  O_OBUF[10]_inst_i_2/I4
    SLICE_X0Y63          LUT6 (Prop_lut6_I4_O)        0.043     7.261 r  O_OBUF[10]_inst_i_2/O
                         net (fo=2, routed)           0.300     7.561    N_1933
    SLICE_X0Y64                                                       r  O_OBUF[12]_inst_i_2/I2
    SLICE_X0Y64          LUT4 (Prop_lut4_I2_O)        0.043     7.604 r  O_OBUF[12]_inst_i_2/O
                         net (fo=3, routed)           0.424     8.027    N_1949
    SLICE_X0Y64                                                       r  O_OBUF[15]_inst_i_2/I3
    SLICE_X0Y64          LUT6 (Prop_lut6_I3_O)        0.043     8.070 r  O_OBUF[15]_inst_i_2/O
                         net (fo=3, routed)           0.341     8.412    N_1983
    SLICE_X0Y62                                                       r  O_OBUF[13]_inst_i_1/I0
    SLICE_X0Y62          LUT4 (Prop_lut4_I0_O)        0.043     8.455 r  O_OBUF[13]_inst_i_1/O
                         net (fo=1, routed)           1.333     9.787    O_OBUF[13]
    AK29                                                              r  O_OBUF[13]_inst/I
    AK29                 OBUF (Prop_obuf_I_O)         1.833    11.620 r  O_OBUF[13]_inst/O
                         net (fo=0)                   0.000    11.620    O[13]
    AK29                                                              r  O[13] (OUT)
  -------------------------------------------------------------------    -------------------

Slack:                    inf
  Source:                 A[4]
                            (input port)
  Destination:            O[11]
                            (output port)
  Path Group:             (none)
  Path Type:              Max at Slow Process Corner
  Data Path Delay:        11.113ns  (logic 2.990ns (26.903%)  route 8.123ns (73.097%))
  Logic Levels:           15  (IBUF=1 LUT4=5 LUT6=8 OBUF=1)

    Location             Delay type                Incr(ns)  Path(ns)    Netlist Resource(s)
  -------------------------------------------------------------------    -------------------
    AP25                                              0.000     0.000 r  A[4] (IN)
                         net (fo=0)                   0.000     0.000    A[4]
    AP25                                                              r  A_IBUF[4]_inst/I
    AP25                 IBUF (Prop_ibuf_I_O)         0.590     0.590 r  A_IBUF[4]_inst/O
                         net (fo=21, routed)          1.340     1.929    A_IBUF[4]
    SLICE_X0Y59                                                       r  O_OBUF[5]_inst_i_10/I3
    SLICE_X0Y59          LUT4 (Prop_lut4_I3_O)        0.043     1.972 r  O_OBUF[5]_inst_i_10/O
                         net (fo=3, routed)           0.509     2.481    N_364
    SLICE_X0Y60                                                       r  O_OBUF[4]_inst_i_4/I1
    SLICE_X0Y60          LUT6 (Prop_lut6_I1_O)        0.043     2.524 r  O_OBUF[4]_inst_i_4/O
                         net (fo=4, routed)           0.425     2.949    N_633
    SLICE_X3Y60                                                       r  O_OBUF[7]_inst_i_14/I2
    SLICE_X3Y60          LUT6 (Prop_lut6_I2_O)        0.043     2.992 r  O_OBUF[7]_inst_i_14/O
                         net (fo=1, routed)           0.419     3.411    N_849
    SLICE_X2Y60                                                       r  O_OBUF[7]_inst_i_12/I3
    SLICE_X2Y60          LUT6 (Prop_lut6_I3_O)        0.043     3.454 r  O_OBUF[7]_inst_i_12/O
                         net (fo=3, routed)           0.508     3.962    N_883
    SLICE_X4Y60                                                       r  O_OBUF[5]_inst_i_5/I3
    SLICE_X4Y60          LUT6 (Prop_lut6_I3_O)        0.043     4.005 r  O_OBUF[5]_inst_i_5/O
                         net (fo=3, routed)           0.588     4.594    N_915
    SLICE_X3Y61                                                       r  O_OBUF[5]_inst_i_2/I4
    SLICE_X3Y61          LUT6 (Prop_lut6_I4_O)        0.043     4.637 r  O_OBUF[5]_inst_i_2/O
                         net (fo=5, routed)           0.264     4.900    N_1099
    SLICE_X1Y60                                                       r  O_OBUF[7]_inst_i_5/I3
    SLICE_X1Y60          LUT6 (Prop_lut6_I3_O)        0.043     4.943 r  O_OBUF[7]_inst_i_5/O
                         net (fo=4, routed)           0.585     5.528    N_1133
    SLICE_X4Y61                                                       r  O_OBUF[15]_inst_i_12/I3
    SLICE_X4Y61          LUT6 (Prop_lut6_I3_O)        0.043     5.571 r  O_OBUF[15]_inst_i_12/O
                         net (fo=3, routed)           0.432     6.004    N_1165
    SLICE_X2Y61                                                       r  O_OBUF[10]_inst_i_9/I0
    SLICE_X2Y61          LUT4 (Prop_lut4_I0_O)        0.043     6.047 r  O_OBUF[10]_inst_i_9/O
                         net (fo=3, routed)           0.522     6.569    N_1182
    SLICE_X2Y62                                                       r  O_OBUF[10]_inst_i_5/I1
    SLICE_X2Y62          LUT4 (Prop_lut4_I1_O)        0.043     6.612 r  O_OBUF[10]_inst_i_5/O
                         net (fo=4, routed)           0.606     7.218    N_1432
    SLICE_X0Y63                                                       r  O_OBUF[10]_inst_i_2/I4
    SLICE_X0Y63          LUT6 (Prop_lut6_I4_O)        0.043     7.261 r  O_OBUF[10]_inst_i_2/O
                         net (fo=2, routed)           0.300     7.561    N_1933
    SLICE_X0Y64                                                       r  O_OBUF[12]_inst_i_2/I2
    SLICE_X0Y64          LUT4 (Prop_lut4_I2_O)        0.043     7.604 r  O_OBUF[12]_inst_i_2/O
                         net (fo=3, routed)           0.351     7.955    N_1949
    SLICE_X0Y64                                                       r  O_OBUF[11]_inst_i_1/I0
    SLICE_X0Y64          LUT4 (Prop_lut4_I0_O)        0.043     7.998 r  O_OBUF[11]_inst_i_1/O
                         net (fo=1, routed)           1.274     9.272    O_OBUF[11]
    AM31                                                              r  O_OBUF[11]_inst/I
    AM31                 OBUF (Prop_obuf_I_O)         1.841    11.113 r  O_OBUF[11]_inst/O
                         net (fo=0)                   0.000    11.113    O[11]
    AM31                                                              r  O[11] (OUT)
  -------------------------------------------------------------------    -------------------

Slack:                    inf
  Source:                 A[4]
                            (input port)
  Destination:            O[12]
                            (output port)
  Path Group:             (none)
  Path Type:              Max at Slow Process Corner
  Data Path Delay:        11.049ns  (logic 3.074ns (27.824%)  route 7.975ns (72.176%))
  Logic Levels:           15  (IBUF=1 LUT4=3 LUT6=10 OBUF=1)

    Location             Delay type                Incr(ns)  Path(ns)    Netlist Resource(s)
  -------------------------------------------------------------------    -------------------
    AP25                                              0.000     0.000 r  A[4] (IN)
                         net (fo=0)                   0.000     0.000    A[4]
    AP25                                                              r  A_IBUF[4]_inst/I
    AP25                 IBUF (Prop_ibuf_I_O)         0.590     0.590 r  A_IBUF[4]_inst/O
                         net (fo=21, routed)          1.340     1.929    A_IBUF[4]
    SLICE_X0Y59                                                       r  O_OBUF[5]_inst_i_10/I3
    SLICE_X0Y59          LUT4 (Prop_lut4_I3_O)        0.043     1.972 r  O_OBUF[5]_inst_i_10/O
                         net (fo=3, routed)           0.509     2.481    N_364
    SLICE_X0Y60                                                       r  O_OBUF[4]_inst_i_4/I1
    SLICE_X0Y60          LUT6 (Prop_lut6_I1_O)        0.043     2.524 r  O_OBUF[4]_inst_i_4/O
                         net (fo=4, routed)           0.425     2.949    N_633
    SLICE_X3Y60                                                       r  O_OBUF[7]_inst_i_14/I2
    SLICE_X3Y60          LUT6 (Prop_lut6_I2_O)        0.043     2.992 r  O_OBUF[7]_inst_i_14/O
                         net (fo=1, routed)           0.419     3.411    N_849
    SLICE_X2Y60                                                       r  O_OBUF[7]_inst_i_12/I3
    SLICE_X2Y60          LUT6 (Prop_lut6_I3_O)        0.043     3.454 r  O_OBUF[7]_inst_i_12/O
                         net (fo=3, routed)           0.508     3.962    N_883
    SLICE_X4Y60                                                       r  O_OBUF[5]_inst_i_5/I3
    SLICE_X4Y60          LUT6 (Prop_lut6_I3_O)        0.043     4.005 r  O_OBUF[5]_inst_i_5/O
                         net (fo=3, routed)           0.588     4.594    N_915
    SLICE_X3Y61                                                       r  O_OBUF[5]_inst_i_2/I4
    SLICE_X3Y61          LUT6 (Prop_lut6_I4_O)        0.043     4.637 r  O_OBUF[5]_inst_i_2/O
                         net (fo=5, routed)           0.264     4.900    N_1099
    SLICE_X1Y60                                                       r  O_OBUF[7]_inst_i_5/I3
    SLICE_X1Y60          LUT6 (Prop_lut6_I3_O)        0.043     4.943 r  O_OBUF[7]_inst_i_5/O
                         net (fo=4, routed)           0.585     5.528    N_1133
    SLICE_X4Y61                                                       r  O_OBUF[15]_inst_i_12/I3
    SLICE_X4Y61          LUT6 (Prop_lut6_I3_O)        0.043     5.571 r  O_OBUF[15]_inst_i_12/O
                         net (fo=3, routed)           0.432     6.004    N_1165
    SLICE_X2Y61                                                       r  O_OBUF[10]_inst_i_9/I0
    SLICE_X2Y61          LUT4 (Prop_lut4_I0_O)        0.043     6.047 r  O_OBUF[10]_inst_i_9/O
                         net (fo=3, routed)           0.618     6.665    N_1182
    SLICE_X2Y63                                                       r  O_OBUF[15]_inst_i_8/I4
    SLICE_X2Y63          LUT6 (Prop_lut6_I4_O)        0.043     6.708 r  O_OBUF[15]_inst_i_8/O
                         net (fo=3, routed)           0.358     7.066    N_1449
    SLICE_X2Y63                                                       r  O_OBUF[12]_inst_i_6/I0
    SLICE_X2Y63          LUT4 (Prop_lut4_I0_O)        0.043     7.109 r  O_OBUF[12]_inst_i_6/O
                         net (fo=3, routed)           0.316     7.425    N_1464
    SLICE_X1Y63                                                       r  O_OBUF[12]_inst_i_4/I2
    SLICE_X1Y63          LUT6 (Prop_lut6_I2_O)        0.127     7.552 r  O_OBUF[12]_inst_i_4/O
                         net (fo=2, routed)           0.331     7.882    N_1732
    SLICE_X0Y64                                                       r  O_OBUF[12]_inst_i_1/I4
    SLICE_X0Y64          LUT6 (Prop_lut6_I4_O)        0.043     7.925 r  O_OBUF[12]_inst_i_1/O
                         net (fo=1, routed)           1.282     9.207    O_OBUF[12]
    AL31                                                              r  O_OBUF[12]_inst/I
    AL31                 OBUF (Prop_obuf_I_O)         1.842    11.049 r  O_OBUF[12]_inst/O
                         net (fo=0)                   0.000    11.049    O[12]
    AL31                                                              r  O[12] (OUT)
  -------------------------------------------------------------------    -------------------

Slack:                    inf
  Source:                 A[4]
                            (input port)
  Destination:            O[10]
                            (output port)
  Path Group:             (none)
  Path Type:              Max at Slow Process Corner
  Data Path Delay:        10.797ns  (logic 3.030ns (28.063%)  route 7.767ns (71.937%))
  Logic Levels:           14  (IBUF=1 LUT4=4 LUT6=8 OBUF=1)

    Location             Delay type                Incr(ns)  Path(ns)    Netlist Resource(s)
  -------------------------------------------------------------------    -------------------
    AP25                                              0.000     0.000 r  A[4] (IN)
                         net (fo=0)                   0.000     0.000    A[4]
    AP25                                                              r  A_IBUF[4]_inst/I
    AP25                 IBUF (Prop_ibuf_I_O)         0.590     0.590 r  A_IBUF[4]_inst/O
                         net (fo=21, routed)          1.340     1.929    A_IBUF[4]
    SLICE_X0Y59                                                       r  O_OBUF[5]_inst_i_10/I3
    SLICE_X0Y59          LUT4 (Prop_lut4_I3_O)        0.043     1.972 r  O_OBUF[5]_inst_i_10/O
                         net (fo=3, routed)           0.509     2.481    N_364
    SLICE_X0Y60                                                       r  O_OBUF[4]_inst_i_4/I1
    SLICE_X0Y60          LUT6 (Prop_lut6_I1_O)        0.043     2.524 r  O_OBUF[4]_inst_i_4/O
                         net (fo=4, routed)           0.425     2.949    N_633
    SLICE_X3Y60                                                       r  O_OBUF[7]_inst_i_14/I2
    SLICE_X3Y60          LUT6 (Prop_lut6_I2_O)        0.043     2.992 r  O_OBUF[7]_inst_i_14/O
                         net (fo=1, routed)           0.419     3.411    N_849
    SLICE_X2Y60                                                       r  O_OBUF[7]_inst_i_12/I3
    SLICE_X2Y60          LUT6 (Prop_lut6_I3_O)        0.043     3.454 r  O_OBUF[7]_inst_i_12/O
                         net (fo=3, routed)           0.508     3.962    N_883
    SLICE_X4Y60                                                       r  O_OBUF[5]_inst_i_5/I3
    SLICE_X4Y60          LUT6 (Prop_lut6_I3_O)        0.043     4.005 r  O_OBUF[5]_inst_i_5/O
                         net (fo=3, routed)           0.588     4.594    N_915
    SLICE_X3Y61                                                       r  O_OBUF[5]_inst_i_2/I4
    SLICE_X3Y61          LUT6 (Prop_lut6_I4_O)        0.043     4.637 r  O_OBUF[5]_inst_i_2/O
                         net (fo=5, routed)           0.264     4.900    N_1099
    SLICE_X1Y60                                                       r  O_OBUF[7]_inst_i_5/I3
    SLICE_X1Y60          LUT6 (Prop_lut6_I3_O)        0.043     4.943 r  O_OBUF[7]_inst_i_5/O
                         net (fo=4, routed)           0.585     5.528    N_1133
    SLICE_X4Y61                                                       r  O_OBUF[15]_inst_i_12/I3
    SLICE_X4Y61          LUT6 (Prop_lut6_I3_O)        0.043     5.571 r  O_OBUF[15]_inst_i_12/O
                         net (fo=3, routed)           0.432     6.004    N_1165
    SLICE_X2Y61                                                       r  O_OBUF[10]_inst_i_9/I0
    SLICE_X2Y61          LUT4 (Prop_lut4_I0_O)        0.043     6.047 r  O_OBUF[10]_inst_i_9/O
                         net (fo=3, routed)           0.522     6.569    N_1182
    SLICE_X2Y62                                                       r  O_OBUF[10]_inst_i_5/I1
    SLICE_X2Y62          LUT4 (Prop_lut4_I1_O)        0.043     6.612 r  O_OBUF[10]_inst_i_5/O
                         net (fo=4, routed)           0.606     7.218    N_1432
    SLICE_X0Y63                                                       r  O_OBUF[10]_inst_i_2/I4
    SLICE_X0Y63          LUT6 (Prop_lut6_I4_O)        0.043     7.261 r  O_OBUF[10]_inst_i_2/O
                         net (fo=2, routed)           0.300     7.561    N_1933
    SLICE_X0Y64                                                       r  O_OBUF[10]_inst_i_1/I0
    SLICE_X0Y64          LUT4 (Prop_lut4_I0_O)        0.051     7.612 r  O_OBUF[10]_inst_i_1/O
                         net (fo=1, routed)           1.269     8.880    O_OBUF[10]
    AL29                                                              r  O_OBUF[10]_inst/I
    AL29                 OBUF (Prop_obuf_I_O)         1.916    10.797 r  O_OBUF[10]_inst/O
                         net (fo=0)                   0.000    10.797    O[10]
    AL29                                                              r  O[10] (OUT)
  -------------------------------------------------------------------    -------------------

Slack:                    inf
  Source:                 A[4]
                            (input port)
  Destination:            O[9]
                            (output port)
  Path Group:             (none)
  Path Type:              Max at Slow Process Corner
  Data Path Delay:        10.488ns  (logic 2.937ns (28.005%)  route 7.551ns (71.995%))
  Logic Levels:           14  (IBUF=1 LUT4=5 LUT6=7 OBUF=1)

    Location             Delay type                Incr(ns)  Path(ns)    Netlist Resource(s)
  -------------------------------------------------------------------    -------------------
    AP25                                              0.000     0.000 r  A[4] (IN)
                         net (fo=0)                   0.000     0.000    A[4]
    AP25                                                              r  A_IBUF[4]_inst/I
    AP25                 IBUF (Prop_ibuf_I_O)         0.590     0.590 r  A_IBUF[4]_inst/O
                         net (fo=21, routed)          1.340     1.929    A_IBUF[4]
    SLICE_X0Y59                                                       r  O_OBUF[5]_inst_i_10/I3
    SLICE_X0Y59          LUT4 (Prop_lut4_I3_O)        0.043     1.972 r  O_OBUF[5]_inst_i_10/O
                         net (fo=3, routed)           0.509     2.481    N_364
    SLICE_X0Y60                                                       r  O_OBUF[4]_inst_i_4/I1
    SLICE_X0Y60          LUT6 (Prop_lut6_I1_O)        0.043     2.524 r  O_OBUF[4]_inst_i_4/O
                         net (fo=4, routed)           0.425     2.949    N_633
    SLICE_X3Y60                                                       r  O_OBUF[7]_inst_i_14/I2
    SLICE_X3Y60          LUT6 (Prop_lut6_I2_O)        0.043     2.992 r  O_OBUF[7]_inst_i_14/O
                         net (fo=1, routed)           0.419     3.411    N_849
    SLICE_X2Y60                                                       r  O_OBUF[7]_inst_i_12/I3
    SLICE_X2Y60          LUT6 (Prop_lut6_I3_O)        0.043     3.454 r  O_OBUF[7]_inst_i_12/O
                         net (fo=3, routed)           0.508     3.962    N_883
    SLICE_X4Y60                                                       r  O_OBUF[5]_inst_i_5/I3
    SLICE_X4Y60          LUT6 (Prop_lut6_I3_O)        0.043     4.005 r  O_OBUF[5]_inst_i_5/O
                         net (fo=3, routed)           0.588     4.594    N_915
    SLICE_X3Y61                                                       r  O_OBUF[5]_inst_i_2/I4
    SLICE_X3Y61          LUT6 (Prop_lut6_I4_O)        0.043     4.637 r  O_OBUF[5]_inst_i_2/O
                         net (fo=5, routed)           0.264     4.900    N_1099
    SLICE_X1Y60                                                       r  O_OBUF[7]_inst_i_5/I3
    SLICE_X1Y60          LUT6 (Prop_lut6_I3_O)        0.043     4.943 r  O_OBUF[7]_inst_i_5/O
                         net (fo=4, routed)           0.585     5.528    N_1133
    SLICE_X4Y61                                                       r  O_OBUF[15]_inst_i_12/I3
    SLICE_X4Y61          LUT6 (Prop_lut6_I3_O)        0.043     5.571 r  O_OBUF[15]_inst_i_12/O
                         net (fo=3, routed)           0.432     6.004    N_1165
    SLICE_X2Y61                                                       r  O_OBUF[10]_inst_i_9/I0
    SLICE_X2Y61          LUT4 (Prop_lut4_I0_O)        0.043     6.047 r  O_OBUF[10]_inst_i_9/O
                         net (fo=3, routed)           0.522     6.569    N_1182
    SLICE_X2Y62                                                       r  O_OBUF[10]_inst_i_5/I1
    SLICE_X2Y62          LUT4 (Prop_lut4_I1_O)        0.043     6.612 r  O_OBUF[10]_inst_i_5/O
                         net (fo=4, routed)           0.361     6.973    N_1432
    SLICE_X2Y62                                                       r  O_OBUF[9]_inst_i_3/I1
    SLICE_X2Y62          LUT4 (Prop_lut4_I1_O)        0.043     7.016 r  O_OBUF[9]_inst_i_3/O
                         net (fo=1, routed)           0.254     7.270    N_1682
    SLICE_X0Y62                                                       r  O_OBUF[9]_inst_i_1/I1
    SLICE_X0Y62          LUT4 (Prop_lut4_I1_O)        0.043     7.313 r  O_OBUF[9]_inst_i_1/O
                         net (fo=1, routed)           1.344     8.656    O_OBUF[9]
    AL30                                                              r  O_OBUF[9]_inst/I
    AL30                 OBUF (Prop_obuf_I_O)         1.831    10.488 r  O_OBUF[9]_inst/O
                         net (fo=0)                   0.000    10.488    O[9]
    AL30                                                              r  O[9] (OUT)
  -------------------------------------------------------------------    -------------------

Slack:                    inf
  Source:                 A[4]
                            (input port)
  Destination:            O[8]
                            (output port)
  Path Group:             (none)
  Path Type:              Max at Slow Process Corner
  Data Path Delay:        10.006ns  (logic 3.074ns (30.724%)  route 6.932ns (69.276%))
  Logic Levels:           13  (IBUF=1 LUT4=4 LUT5=1 LUT6=6 OBUF=1)

    Location             Delay type                Incr(ns)  Path(ns)    Netlist Resource(s)
  -------------------------------------------------------------------    -------------------
    AP25                                              0.000     0.000 r  A[4] (IN)
                         net (fo=0)                   0.000     0.000    A[4]
    AP25                                                              r  A_IBUF[4]_inst/I
    AP25                 IBUF (Prop_ibuf_I_O)         0.590     0.590 r  A_IBUF[4]_inst/O
                         net (fo=21, routed)          1.340     1.929    A_IBUF[4]
    SLICE_X0Y59                                                       r  O_OBUF[5]_inst_i_10/I3
    SLICE_X0Y59          LUT4 (Prop_lut4_I3_O)        0.043     1.972 r  O_OBUF[5]_inst_i_10/O
                         net (fo=3, routed)           0.509     2.481    N_364
    SLICE_X0Y60                                                       r  O_OBUF[4]_inst_i_4/I1
    SLICE_X0Y60          LUT6 (Prop_lut6_I1_O)        0.043     2.524 r  O_OBUF[4]_inst_i_4/O
                         net (fo=4, routed)           0.425     2.949    N_633
    SLICE_X3Y60                                                       r  O_OBUF[7]_inst_i_14/I2
    SLICE_X3Y60          LUT6 (Prop_lut6_I2_O)        0.043     2.992 r  O_OBUF[7]_inst_i_14/O
                         net (fo=1, routed)           0.419     3.411    N_849
    SLICE_X2Y60                                                       r  O_OBUF[7]_inst_i_12/I3
    SLICE_X2Y60          LUT6 (Prop_lut6_I3_O)        0.043     3.454 r  O_OBUF[7]_inst_i_12/O
                         net (fo=3, routed)           0.508     3.962    N_883
    SLICE_X4Y60                                                       r  O_OBUF[5]_inst_i_5/I3
    SLICE_X4Y60          LUT6 (Prop_lut6_I3_O)        0.043     4.005 r  O_OBUF[5]_inst_i_5/O
                         net (fo=3, routed)           0.588     4.594    N_915
    SLICE_X3Y61                                                       r  O_OBUF[5]_inst_i_2/I4
    SLICE_X3Y61          LUT6 (Prop_lut6_I4_O)        0.043     4.637 r  O_OBUF[5]_inst_i_2/O
                         net (fo=5, routed)           0.601     5.238    N_1099
    SLICE_X0Y61                                                       r  O_OBUF[7]_inst_i_8/I1
    SLICE_X0Y61          LUT6 (Prop_lut6_I1_O)        0.043     5.281 r  O_OBUF[7]_inst_i_8/O
                         net (fo=1, routed)           0.419     5.699    N_1132
    SLICE_X0Y61                                                       r  O_OBUF[7]_inst_i_3/I0
    SLICE_X0Y61          LUT5 (Prop_lut5_I0_O)        0.054     5.753 r  O_OBUF[7]_inst_i_3/O
                         net (fo=3, routed)           0.424     6.178    N_1633
    SLICE_X1Y62                                                       r  O_OBUF[9]_inst_i_4/I2
    SLICE_X1Y62          LUT4 (Prop_lut4_I2_O)        0.131     6.309 r  O_OBUF[9]_inst_i_4/O
                         net (fo=3, routed)           0.224     6.532    N_1649
    SLICE_X1Y62                                                       r  O_OBUF[8]_inst_i_3/I0
    SLICE_X1Y62          LUT4 (Prop_lut4_I0_O)        0.051     6.583 r  O_OBUF[8]_inst_i_3/O
                         net (fo=1, routed)           0.220     6.803    N_1664
    SLICE_X1Y62                                                       r  O_OBUF[8]_inst_i_1/I1
    SLICE_X1Y62          LUT4 (Prop_lut4_I1_O)        0.129     6.932 r  O_OBUF[8]_inst_i_1/O
                         net (fo=1, routed)           1.255     8.188    O_OBUF[8]
    AK28                                                              r  O_OBUF[8]_inst/I
    AK28                 OBUF (Prop_obuf_I_O)         1.819    10.006 r  O_OBUF[8]_inst/O
                         net (fo=0)                   0.000    10.006    O[8]
    AK28                                                              r  O[8] (OUT)
  -------------------------------------------------------------------    -------------------

Slack:                    inf
  Source:                 A[4]
                            (input port)
  Destination:            O[7]
                            (output port)
  Path Group:             (none)
  Path Type:              Max at Slow Process Corner
  Data Path Delay:        9.118ns  (logic 2.892ns (31.716%)  route 6.226ns (68.284%))
  Logic Levels:           11  (IBUF=1 LUT4=1 LUT5=1 LUT6=7 OBUF=1)

    Location             Delay type                Incr(ns)  Path(ns)    Netlist Resource(s)
  -------------------------------------------------------------------    -------------------
    AP25                                              0.000     0.000 r  A[4] (IN)
                         net (fo=0)                   0.000     0.000    A[4]
    AP25                                                              r  A_IBUF[4]_inst/I
    AP25                 IBUF (Prop_ibuf_I_O)         0.590     0.590 r  A_IBUF[4]_inst/O
                         net (fo=21, routed)          1.340     1.929    A_IBUF[4]
    SLICE_X0Y59                                                       r  O_OBUF[5]_inst_i_10/I3
    SLICE_X0Y59          LUT4 (Prop_lut4_I3_O)        0.043     1.972 r  O_OBUF[5]_inst_i_10/O
                         net (fo=3, routed)           0.509     2.481    N_364
    SLICE_X0Y60                                                       r  O_OBUF[4]_inst_i_4/I1
    SLICE_X0Y60          LUT6 (Prop_lut6_I1_O)        0.043     2.524 r  O_OBUF[4]_inst_i_4/O
                         net (fo=4, routed)           0.425     2.949    N_633
    SLICE_X3Y60                                                       r  O_OBUF[7]_inst_i_14/I2
    SLICE_X3Y60          LUT6 (Prop_lut6_I2_O)        0.043     2.992 r  O_OBUF[7]_inst_i_14/O
                         net (fo=1, routed)           0.419     3.411    N_849
    SLICE_X2Y60                                                       r  O_OBUF[7]_inst_i_12/I3
    SLICE_X2Y60          LUT6 (Prop_lut6_I3_O)        0.043     3.454 r  O_OBUF[7]_inst_i_12/O
                         net (fo=3, routed)           0.508     3.962    N_883
    SLICE_X4Y60                                                       r  O_OBUF[5]_inst_i_5/I3
    SLICE_X4Y60          LUT6 (Prop_lut6_I3_O)        0.043     4.005 r  O_OBUF[5]_inst_i_5/O
                         net (fo=3, routed)           0.588     4.594    N_915
    SLICE_X3Y61                                                       r  O_OBUF[5]_inst_i_2/I4
    SLICE_X3Y61          LUT6 (Prop_lut6_I4_O)        0.043     4.637 r  O_OBUF[5]_inst_i_2/O
                         net (fo=5, routed)           0.601     5.238    N_1099
    SLICE_X0Y61                                                       r  O_OBUF[7]_inst_i_8/I1
    SLICE_X0Y61          LUT6 (Prop_lut6_I1_O)        0.043     5.281 r  O_OBUF[7]_inst_i_8/O
                         net (fo=1, routed)           0.419     5.699    N_1132
    SLICE_X0Y61                                                       r  O_OBUF[7]_inst_i_3/I0
    SLICE_X0Y61          LUT5 (Prop_lut5_I0_O)        0.054     5.753 r  O_OBUF[7]_inst_i_3/O
                         net (fo=3, routed)           0.159     5.912    N_1633
    SLICE_X0Y61                                                       r  O_OBUF[7]_inst_i_1/I5
    SLICE_X0Y61          LUT6 (Prop_lut6_I5_O)        0.131     6.043 r  O_OBUF[7]_inst_i_1/O
                         net (fo=1, routed)           1.259     7.302    O_OBUF[7]
    AL28                                                              r  O_OBUF[7]_inst/I
    AL28                 OBUF (Prop_obuf_I_O)         1.816     9.118 r  O_OBUF[7]_inst/O
                         net (fo=0)                   0.000     9.118    O[7]
    AL28                                                              r  O[7] (OUT)
  -------------------------------------------------------------------    -------------------

Slack:                    inf
  Source:                 A[4]
                            (input port)
  Destination:            O[6]
                            (output port)
  Path Group:             (none)
  Path Type:              Max at Slow Process Corner
  Data Path Delay:        8.719ns  (logic 2.893ns (33.182%)  route 5.826ns (66.818%))
  Logic Levels:           11  (IBUF=1 LUT3=1 LUT4=2 LUT6=6 OBUF=1)

    Location             Delay type                Incr(ns)  Path(ns)    Netlist Resource(s)
  -------------------------------------------------------------------    -------------------
    AP25                                              0.000     0.000 r  A[4] (IN)
                         net (fo=0)                   0.000     0.000    A[4]
    AP25                                                              r  A_IBUF[4]_inst/I
    AP25                 IBUF (Prop_ibuf_I_O)         0.590     0.590 r  A_IBUF[4]_inst/O
                         net (fo=21, routed)          1.340     1.929    A_IBUF[4]
    SLICE_X0Y59                                                       r  O_OBUF[5]_inst_i_10/I3
    SLICE_X0Y59          LUT4 (Prop_lut4_I3_O)        0.043     1.972 r  O_OBUF[5]_inst_i_10/O
                         net (fo=3, routed)           0.509     2.481    N_364
    SLICE_X0Y60                                                       r  O_OBUF[4]_inst_i_4/I1
    SLICE_X0Y60          LUT6 (Prop_lut6_I1_O)        0.043     2.524 r  O_OBUF[4]_inst_i_4/O
                         net (fo=4, routed)           0.425     2.949    N_633
    SLICE_X3Y60                                                       r  O_OBUF[7]_inst_i_14/I2
    SLICE_X3Y60          LUT6 (Prop_lut6_I2_O)        0.043     2.992 r  O_OBUF[7]_inst_i_14/O
                         net (fo=1, routed)           0.419     3.411    N_849
    SLICE_X2Y60                                                       r  O_OBUF[7]_inst_i_12/I3
    SLICE_X2Y60          LUT6 (Prop_lut6_I3_O)        0.043     3.454 r  O_OBUF[7]_inst_i_12/O
                         net (fo=3, routed)           0.508     3.962    N_883
    SLICE_X4Y60                                                       r  O_OBUF[5]_inst_i_5/I3
    SLICE_X4Y60          LUT6 (Prop_lut6_I3_O)        0.043     4.005 r  O_OBUF[5]_inst_i_5/O
                         net (fo=3, routed)           0.588     4.594    N_915
    SLICE_X3Y61                                                       r  O_OBUF[5]_inst_i_2/I4
    SLICE_X3Y61          LUT6 (Prop_lut6_I4_O)        0.043     4.637 r  O_OBUF[5]_inst_i_2/O
                         net (fo=5, routed)           0.385     5.022    N_1099
    SLICE_X1Y61                                                       r  O_OBUF[6]_inst_i_4/I2
    SLICE_X1Y61          LUT4 (Prop_lut4_I2_O)        0.043     5.065 r  O_OBUF[6]_inst_i_4/O
                         net (fo=1, routed)           0.137     5.202    N_1115
    SLICE_X1Y61                                                       r  O_OBUF[6]_inst_i_2/I5
    SLICE_X1Y61          LUT6 (Prop_lut6_I5_O)        0.043     5.245 r  O_OBUF[6]_inst_i_2/O
                         net (fo=1, routed)           0.334     5.579    N_1382
    SLICE_X0Y61                                                       r  O_OBUF[6]_inst_i_1/I2
    SLICE_X0Y61          LUT3 (Prop_lut3_I2_O)        0.051     5.630 r  O_OBUF[6]_inst_i_1/O
                         net (fo=1, routed)           1.181     6.810    O_OBUF[6]
    AK26                                                              r  O_OBUF[6]_inst/I
    AK26                 OBUF (Prop_obuf_I_O)         1.909     8.719 r  O_OBUF[6]_inst/O
                         net (fo=0)                   0.000     8.719    O[6]
    AK26                                                              r  O[6] (OUT)
  -------------------------------------------------------------------    -------------------




