Copyright 1986-2017 Xilinx, Inc. All Rights Reserved.
-----------------------------------------------------------------------------------------------------------------------------------------------------------------------
| Tool Version : Vivado v.2017.1 (win64) Build 1846317 Fri Apr 14 18:55:03 MDT 2017
| Date         : Tue Nov 14 04:29:38 2017
| Host         : cfaed-pdpc003 running 64-bit major release  (build 9200)
| Command      : report_timing -to O -delay_type max -max_paths 10 -sort_by group -input_pins -file C:/Users/sanjeev/Desktop/Reports_EvoLib/tim_302_evolib.txt -name O
| Design       : mul8_302
| Device       : 7vx330t-ffg1157
| Speed File   : -3  PRODUCTION 1.11 2014-09-11
-----------------------------------------------------------------------------------------------------------------------------------------------------------------------

Timing Report

Slack:                    inf
  Source:                 A[6]
                            (input port)
  Destination:            O[14]
                            (output port)
  Path Group:             (none)
  Path Type:              Max at Slow Process Corner
  Data Path Delay:        10.597ns  (logic 3.079ns (29.058%)  route 7.518ns (70.942%))
  Logic Levels:           15  (IBUF=1 LUT4=4 LUT6=9 OBUF=1)

    Location             Delay type                Incr(ns)  Path(ns)    Netlist Resource(s)
  -------------------------------------------------------------------    -------------------
    AM28                                              0.000     0.000 r  A[6] (IN)
                         net (fo=0)                   0.000     0.000    A[6]
    AM28                                                              r  A_IBUF[6]_inst/I
    AM28                 IBUF (Prop_ibuf_I_O)         0.587     0.587 r  A_IBUF[6]_inst/O
                         net (fo=25, routed)          1.243     1.829    A_IBUF[6]
    SLICE_X3Y63                                                       r  O_OBUF[5]_inst_i_12/I0
    SLICE_X3Y63          LUT6 (Prop_lut6_I0_O)        0.043     1.872 r  O_OBUF[5]_inst_i_12/O
                         net (fo=4, routed)           0.398     2.270    N_633
    SLICE_X3Y62                                                       r  O_OBUF[5]_inst_i_18/I2
    SLICE_X3Y62          LUT4 (Prop_lut4_I2_O)        0.053     2.323 r  O_OBUF[5]_inst_i_18/O
                         net (fo=3, routed)           0.416     2.739    N_649
    SLICE_X3Y63                                                       r  O_OBUF[5]_inst_i_17/I0
    SLICE_X3Y63          LUT6 (Prop_lut6_I0_O)        0.131     2.870 f  O_OBUF[5]_inst_i_17/O
                         net (fo=2, routed)           0.419     3.289    N_664
    SLICE_X2Y63                                                       f  O_OBUF[5]_inst_i_9/I5
    SLICE_X2Y63          LUT6 (Prop_lut6_I5_O)        0.043     3.332 f  O_OBUF[5]_inst_i_9/O
                         net (fo=4, routed)           0.239     3.571    N_915
    SLICE_X2Y63                                                       f  O_OBUF[5]_inst_i_3/I3
    SLICE_X2Y63          LUT6 (Prop_lut6_I3_O)        0.043     3.614 r  O_OBUF[5]_inst_i_3/O
                         net (fo=4, routed)           0.498     4.112    N_1098
    SLICE_X1Y63                                                       r  O_OBUF[6]_inst_i_3/I3
    SLICE_X1Y63          LUT6 (Prop_lut6_I3_O)        0.043     4.155 r  O_OBUF[6]_inst_i_3/O
                         net (fo=3, routed)           0.325     4.480    N_1365
    SLICE_X0Y64                                                       r  O_OBUF[8]_inst_i_7/I2
    SLICE_X0Y64          LUT4 (Prop_lut4_I2_O)        0.043     4.523 r  O_OBUF[8]_inst_i_7/O
                         net (fo=5, routed)           0.449     4.972    N_1383
    SLICE_X0Y64                                                       r  O_OBUF[9]_inst_i_5/I1
    SLICE_X0Y64          LUT6 (Prop_lut6_I1_O)        0.043     5.015 r  O_OBUF[9]_inst_i_5/O
                         net (fo=3, routed)           0.620     5.635    N_1414
    SLICE_X1Y65                                                       r  O_OBUF[10]_inst_i_4/I3
    SLICE_X1Y65          LUT4 (Prop_lut4_I3_O)        0.043     5.678 r  O_OBUF[10]_inst_i_4/O
                         net (fo=4, routed)           0.517     6.195    N_1665
    SLICE_X1Y66                                                       r  O_OBUF[10]_inst_i_3/I1
    SLICE_X1Y66          LUT6 (Prop_lut6_I1_O)        0.043     6.238 r  O_OBUF[10]_inst_i_3/O
                         net (fo=2, routed)           0.335     6.573    N_1698
    SLICE_X0Y66                                                       r  O_OBUF[12]_inst_i_2/I3
    SLICE_X0Y66          LUT4 (Prop_lut4_I3_O)        0.043     6.616 r  O_OBUF[12]_inst_i_2/O
                         net (fo=3, routed)           0.356     6.972    N_1949
    SLICE_X0Y66                                                       r  O_OBUF[15]_inst_i_2/I3
    SLICE_X0Y66          LUT6 (Prop_lut6_I3_O)        0.043     7.015 r  O_OBUF[15]_inst_i_2/O
                         net (fo=3, routed)           0.383     7.398    N_1983
    SLICE_X2Y65                                                       r  O_OBUF[14]_inst_i_1/I1
    SLICE_X2Y65          LUT6 (Prop_lut6_I1_O)        0.043     7.441 r  O_OBUF[14]_inst_i_1/O
                         net (fo=1, routed)           1.320     8.761    O_OBUF[14]
    AJ29                                                              r  O_OBUF[14]_inst/I
    AJ29                 OBUF (Prop_obuf_I_O)         1.836    10.597 r  O_OBUF[14]_inst/O
                         net (fo=0)                   0.000    10.597    O[14]
    AJ29                                                              r  O[14] (OUT)
  -------------------------------------------------------------------    -------------------

Slack:                    inf
  Source:                 A[6]
                            (input port)
  Destination:            O[15]
                            (output port)
  Path Group:             (none)
  Path Type:              Max at Slow Process Corner
  Data Path Delay:        10.471ns  (logic 3.095ns (29.559%)  route 7.376ns (70.441%))
  Logic Levels:           15  (IBUF=1 LUT4=4 LUT6=9 OBUF=1)

    Location             Delay type                Incr(ns)  Path(ns)    Netlist Resource(s)
  -------------------------------------------------------------------    -------------------
    AM28                                              0.000     0.000 r  A[6] (IN)
                         net (fo=0)                   0.000     0.000    A[6]
    AM28                                                              r  A_IBUF[6]_inst/I
    AM28                 IBUF (Prop_ibuf_I_O)         0.587     0.587 r  A_IBUF[6]_inst/O
                         net (fo=25, routed)          1.243     1.829    A_IBUF[6]
    SLICE_X3Y63                                                       r  O_OBUF[5]_inst_i_12/I0
    SLICE_X3Y63          LUT6 (Prop_lut6_I0_O)        0.043     1.872 r  O_OBUF[5]_inst_i_12/O
                         net (fo=4, routed)           0.398     2.270    N_633
    SLICE_X3Y62                                                       r  O_OBUF[5]_inst_i_18/I2
    SLICE_X3Y62          LUT4 (Prop_lut4_I2_O)        0.053     2.323 r  O_OBUF[5]_inst_i_18/O
                         net (fo=3, routed)           0.416     2.739    N_649
    SLICE_X3Y63                                                       r  O_OBUF[5]_inst_i_17/I0
    SLICE_X3Y63          LUT6 (Prop_lut6_I0_O)        0.131     2.870 f  O_OBUF[5]_inst_i_17/O
                         net (fo=2, routed)           0.419     3.289    N_664
    SLICE_X2Y63                                                       f  O_OBUF[5]_inst_i_9/I5
    SLICE_X2Y63          LUT6 (Prop_lut6_I5_O)        0.043     3.332 f  O_OBUF[5]_inst_i_9/O
                         net (fo=4, routed)           0.239     3.571    N_915
    SLICE_X2Y63                                                       f  O_OBUF[5]_inst_i_3/I3
    SLICE_X2Y63          LUT6 (Prop_lut6_I3_O)        0.043     3.614 r  O_OBUF[5]_inst_i_3/O
                         net (fo=4, routed)           0.498     4.112    N_1098
    SLICE_X1Y63                                                       r  O_OBUF[6]_inst_i_3/I3
    SLICE_X1Y63          LUT6 (Prop_lut6_I3_O)        0.043     4.155 r  O_OBUF[6]_inst_i_3/O
                         net (fo=3, routed)           0.325     4.480    N_1365
    SLICE_X0Y64                                                       r  O_OBUF[8]_inst_i_7/I2
    SLICE_X0Y64          LUT4 (Prop_lut4_I2_O)        0.043     4.523 r  O_OBUF[8]_inst_i_7/O
                         net (fo=5, routed)           0.449     4.972    N_1383
    SLICE_X0Y64                                                       r  O_OBUF[9]_inst_i_5/I1
    SLICE_X0Y64          LUT6 (Prop_lut6_I1_O)        0.043     5.015 r  O_OBUF[9]_inst_i_5/O
                         net (fo=3, routed)           0.620     5.635    N_1414
    SLICE_X1Y65                                                       r  O_OBUF[10]_inst_i_4/I3
    SLICE_X1Y65          LUT4 (Prop_lut4_I3_O)        0.043     5.678 r  O_OBUF[10]_inst_i_4/O
                         net (fo=4, routed)           0.517     6.195    N_1665
    SLICE_X1Y66                                                       r  O_OBUF[10]_inst_i_3/I1
    SLICE_X1Y66          LUT6 (Prop_lut6_I1_O)        0.043     6.238 r  O_OBUF[10]_inst_i_3/O
                         net (fo=2, routed)           0.335     6.573    N_1698
    SLICE_X0Y66                                                       r  O_OBUF[12]_inst_i_2/I3
    SLICE_X0Y66          LUT4 (Prop_lut4_I3_O)        0.043     6.616 r  O_OBUF[12]_inst_i_2/O
                         net (fo=3, routed)           0.356     6.972    N_1949
    SLICE_X0Y66                                                       r  O_OBUF[15]_inst_i_2/I3
    SLICE_X0Y66          LUT6 (Prop_lut6_I3_O)        0.043     7.015 r  O_OBUF[15]_inst_i_2/O
                         net (fo=3, routed)           0.235     7.250    N_1983
    SLICE_X2Y65                                                       r  O_OBUF[15]_inst_i_1/I3
    SLICE_X2Y65          LUT6 (Prop_lut6_I3_O)        0.043     7.293 r  O_OBUF[15]_inst_i_1/O
                         net (fo=1, routed)           1.326     8.619    O_OBUF[15]
    AN30                                                              r  O_OBUF[15]_inst/I
    AN30                 OBUF (Prop_obuf_I_O)         1.851    10.471 r  O_OBUF[15]_inst/O
                         net (fo=0)                   0.000    10.471    O[15]
    AN30                                                              r  O[15] (OUT)
  -------------------------------------------------------------------    -------------------

Slack:                    inf
  Source:                 A[6]
                            (input port)
  Destination:            O[13]
                            (output port)
  Path Group:             (none)
  Path Type:              Max at Slow Process Corner
  Data Path Delay:        10.372ns  (logic 3.076ns (29.661%)  route 7.295ns (70.339%))
  Logic Levels:           15  (IBUF=1 LUT4=4 LUT6=9 OBUF=1)

    Location             Delay type                Incr(ns)  Path(ns)    Netlist Resource(s)
  -------------------------------------------------------------------    -------------------
    AM28                                              0.000     0.000 r  A[6] (IN)
                         net (fo=0)                   0.000     0.000    A[6]
    AM28                                                              r  A_IBUF[6]_inst/I
    AM28                 IBUF (Prop_ibuf_I_O)         0.587     0.587 r  A_IBUF[6]_inst/O
                         net (fo=25, routed)          1.243     1.829    A_IBUF[6]
    SLICE_X3Y63                                                       r  O_OBUF[5]_inst_i_12/I0
    SLICE_X3Y63          LUT6 (Prop_lut6_I0_O)        0.043     1.872 r  O_OBUF[5]_inst_i_12/O
                         net (fo=4, routed)           0.398     2.270    N_633
    SLICE_X3Y62                                                       r  O_OBUF[5]_inst_i_18/I2
    SLICE_X3Y62          LUT4 (Prop_lut4_I2_O)        0.053     2.323 r  O_OBUF[5]_inst_i_18/O
                         net (fo=3, routed)           0.416     2.739    N_649
    SLICE_X3Y63                                                       r  O_OBUF[5]_inst_i_17/I0
    SLICE_X3Y63          LUT6 (Prop_lut6_I0_O)        0.131     2.870 f  O_OBUF[5]_inst_i_17/O
                         net (fo=2, routed)           0.419     3.289    N_664
    SLICE_X2Y63                                                       f  O_OBUF[5]_inst_i_9/I5
    SLICE_X2Y63          LUT6 (Prop_lut6_I5_O)        0.043     3.332 f  O_OBUF[5]_inst_i_9/O
                         net (fo=4, routed)           0.239     3.571    N_915
    SLICE_X2Y63                                                       f  O_OBUF[5]_inst_i_3/I3
    SLICE_X2Y63          LUT6 (Prop_lut6_I3_O)        0.043     3.614 r  O_OBUF[5]_inst_i_3/O
                         net (fo=4, routed)           0.498     4.112    N_1098
    SLICE_X1Y63                                                       r  O_OBUF[6]_inst_i_3/I3
    SLICE_X1Y63          LUT6 (Prop_lut6_I3_O)        0.043     4.155 r  O_OBUF[6]_inst_i_3/O
                         net (fo=3, routed)           0.325     4.480    N_1365
    SLICE_X0Y64                                                       r  O_OBUF[8]_inst_i_7/I2
    SLICE_X0Y64          LUT4 (Prop_lut4_I2_O)        0.043     4.523 r  O_OBUF[8]_inst_i_7/O
                         net (fo=5, routed)           0.449     4.972    N_1383
    SLICE_X0Y64                                                       r  O_OBUF[9]_inst_i_5/I1
    SLICE_X0Y64          LUT6 (Prop_lut6_I1_O)        0.043     5.015 r  O_OBUF[9]_inst_i_5/O
                         net (fo=3, routed)           0.620     5.635    N_1414
    SLICE_X1Y65                                                       r  O_OBUF[10]_inst_i_4/I3
    SLICE_X1Y65          LUT4 (Prop_lut4_I3_O)        0.043     5.678 r  O_OBUF[10]_inst_i_4/O
                         net (fo=4, routed)           0.311     5.989    N_1665
    SLICE_X2Y65                                                       r  O_OBUF[12]_inst_i_5/I3
    SLICE_X2Y65          LUT6 (Prop_lut6_I3_O)        0.043     6.032 r  O_OBUF[12]_inst_i_5/O
                         net (fo=3, routed)           0.353     6.385    N_1699
    SLICE_X3Y65                                                       r  O_OBUF[15]_inst_i_7/I3
    SLICE_X3Y65          LUT6 (Prop_lut6_I3_O)        0.043     6.428 r  O_OBUF[15]_inst_i_7/O
                         net (fo=2, routed)           0.343     6.771    N_1733
    SLICE_X3Y65                                                       r  O_OBUF[15]_inst_i_3/I4
    SLICE_X3Y65          LUT6 (Prop_lut6_I4_O)        0.043     6.814 r  O_OBUF[15]_inst_i_3/O
                         net (fo=3, routed)           0.407     7.221    N_1748
    SLICE_X2Y66                                                       r  O_OBUF[13]_inst_i_1/I1
    SLICE_X2Y66          LUT4 (Prop_lut4_I1_O)        0.043     7.264 r  O_OBUF[13]_inst_i_1/O
                         net (fo=1, routed)           1.275     8.539    O_OBUF[13]
    AK29                                                              r  O_OBUF[13]_inst/I
    AK29                 OBUF (Prop_obuf_I_O)         1.833    10.372 r  O_OBUF[13]_inst/O
                         net (fo=0)                   0.000    10.372    O[13]
    AK29                                                              r  O[13] (OUT)
  -------------------------------------------------------------------    -------------------

Slack:                    inf
  Source:                 A[6]
                            (input port)
  Destination:            O[11]
                            (output port)
  Path Group:             (none)
  Path Type:              Max at Slow Process Corner
  Data Path Delay:        10.174ns  (logic 3.140ns (30.863%)  route 7.034ns (69.137%))
  Logic Levels:           14  (IBUF=1 LUT4=5 LUT6=7 OBUF=1)

    Location             Delay type                Incr(ns)  Path(ns)    Netlist Resource(s)
  -------------------------------------------------------------------    -------------------
    AM28                                              0.000     0.000 r  A[6] (IN)
                         net (fo=0)                   0.000     0.000    A[6]
    AM28                                                              r  A_IBUF[6]_inst/I
    AM28                 IBUF (Prop_ibuf_I_O)         0.587     0.587 r  A_IBUF[6]_inst/O
                         net (fo=25, routed)          1.243     1.829    A_IBUF[6]
    SLICE_X3Y63                                                       r  O_OBUF[5]_inst_i_12/I0
    SLICE_X3Y63          LUT6 (Prop_lut6_I0_O)        0.043     1.872 r  O_OBUF[5]_inst_i_12/O
                         net (fo=4, routed)           0.398     2.270    N_633
    SLICE_X3Y62                                                       r  O_OBUF[5]_inst_i_18/I2
    SLICE_X3Y62          LUT4 (Prop_lut4_I2_O)        0.053     2.323 r  O_OBUF[5]_inst_i_18/O
                         net (fo=3, routed)           0.416     2.739    N_649
    SLICE_X3Y63                                                       r  O_OBUF[5]_inst_i_17/I0
    SLICE_X3Y63          LUT6 (Prop_lut6_I0_O)        0.131     2.870 f  O_OBUF[5]_inst_i_17/O
                         net (fo=2, routed)           0.419     3.289    N_664
    SLICE_X2Y63                                                       f  O_OBUF[5]_inst_i_9/I5
    SLICE_X2Y63          LUT6 (Prop_lut6_I5_O)        0.043     3.332 f  O_OBUF[5]_inst_i_9/O
                         net (fo=4, routed)           0.239     3.571    N_915
    SLICE_X2Y63                                                       f  O_OBUF[5]_inst_i_3/I3
    SLICE_X2Y63          LUT6 (Prop_lut6_I3_O)        0.043     3.614 r  O_OBUF[5]_inst_i_3/O
                         net (fo=4, routed)           0.498     4.112    N_1098
    SLICE_X1Y63                                                       r  O_OBUF[6]_inst_i_3/I3
    SLICE_X1Y63          LUT6 (Prop_lut6_I3_O)        0.043     4.155 r  O_OBUF[6]_inst_i_3/O
                         net (fo=3, routed)           0.325     4.480    N_1365
    SLICE_X0Y64                                                       r  O_OBUF[8]_inst_i_7/I2
    SLICE_X0Y64          LUT4 (Prop_lut4_I2_O)        0.043     4.523 r  O_OBUF[8]_inst_i_7/O
                         net (fo=5, routed)           0.449     4.972    N_1383
    SLICE_X0Y64                                                       r  O_OBUF[9]_inst_i_5/I1
    SLICE_X0Y64          LUT6 (Prop_lut6_I1_O)        0.043     5.015 r  O_OBUF[9]_inst_i_5/O
                         net (fo=3, routed)           0.620     5.635    N_1414
    SLICE_X1Y65                                                       r  O_OBUF[10]_inst_i_4/I3
    SLICE_X1Y65          LUT4 (Prop_lut4_I3_O)        0.043     5.678 r  O_OBUF[10]_inst_i_4/O
                         net (fo=4, routed)           0.311     5.989    N_1665
    SLICE_X2Y65                                                       r  O_OBUF[12]_inst_i_5/I3
    SLICE_X2Y65          LUT6 (Prop_lut6_I3_O)        0.043     6.032 r  O_OBUF[12]_inst_i_5/O
                         net (fo=3, routed)           0.342     6.374    N_1699
    SLICE_X3Y65                                                       r  O_OBUF[12]_inst_i_3/I0
    SLICE_X3Y65          LUT4 (Prop_lut4_I0_O)        0.043     6.417 r  O_OBUF[12]_inst_i_3/O
                         net (fo=3, routed)           0.496     6.913    N_1714
    SLICE_X0Y66                                                       r  O_OBUF[11]_inst_i_1/I1
    SLICE_X0Y66          LUT4 (Prop_lut4_I1_O)        0.053     6.966 r  O_OBUF[11]_inst_i_1/O
                         net (fo=1, routed)           1.278     8.244    O_OBUF[11]
    AM31                                                              r  O_OBUF[11]_inst/I
    AM31                 OBUF (Prop_obuf_I_O)         1.929    10.174 r  O_OBUF[11]_inst/O
                         net (fo=0)                   0.000    10.174    O[11]
    AM31                                                              r  O[11] (OUT)
  -------------------------------------------------------------------    -------------------

Slack:                    inf
  Source:                 A[6]
                            (input port)
  Destination:            O[12]
                            (output port)
  Path Group:             (none)
  Path Type:              Max at Slow Process Corner
  Data Path Delay:        10.127ns  (logic 3.042ns (30.041%)  route 7.085ns (69.959%))
  Logic Levels:           14  (IBUF=1 LUT4=4 LUT6=8 OBUF=1)

    Location             Delay type                Incr(ns)  Path(ns)    Netlist Resource(s)
  -------------------------------------------------------------------    -------------------
    AM28                                              0.000     0.000 r  A[6] (IN)
                         net (fo=0)                   0.000     0.000    A[6]
    AM28                                                              r  A_IBUF[6]_inst/I
    AM28                 IBUF (Prop_ibuf_I_O)         0.587     0.587 r  A_IBUF[6]_inst/O
                         net (fo=25, routed)          1.243     1.829    A_IBUF[6]
    SLICE_X3Y63                                                       r  O_OBUF[5]_inst_i_12/I0
    SLICE_X3Y63          LUT6 (Prop_lut6_I0_O)        0.043     1.872 r  O_OBUF[5]_inst_i_12/O
                         net (fo=4, routed)           0.398     2.270    N_633
    SLICE_X3Y62                                                       r  O_OBUF[5]_inst_i_18/I2
    SLICE_X3Y62          LUT4 (Prop_lut4_I2_O)        0.053     2.323 r  O_OBUF[5]_inst_i_18/O
                         net (fo=3, routed)           0.416     2.739    N_649
    SLICE_X3Y63                                                       r  O_OBUF[5]_inst_i_17/I0
    SLICE_X3Y63          LUT6 (Prop_lut6_I0_O)        0.131     2.870 f  O_OBUF[5]_inst_i_17/O
                         net (fo=2, routed)           0.419     3.289    N_664
    SLICE_X2Y63                                                       f  O_OBUF[5]_inst_i_9/I5
    SLICE_X2Y63          LUT6 (Prop_lut6_I5_O)        0.043     3.332 f  O_OBUF[5]_inst_i_9/O
                         net (fo=4, routed)           0.239     3.571    N_915
    SLICE_X2Y63                                                       f  O_OBUF[5]_inst_i_3/I3
    SLICE_X2Y63          LUT6 (Prop_lut6_I3_O)        0.043     3.614 r  O_OBUF[5]_inst_i_3/O
                         net (fo=4, routed)           0.498     4.112    N_1098
    SLICE_X1Y63                                                       r  O_OBUF[6]_inst_i_3/I3
    SLICE_X1Y63          LUT6 (Prop_lut6_I3_O)        0.043     4.155 r  O_OBUF[6]_inst_i_3/O
                         net (fo=3, routed)           0.325     4.480    N_1365
    SLICE_X0Y64                                                       r  O_OBUF[8]_inst_i_7/I2
    SLICE_X0Y64          LUT4 (Prop_lut4_I2_O)        0.043     4.523 r  O_OBUF[8]_inst_i_7/O
                         net (fo=5, routed)           0.449     4.972    N_1383
    SLICE_X0Y64                                                       r  O_OBUF[9]_inst_i_5/I1
    SLICE_X0Y64          LUT6 (Prop_lut6_I1_O)        0.043     5.015 r  O_OBUF[9]_inst_i_5/O
                         net (fo=3, routed)           0.620     5.635    N_1414
    SLICE_X1Y65                                                       r  O_OBUF[10]_inst_i_4/I3
    SLICE_X1Y65          LUT4 (Prop_lut4_I3_O)        0.043     5.678 r  O_OBUF[10]_inst_i_4/O
                         net (fo=4, routed)           0.517     6.195    N_1665
    SLICE_X1Y66                                                       r  O_OBUF[10]_inst_i_3/I1
    SLICE_X1Y66          LUT6 (Prop_lut6_I1_O)        0.043     6.238 r  O_OBUF[10]_inst_i_3/O
                         net (fo=2, routed)           0.335     6.573    N_1698
    SLICE_X0Y66                                                       r  O_OBUF[12]_inst_i_2/I3
    SLICE_X0Y66          LUT4 (Prop_lut4_I3_O)        0.043     6.616 r  O_OBUF[12]_inst_i_2/O
                         net (fo=3, routed)           0.355     6.971    N_1949
    SLICE_X0Y66                                                       r  O_OBUF[12]_inst_i_1/I2
    SLICE_X0Y66          LUT6 (Prop_lut6_I2_O)        0.043     7.014 r  O_OBUF[12]_inst_i_1/O
                         net (fo=1, routed)           1.271     8.285    O_OBUF[12]
    AL31                                                              r  O_OBUF[12]_inst/I
    AL31                 OBUF (Prop_obuf_I_O)         1.842    10.127 r  O_OBUF[12]_inst/O
                         net (fo=0)                   0.000    10.127    O[12]
    AL31                                                              r  O[12] (OUT)
  -------------------------------------------------------------------    -------------------

Slack:                    inf
  Source:                 A[6]
                            (input port)
  Destination:            O[10]
                            (output port)
  Path Group:             (none)
  Path Type:              Max at Slow Process Corner
  Data Path Delay:        9.826ns  (logic 3.080ns (31.345%)  route 6.746ns (68.655%))
  Logic Levels:           13  (IBUF=1 LUT4=4 LUT6=7 OBUF=1)

    Location             Delay type                Incr(ns)  Path(ns)    Netlist Resource(s)
  -------------------------------------------------------------------    -------------------
    AM28                                              0.000     0.000 r  A[6] (IN)
                         net (fo=0)                   0.000     0.000    A[6]
    AM28                                                              r  A_IBUF[6]_inst/I
    AM28                 IBUF (Prop_ibuf_I_O)         0.587     0.587 r  A_IBUF[6]_inst/O
                         net (fo=25, routed)          1.243     1.829    A_IBUF[6]
    SLICE_X3Y63                                                       r  O_OBUF[5]_inst_i_12/I0
    SLICE_X3Y63          LUT6 (Prop_lut6_I0_O)        0.043     1.872 r  O_OBUF[5]_inst_i_12/O
                         net (fo=4, routed)           0.398     2.270    N_633
    SLICE_X3Y62                                                       r  O_OBUF[5]_inst_i_18/I2
    SLICE_X3Y62          LUT4 (Prop_lut4_I2_O)        0.053     2.323 r  O_OBUF[5]_inst_i_18/O
                         net (fo=3, routed)           0.416     2.739    N_649
    SLICE_X3Y63                                                       r  O_OBUF[5]_inst_i_17/I0
    SLICE_X3Y63          LUT6 (Prop_lut6_I0_O)        0.131     2.870 f  O_OBUF[5]_inst_i_17/O
                         net (fo=2, routed)           0.419     3.289    N_664
    SLICE_X2Y63                                                       f  O_OBUF[5]_inst_i_9/I5
    SLICE_X2Y63          LUT6 (Prop_lut6_I5_O)        0.043     3.332 f  O_OBUF[5]_inst_i_9/O
                         net (fo=4, routed)           0.239     3.571    N_915
    SLICE_X2Y63                                                       f  O_OBUF[5]_inst_i_3/I3
    SLICE_X2Y63          LUT6 (Prop_lut6_I3_O)        0.043     3.614 r  O_OBUF[5]_inst_i_3/O
                         net (fo=4, routed)           0.498     4.112    N_1098
    SLICE_X1Y63                                                       r  O_OBUF[6]_inst_i_3/I3
    SLICE_X1Y63          LUT6 (Prop_lut6_I3_O)        0.043     4.155 r  O_OBUF[6]_inst_i_3/O
                         net (fo=3, routed)           0.325     4.480    N_1365
    SLICE_X0Y64                                                       r  O_OBUF[8]_inst_i_7/I2
    SLICE_X0Y64          LUT4 (Prop_lut4_I2_O)        0.043     4.523 r  O_OBUF[8]_inst_i_7/O
                         net (fo=5, routed)           0.449     4.972    N_1383
    SLICE_X0Y64                                                       r  O_OBUF[9]_inst_i_5/I1
    SLICE_X0Y64          LUT6 (Prop_lut6_I1_O)        0.043     5.015 r  O_OBUF[9]_inst_i_5/O
                         net (fo=3, routed)           0.620     5.635    N_1414
    SLICE_X1Y65                                                       r  O_OBUF[10]_inst_i_4/I3
    SLICE_X1Y65          LUT4 (Prop_lut4_I3_O)        0.043     5.678 r  O_OBUF[10]_inst_i_4/O
                         net (fo=4, routed)           0.517     6.195    N_1665
    SLICE_X1Y66                                                       r  O_OBUF[10]_inst_i_3/I1
    SLICE_X1Y66          LUT6 (Prop_lut6_I1_O)        0.043     6.238 r  O_OBUF[10]_inst_i_3/O
                         net (fo=2, routed)           0.335     6.573    N_1698
    SLICE_X0Y66                                                       r  O_OBUF[10]_inst_i_1/I1
    SLICE_X0Y66          LUT4 (Prop_lut4_I1_O)        0.049     6.622 r  O_OBUF[10]_inst_i_1/O
                         net (fo=1, routed)           1.287     7.909    O_OBUF[10]
    AL29                                                              r  O_OBUF[10]_inst/I
    AL29                 OBUF (Prop_obuf_I_O)         1.916     9.826 r  O_OBUF[10]_inst/O
                         net (fo=0)                   0.000     9.826    O[10]
    AL29                                                              r  O[10] (OUT)
  -------------------------------------------------------------------    -------------------

Slack:                    inf
  Source:                 A[6]
                            (input port)
  Destination:            O[9]
                            (output port)
  Path Group:             (none)
  Path Type:              Max at Slow Process Corner
  Data Path Delay:        9.558ns  (logic 2.989ns (31.273%)  route 6.569ns (68.727%))
  Logic Levels:           13  (IBUF=1 LUT4=5 LUT6=6 OBUF=1)

    Location             Delay type                Incr(ns)  Path(ns)    Netlist Resource(s)
  -------------------------------------------------------------------    -------------------
    AM28                                              0.000     0.000 r  A[6] (IN)
                         net (fo=0)                   0.000     0.000    A[6]
    AM28                                                              r  A_IBUF[6]_inst/I
    AM28                 IBUF (Prop_ibuf_I_O)         0.587     0.587 r  A_IBUF[6]_inst/O
                         net (fo=25, routed)          1.243     1.829    A_IBUF[6]
    SLICE_X3Y63                                                       r  O_OBUF[5]_inst_i_12/I0
    SLICE_X3Y63          LUT6 (Prop_lut6_I0_O)        0.043     1.872 r  O_OBUF[5]_inst_i_12/O
                         net (fo=4, routed)           0.398     2.270    N_633
    SLICE_X3Y62                                                       r  O_OBUF[5]_inst_i_18/I2
    SLICE_X3Y62          LUT4 (Prop_lut4_I2_O)        0.053     2.323 r  O_OBUF[5]_inst_i_18/O
                         net (fo=3, routed)           0.416     2.739    N_649
    SLICE_X3Y63                                                       r  O_OBUF[5]_inst_i_17/I0
    SLICE_X3Y63          LUT6 (Prop_lut6_I0_O)        0.131     2.870 f  O_OBUF[5]_inst_i_17/O
                         net (fo=2, routed)           0.419     3.289    N_664
    SLICE_X2Y63                                                       f  O_OBUF[5]_inst_i_9/I5
    SLICE_X2Y63          LUT6 (Prop_lut6_I5_O)        0.043     3.332 f  O_OBUF[5]_inst_i_9/O
                         net (fo=4, routed)           0.239     3.571    N_915
    SLICE_X2Y63                                                       f  O_OBUF[5]_inst_i_3/I3
    SLICE_X2Y63          LUT6 (Prop_lut6_I3_O)        0.043     3.614 r  O_OBUF[5]_inst_i_3/O
                         net (fo=4, routed)           0.498     4.112    N_1098
    SLICE_X1Y63                                                       r  O_OBUF[6]_inst_i_3/I3
    SLICE_X1Y63          LUT6 (Prop_lut6_I3_O)        0.043     4.155 r  O_OBUF[6]_inst_i_3/O
                         net (fo=3, routed)           0.325     4.480    N_1365
    SLICE_X0Y64                                                       r  O_OBUF[8]_inst_i_7/I2
    SLICE_X0Y64          LUT4 (Prop_lut4_I2_O)        0.043     4.523 r  O_OBUF[8]_inst_i_7/O
                         net (fo=5, routed)           0.449     4.972    N_1383
    SLICE_X0Y64                                                       r  O_OBUF[9]_inst_i_5/I1
    SLICE_X0Y64          LUT6 (Prop_lut6_I1_O)        0.043     5.015 r  O_OBUF[9]_inst_i_5/O
                         net (fo=3, routed)           0.620     5.635    N_1414
    SLICE_X1Y65                                                       r  O_OBUF[10]_inst_i_4/I3
    SLICE_X1Y65          LUT4 (Prop_lut4_I3_O)        0.043     5.678 r  O_OBUF[10]_inst_i_4/O
                         net (fo=4, routed)           0.428     6.107    N_1665
    SLICE_X1Y66                                                       r  O_OBUF[9]_inst_i_3/I0
    SLICE_X1Y66          LUT4 (Prop_lut4_I0_O)        0.043     6.150 r  O_OBUF[9]_inst_i_3/O
                         net (fo=1, routed)           0.338     6.487    N_1682
    SLICE_X1Y66                                                       r  O_OBUF[9]_inst_i_1/I1
    SLICE_X1Y66          LUT4 (Prop_lut4_I1_O)        0.043     6.530 r  O_OBUF[9]_inst_i_1/O
                         net (fo=1, routed)           1.196     7.727    O_OBUF[9]
    AL30                                                              r  O_OBUF[9]_inst/I
    AL30                 OBUF (Prop_obuf_I_O)         1.831     9.558 r  O_OBUF[9]_inst/O
                         net (fo=0)                   0.000     9.558    O[9]
    AL30                                                              r  O[9] (OUT)
  -------------------------------------------------------------------    -------------------

Slack:                    inf
  Source:                 A[6]
                            (input port)
  Destination:            O[8]
                            (output port)
  Path Group:             (none)
  Path Type:              Max at Slow Process Corner
  Data Path Delay:        9.150ns  (logic 3.025ns (33.064%)  route 6.125ns (66.936%))
  Logic Levels:           12  (IBUF=1 LUT4=4 LUT6=6 OBUF=1)

    Location             Delay type                Incr(ns)  Path(ns)    Netlist Resource(s)
  -------------------------------------------------------------------    -------------------
    AM28                                              0.000     0.000 r  A[6] (IN)
                         net (fo=0)                   0.000     0.000    A[6]
    AM28                                                              r  A_IBUF[6]_inst/I
    AM28                 IBUF (Prop_ibuf_I_O)         0.587     0.587 r  A_IBUF[6]_inst/O
                         net (fo=25, routed)          1.243     1.829    A_IBUF[6]
    SLICE_X3Y63                                                       r  O_OBUF[5]_inst_i_12/I0
    SLICE_X3Y63          LUT6 (Prop_lut6_I0_O)        0.043     1.872 r  O_OBUF[5]_inst_i_12/O
                         net (fo=4, routed)           0.398     2.270    N_633
    SLICE_X3Y62                                                       r  O_OBUF[5]_inst_i_18/I2
    SLICE_X3Y62          LUT4 (Prop_lut4_I2_O)        0.053     2.323 r  O_OBUF[5]_inst_i_18/O
                         net (fo=3, routed)           0.416     2.739    N_649
    SLICE_X3Y63                                                       r  O_OBUF[5]_inst_i_17/I0
    SLICE_X3Y63          LUT6 (Prop_lut6_I0_O)        0.131     2.870 f  O_OBUF[5]_inst_i_17/O
                         net (fo=2, routed)           0.419     3.289    N_664
    SLICE_X2Y63                                                       f  O_OBUF[5]_inst_i_9/I5
    SLICE_X2Y63          LUT6 (Prop_lut6_I5_O)        0.043     3.332 f  O_OBUF[5]_inst_i_9/O
                         net (fo=4, routed)           0.239     3.571    N_915
    SLICE_X2Y63                                                       f  O_OBUF[5]_inst_i_3/I3
    SLICE_X2Y63          LUT6 (Prop_lut6_I3_O)        0.043     3.614 r  O_OBUF[5]_inst_i_3/O
                         net (fo=4, routed)           0.498     4.112    N_1098
    SLICE_X1Y63                                                       r  O_OBUF[6]_inst_i_3/I3
    SLICE_X1Y63          LUT6 (Prop_lut6_I3_O)        0.043     4.155 r  O_OBUF[6]_inst_i_3/O
                         net (fo=3, routed)           0.325     4.480    N_1365
    SLICE_X0Y64                                                       r  O_OBUF[8]_inst_i_7/I2
    SLICE_X0Y64          LUT4 (Prop_lut4_I2_O)        0.043     4.523 r  O_OBUF[8]_inst_i_7/O
                         net (fo=5, routed)           0.449     4.972    N_1383
    SLICE_X0Y64                                                       r  O_OBUF[9]_inst_i_5/I1
    SLICE_X0Y64          LUT6 (Prop_lut6_I1_O)        0.043     5.015 r  O_OBUF[9]_inst_i_5/O
                         net (fo=3, routed)           0.620     5.635    N_1414
    SLICE_X1Y65                                                       r  O_OBUF[8]_inst_i_3/I1
    SLICE_X1Y65          LUT4 (Prop_lut4_I1_O)        0.049     5.684 r  O_OBUF[8]_inst_i_3/O
                         net (fo=1, routed)           0.220     5.904    N_1664
    SLICE_X1Y65                                                       r  O_OBUF[8]_inst_i_1/I1
    SLICE_X1Y65          LUT4 (Prop_lut4_I1_O)        0.129     6.033 r  O_OBUF[8]_inst_i_1/O
                         net (fo=1, routed)           1.298     7.331    O_OBUF[8]
    AK28                                                              r  O_OBUF[8]_inst/I
    AK28                 OBUF (Prop_obuf_I_O)         1.819     9.150 r  O_OBUF[8]_inst/O
                         net (fo=0)                   0.000     9.150    O[8]
    AK28                                                              r  O[8] (OUT)
  -------------------------------------------------------------------    -------------------

Slack:                    inf
  Source:                 A[6]
                            (input port)
  Destination:            O[0]
                            (output port)
  Path Group:             (none)
  Path Type:              Max at Slow Process Corner
  Data Path Delay:        8.857ns  (logic 3.097ns (34.965%)  route 5.760ns (65.035%))
  Logic Levels:           12  (IBUF=1 LUT4=3 LUT5=1 LUT6=6 OBUF=1)

    Location             Delay type                Incr(ns)  Path(ns)    Netlist Resource(s)
  -------------------------------------------------------------------    -------------------
    AM28                                              0.000     0.000 r  A[6] (IN)
                         net (fo=0)                   0.000     0.000    A[6]
    AM28                                                              r  A_IBUF[6]_inst/I
    AM28                 IBUF (Prop_ibuf_I_O)         0.587     0.587 r  A_IBUF[6]_inst/O
                         net (fo=25, routed)          1.243     1.829    A_IBUF[6]
    SLICE_X3Y63                                                       r  O_OBUF[5]_inst_i_12/I0
    SLICE_X3Y63          LUT6 (Prop_lut6_I0_O)        0.043     1.872 r  O_OBUF[5]_inst_i_12/O
                         net (fo=4, routed)           0.398     2.270    N_633
    SLICE_X3Y62                                                       r  O_OBUF[5]_inst_i_18/I2
    SLICE_X3Y62          LUT4 (Prop_lut4_I2_O)        0.053     2.323 r  O_OBUF[5]_inst_i_18/O
                         net (fo=3, routed)           0.416     2.739    N_649
    SLICE_X3Y63                                                       r  O_OBUF[5]_inst_i_17/I0
    SLICE_X3Y63          LUT6 (Prop_lut6_I0_O)        0.131     2.870 f  O_OBUF[5]_inst_i_17/O
                         net (fo=2, routed)           0.419     3.289    N_664
    SLICE_X2Y63                                                       f  O_OBUF[5]_inst_i_9/I5
    SLICE_X2Y63          LUT6 (Prop_lut6_I5_O)        0.043     3.332 f  O_OBUF[5]_inst_i_9/O
                         net (fo=4, routed)           0.239     3.571    N_915
    SLICE_X2Y63                                                       f  O_OBUF[5]_inst_i_3/I3
    SLICE_X2Y63          LUT6 (Prop_lut6_I3_O)        0.043     3.614 r  O_OBUF[5]_inst_i_3/O
                         net (fo=4, routed)           0.467     4.081    N_1098
    SLICE_X1Y62                                                       r  O_OBUF[8]_inst_i_9/I3
    SLICE_X1Y62          LUT6 (Prop_lut6_I3_O)        0.043     4.124 r  O_OBUF[8]_inst_i_9/O
                         net (fo=3, routed)           0.175     4.299    N_1133
    SLICE_X0Y63                                                       r  O_OBUF[0]_inst_i_5/I3
    SLICE_X0Y63          LUT6 (Prop_lut6_I3_O)        0.043     4.342 r  O_OBUF[0]_inst_i_5/O
                         net (fo=3, routed)           0.609     4.951    N_1165
    SLICE_X0Y64                                                       r  O_OBUF[0]_inst_i_4/I0
    SLICE_X0Y64          LUT4 (Prop_lut4_I0_O)        0.051     5.002 r  O_OBUF[0]_inst_i_4/O
                         net (fo=4, routed)           0.329     5.331    N_1182
    SLICE_X1Y64                                                       r  O_OBUF[0]_inst_i_2/I3
    SLICE_X1Y64          LUT4 (Prop_lut4_I3_O)        0.129     5.460 r  O_OBUF[0]_inst_i_2/O
                         net (fo=1, routed)           0.410     5.870    N_1433
    SLICE_X3Y63                                                       r  O_OBUF[0]_inst_i_1/I0
    SLICE_X3Y63          LUT5 (Prop_lut5_I0_O)        0.048     5.918 r  O_OBUF[0]_inst_i_1/O
                         net (fo=1, routed)           1.055     6.974    O_OBUF[0]
    AH24                                                              r  O_OBUF[0]_inst/I
    AH24                 OBUF (Prop_obuf_I_O)         1.883     8.857 r  O_OBUF[0]_inst/O
                         net (fo=0)                   0.000     8.857    O[0]
    AH24                                                              r  O[0] (OUT)
  -------------------------------------------------------------------    -------------------

Slack:                    inf
  Source:                 A[6]
                            (input port)
  Destination:            O[7]
                            (output port)
  Path Group:             (none)
  Path Type:              Max at Slow Process Corner
  Data Path Delay:        8.384ns  (logic 2.888ns (34.448%)  route 5.496ns (65.552%))
  Logic Levels:           11  (IBUF=1 LUT4=3 LUT6=6 OBUF=1)

    Location             Delay type                Incr(ns)  Path(ns)    Netlist Resource(s)
  -------------------------------------------------------------------    -------------------
    AM28                                              0.000     0.000 r  A[6] (IN)
                         net (fo=0)                   0.000     0.000    A[6]
    AM28                                                              r  A_IBUF[6]_inst/I
    AM28                 IBUF (Prop_ibuf_I_O)         0.587     0.587 r  A_IBUF[6]_inst/O
                         net (fo=25, routed)          1.243     1.829    A_IBUF[6]
    SLICE_X3Y63                                                       r  O_OBUF[5]_inst_i_12/I0
    SLICE_X3Y63          LUT6 (Prop_lut6_I0_O)        0.043     1.872 r  O_OBUF[5]_inst_i_12/O
                         net (fo=4, routed)           0.398     2.270    N_633
    SLICE_X3Y62                                                       r  O_OBUF[5]_inst_i_18/I2
    SLICE_X3Y62          LUT4 (Prop_lut4_I2_O)        0.053     2.323 r  O_OBUF[5]_inst_i_18/O
                         net (fo=3, routed)           0.416     2.739    N_649
    SLICE_X3Y63                                                       r  O_OBUF[5]_inst_i_17/I0
    SLICE_X3Y63          LUT6 (Prop_lut6_I0_O)        0.131     2.870 f  O_OBUF[5]_inst_i_17/O
                         net (fo=2, routed)           0.419     3.289    N_664
    SLICE_X2Y63                                                       f  O_OBUF[5]_inst_i_9/I5
    SLICE_X2Y63          LUT6 (Prop_lut6_I5_O)        0.043     3.332 f  O_OBUF[5]_inst_i_9/O
                         net (fo=4, routed)           0.239     3.571    N_915
    SLICE_X2Y63                                                       f  O_OBUF[5]_inst_i_3/I3
    SLICE_X2Y63          LUT6 (Prop_lut6_I3_O)        0.043     3.614 r  O_OBUF[5]_inst_i_3/O
                         net (fo=4, routed)           0.498     4.112    N_1098
    SLICE_X1Y63                                                       r  O_OBUF[6]_inst_i_3/I3
    SLICE_X1Y63          LUT6 (Prop_lut6_I3_O)        0.043     4.155 r  O_OBUF[6]_inst_i_3/O
                         net (fo=3, routed)           0.325     4.480    N_1365
    SLICE_X0Y64                                                       r  O_OBUF[8]_inst_i_7/I2
    SLICE_X0Y64          LUT4 (Prop_lut4_I2_O)        0.043     4.523 r  O_OBUF[8]_inst_i_7/O
                         net (fo=5, routed)           0.421     4.944    N_1383
    SLICE_X0Y65                                                       r  O_OBUF[7]_inst_i_2/I0
    SLICE_X0Y65          LUT4 (Prop_lut4_I0_O)        0.043     4.987 r  O_OBUF[7]_inst_i_2/O
                         net (fo=1, routed)           0.341     5.327    N_1398
    SLICE_X0Y65                                                       r  O_OBUF[7]_inst_i_1/I4
    SLICE_X0Y65          LUT6 (Prop_lut6_I4_O)        0.043     5.370 r  O_OBUF[7]_inst_i_1/O
                         net (fo=1, routed)           1.197     6.567    O_OBUF[7]
    AL28                                                              r  O_OBUF[7]_inst/I
    AL28                 OBUF (Prop_obuf_I_O)         1.816     8.384 r  O_OBUF[7]_inst/O
                         net (fo=0)                   0.000     8.384    O[7]
    AL28                                                              r  O[7] (OUT)
  -------------------------------------------------------------------    -------------------




