Copyright 1986-2017 Xilinx, Inc. All Rights Reserved.
-----------------------------------------------------------------------------------------------------------------------------------------------------------------------
| Tool Version : Vivado v.2017.1 (win64) Build 1846317 Fri Apr 14 18:55:03 MDT 2017
| Date         : Mon Nov 13 19:08:34 2017
| Host         : cfaed-pdpc003 running 64-bit major release  (build 9200)
| Command      : report_timing -to O -delay_type max -max_paths 10 -sort_by group -input_pins -file C:/Users/sanjeev/Desktop/Reports_EvoLib/tim_111_evolib.txt -name O
| Design       : mul8_111
| Device       : 7vx330t-ffg1157
| Speed File   : -3  PRODUCTION 1.11 2014-09-11
-----------------------------------------------------------------------------------------------------------------------------------------------------------------------

Timing Report

Slack:                    inf
  Source:                 A[3]
                            (input port)
  Destination:            O[13]
                            (output port)
  Path Group:             (none)
  Path Type:              Max at Slow Process Corner
  Data Path Delay:        10.508ns  (logic 3.211ns (30.557%)  route 7.297ns (69.443%))
  Logic Levels:           16  (IBUF=1 LUT4=5 LUT6=9 OBUF=1)

    Location             Delay type                Incr(ns)  Path(ns)    Netlist Resource(s)
  -------------------------------------------------------------------    -------------------
    AP26                                              0.000     0.000 r  A[3] (IN)
                         net (fo=0)                   0.000     0.000    A[3]
    AP26                                                              r  A_IBUF[3]_inst/I
    AP26                 IBUF (Prop_ibuf_I_O)         0.594     0.594 r  A_IBUF[3]_inst/O
                         net (fo=18, routed)          0.873     1.467    A_IBUF[3]
    SLICE_X0Y60                                                       r  O_OBUF[4]_inst_i_7/I2
    SLICE_X0Y60          LUT4 (Prop_lut4_I2_O)        0.043     1.510 r  O_OBUF[4]_inst_i_7/O
                         net (fo=1, routed)           0.334     1.844    N_598
    SLICE_X1Y60                                                       r  O_OBUF[4]_inst_i_4/I3
    SLICE_X1Y60          LUT6 (Prop_lut6_I3_O)        0.043     1.887 r  O_OBUF[4]_inst_i_4/O
                         net (fo=4, routed)           0.490     2.377    N_633
    SLICE_X2Y61                                                       r  O_OBUF[7]_inst_i_14/I2
    SLICE_X2Y61          LUT6 (Prop_lut6_I2_O)        0.043     2.420 r  O_OBUF[7]_inst_i_14/O
                         net (fo=1, routed)           0.337     2.757    N_849
    SLICE_X3Y61                                                       r  O_OBUF[7]_inst_i_12/I3
    SLICE_X3Y61          LUT6 (Prop_lut6_I3_O)        0.043     2.800 r  O_OBUF[7]_inst_i_12/O
                         net (fo=3, routed)           0.428     3.228    N_883
    SLICE_X2Y61                                                       r  O_OBUF[5]_inst_i_5/I3
    SLICE_X2Y61          LUT6 (Prop_lut6_I3_O)        0.043     3.271 r  O_OBUF[5]_inst_i_5/O
                         net (fo=3, routed)           0.322     3.593    N_915
    SLICE_X3Y61                                                       r  O_OBUF[5]_inst_i_2/I4
    SLICE_X3Y61          LUT6 (Prop_lut6_I4_O)        0.043     3.636 r  O_OBUF[5]_inst_i_2/O
                         net (fo=5, routed)           0.170     3.806    N_1099
    SLICE_X0Y61                                                       r  O_OBUF[7]_inst_i_5/I3
    SLICE_X0Y61          LUT6 (Prop_lut6_I3_O)        0.043     3.849 r  O_OBUF[7]_inst_i_5/O
                         net (fo=4, routed)           0.354     4.203    N_1133
    SLICE_X1Y61                                                       r  O_OBUF[15]_inst_i_12/I3
    SLICE_X1Y61          LUT6 (Prop_lut6_I3_O)        0.043     4.246 r  O_OBUF[15]_inst_i_12/O
                         net (fo=3, routed)           0.535     4.782    N_1165
    SLICE_X2Y62                                                       r  O_OBUF[10]_inst_i_9/I0
    SLICE_X2Y62          LUT4 (Prop_lut4_I0_O)        0.043     4.825 r  O_OBUF[10]_inst_i_9/O
                         net (fo=3, routed)           0.518     5.343    N_1182
    SLICE_X2Y64                                                       r  O_OBUF[15]_inst_i_8/I4
    SLICE_X2Y64          LUT6 (Prop_lut6_I4_O)        0.043     5.386 r  O_OBUF[15]_inst_i_8/O
                         net (fo=3, routed)           0.415     5.801    N_1449
    SLICE_X3Y63                                                       r  O_OBUF[12]_inst_i_6/I0
    SLICE_X3Y63          LUT4 (Prop_lut4_I0_O)        0.048     5.849 r  O_OBUF[12]_inst_i_6/O
                         net (fo=3, routed)           0.428     6.277    N_1464
    SLICE_X1Y63                                                       r  O_OBUF[12]_inst_i_3/I1
    SLICE_X1Y63          LUT4 (Prop_lut4_I1_O)        0.134     6.411 r  O_OBUF[12]_inst_i_3/O
                         net (fo=3, routed)           0.220     6.631    N_1714
    SLICE_X1Y63                                                       r  O_OBUF[15]_inst_i_2/I4
    SLICE_X1Y63          LUT6 (Prop_lut6_I4_O)        0.129     6.760 r  O_OBUF[15]_inst_i_2/O
                         net (fo=3, routed)           0.444     7.204    N_1983
    SLICE_X1Y63                                                       r  O_OBUF[13]_inst_i_1/I0
    SLICE_X1Y63          LUT4 (Prop_lut4_I0_O)        0.043     7.247 r  O_OBUF[13]_inst_i_1/O
                         net (fo=1, routed)           1.428     8.675    O_OBUF[13]
    AK29                                                              r  O_OBUF[13]_inst/I
    AK29                 OBUF (Prop_obuf_I_O)         1.833    10.508 r  O_OBUF[13]_inst/O
                         net (fo=0)                   0.000    10.508    O[13]
    AK29                                                              r  O[13] (OUT)
  -------------------------------------------------------------------    -------------------

Slack:                    inf
  Source:                 A[3]
                            (input port)
  Destination:            O[14]
                            (output port)
  Path Group:             (none)
  Path Type:              Max at Slow Process Corner
  Data Path Delay:        10.367ns  (logic 3.032ns (29.246%)  route 7.335ns (70.754%))
  Logic Levels:           16  (IBUF=1 LUT4=2 LUT6=12 OBUF=1)

    Location             Delay type                Incr(ns)  Path(ns)    Netlist Resource(s)
  -------------------------------------------------------------------    -------------------
    AP26                                              0.000     0.000 r  A[3] (IN)
                         net (fo=0)                   0.000     0.000    A[3]
    AP26                                                              r  A_IBUF[3]_inst/I
    AP26                 IBUF (Prop_ibuf_I_O)         0.594     0.594 r  A_IBUF[3]_inst/O
                         net (fo=18, routed)          0.873     1.467    A_IBUF[3]
    SLICE_X0Y60                                                       r  O_OBUF[4]_inst_i_7/I2
    SLICE_X0Y60          LUT4 (Prop_lut4_I2_O)        0.043     1.510 r  O_OBUF[4]_inst_i_7/O
                         net (fo=1, routed)           0.334     1.844    N_598
    SLICE_X1Y60                                                       r  O_OBUF[4]_inst_i_4/I3
    SLICE_X1Y60          LUT6 (Prop_lut6_I3_O)        0.043     1.887 r  O_OBUF[4]_inst_i_4/O
                         net (fo=4, routed)           0.490     2.377    N_633
    SLICE_X2Y61                                                       r  O_OBUF[7]_inst_i_14/I2
    SLICE_X2Y61          LUT6 (Prop_lut6_I2_O)        0.043     2.420 r  O_OBUF[7]_inst_i_14/O
                         net (fo=1, routed)           0.337     2.757    N_849
    SLICE_X3Y61                                                       r  O_OBUF[7]_inst_i_12/I3
    SLICE_X3Y61          LUT6 (Prop_lut6_I3_O)        0.043     2.800 r  O_OBUF[7]_inst_i_12/O
                         net (fo=3, routed)           0.428     3.228    N_883
    SLICE_X2Y61                                                       r  O_OBUF[5]_inst_i_5/I3
    SLICE_X2Y61          LUT6 (Prop_lut6_I3_O)        0.043     3.271 r  O_OBUF[5]_inst_i_5/O
                         net (fo=3, routed)           0.322     3.593    N_915
    SLICE_X3Y61                                                       r  O_OBUF[5]_inst_i_2/I4
    SLICE_X3Y61          LUT6 (Prop_lut6_I4_O)        0.043     3.636 r  O_OBUF[5]_inst_i_2/O
                         net (fo=5, routed)           0.170     3.806    N_1099
    SLICE_X0Y61                                                       r  O_OBUF[7]_inst_i_5/I3
    SLICE_X0Y61          LUT6 (Prop_lut6_I3_O)        0.043     3.849 r  O_OBUF[7]_inst_i_5/O
                         net (fo=4, routed)           0.354     4.203    N_1133
    SLICE_X1Y61                                                       r  O_OBUF[15]_inst_i_12/I3
    SLICE_X1Y61          LUT6 (Prop_lut6_I3_O)        0.043     4.246 r  O_OBUF[15]_inst_i_12/O
                         net (fo=3, routed)           0.535     4.782    N_1165
    SLICE_X2Y62                                                       r  O_OBUF[10]_inst_i_9/I0
    SLICE_X2Y62          LUT4 (Prop_lut4_I0_O)        0.043     4.825 r  O_OBUF[10]_inst_i_9/O
                         net (fo=3, routed)           0.518     5.343    N_1182
    SLICE_X2Y64                                                       r  O_OBUF[15]_inst_i_8/I4
    SLICE_X2Y64          LUT6 (Prop_lut6_I4_O)        0.043     5.386 r  O_OBUF[15]_inst_i_8/O
                         net (fo=3, routed)           0.428     5.814    N_1449
    SLICE_X2Y63                                                       r  O_OBUF[12]_inst_i_7/I1
    SLICE_X2Y63          LUT6 (Prop_lut6_I1_O)        0.043     5.857 r  O_OBUF[12]_inst_i_7/O
                         net (fo=2, routed)           0.345     6.202    N_1482
    SLICE_X3Y63                                                       r  O_OBUF[15]_inst_i_7/I5
    SLICE_X3Y63          LUT6 (Prop_lut6_I5_O)        0.043     6.245 r  O_OBUF[15]_inst_i_7/O
                         net (fo=2, routed)           0.358     6.603    N_1733
    SLICE_X2Y63                                                       r  O_OBUF[15]_inst_i_4/I5
    SLICE_X2Y63          LUT6 (Prop_lut6_I5_O)        0.043     6.646 r  O_OBUF[15]_inst_i_4/O
                         net (fo=2, routed)           0.511     7.157    N_1749
    SLICE_X0Y63                                                       r  O_OBUF[14]_inst_i_1/I3
    SLICE_X0Y63          LUT6 (Prop_lut6_I3_O)        0.043     7.200 r  O_OBUF[14]_inst_i_1/O
                         net (fo=1, routed)           1.331     8.531    O_OBUF[14]
    AJ29                                                              r  O_OBUF[14]_inst/I
    AJ29                 OBUF (Prop_obuf_I_O)         1.836    10.367 r  O_OBUF[14]_inst/O
                         net (fo=0)                   0.000    10.367    O[14]
    AJ29                                                              r  O[14] (OUT)
  -------------------------------------------------------------------    -------------------

Slack:                    inf
  Source:                 A[3]
                            (input port)
  Destination:            O[15]
                            (output port)
  Path Group:             (none)
  Path Type:              Max at Slow Process Corner
  Data Path Delay:        10.289ns  (logic 3.047ns (29.620%)  route 7.241ns (70.380%))
  Logic Levels:           16  (IBUF=1 LUT4=2 LUT6=12 OBUF=1)

    Location             Delay type                Incr(ns)  Path(ns)    Netlist Resource(s)
  -------------------------------------------------------------------    -------------------
    AP26                                              0.000     0.000 r  A[3] (IN)
                         net (fo=0)                   0.000     0.000    A[3]
    AP26                                                              r  A_IBUF[3]_inst/I
    AP26                 IBUF (Prop_ibuf_I_O)         0.594     0.594 r  A_IBUF[3]_inst/O
                         net (fo=18, routed)          0.873     1.467    A_IBUF[3]
    SLICE_X0Y60                                                       r  O_OBUF[4]_inst_i_7/I2
    SLICE_X0Y60          LUT4 (Prop_lut4_I2_O)        0.043     1.510 r  O_OBUF[4]_inst_i_7/O
                         net (fo=1, routed)           0.334     1.844    N_598
    SLICE_X1Y60                                                       r  O_OBUF[4]_inst_i_4/I3
    SLICE_X1Y60          LUT6 (Prop_lut6_I3_O)        0.043     1.887 r  O_OBUF[4]_inst_i_4/O
                         net (fo=4, routed)           0.490     2.377    N_633
    SLICE_X2Y61                                                       r  O_OBUF[7]_inst_i_14/I2
    SLICE_X2Y61          LUT6 (Prop_lut6_I2_O)        0.043     2.420 r  O_OBUF[7]_inst_i_14/O
                         net (fo=1, routed)           0.337     2.757    N_849
    SLICE_X3Y61                                                       r  O_OBUF[7]_inst_i_12/I3
    SLICE_X3Y61          LUT6 (Prop_lut6_I3_O)        0.043     2.800 r  O_OBUF[7]_inst_i_12/O
                         net (fo=3, routed)           0.428     3.228    N_883
    SLICE_X2Y61                                                       r  O_OBUF[5]_inst_i_5/I3
    SLICE_X2Y61          LUT6 (Prop_lut6_I3_O)        0.043     3.271 r  O_OBUF[5]_inst_i_5/O
                         net (fo=3, routed)           0.322     3.593    N_915
    SLICE_X3Y61                                                       r  O_OBUF[5]_inst_i_2/I4
    SLICE_X3Y61          LUT6 (Prop_lut6_I4_O)        0.043     3.636 r  O_OBUF[5]_inst_i_2/O
                         net (fo=5, routed)           0.170     3.806    N_1099
    SLICE_X0Y61                                                       r  O_OBUF[7]_inst_i_5/I3
    SLICE_X0Y61          LUT6 (Prop_lut6_I3_O)        0.043     3.849 r  O_OBUF[7]_inst_i_5/O
                         net (fo=4, routed)           0.354     4.203    N_1133
    SLICE_X1Y61                                                       r  O_OBUF[15]_inst_i_12/I3
    SLICE_X1Y61          LUT6 (Prop_lut6_I3_O)        0.043     4.246 r  O_OBUF[15]_inst_i_12/O
                         net (fo=3, routed)           0.535     4.782    N_1165
    SLICE_X2Y62                                                       r  O_OBUF[10]_inst_i_9/I0
    SLICE_X2Y62          LUT4 (Prop_lut4_I0_O)        0.043     4.825 r  O_OBUF[10]_inst_i_9/O
                         net (fo=3, routed)           0.518     5.343    N_1182
    SLICE_X2Y64                                                       r  O_OBUF[15]_inst_i_8/I4
    SLICE_X2Y64          LUT6 (Prop_lut6_I4_O)        0.043     5.386 r  O_OBUF[15]_inst_i_8/O
                         net (fo=3, routed)           0.428     5.814    N_1449
    SLICE_X2Y63                                                       r  O_OBUF[12]_inst_i_7/I1
    SLICE_X2Y63          LUT6 (Prop_lut6_I1_O)        0.043     5.857 r  O_OBUF[12]_inst_i_7/O
                         net (fo=2, routed)           0.345     6.202    N_1482
    SLICE_X3Y63                                                       r  O_OBUF[15]_inst_i_7/I5
    SLICE_X3Y63          LUT6 (Prop_lut6_I5_O)        0.043     6.245 r  O_OBUF[15]_inst_i_7/O
                         net (fo=2, routed)           0.358     6.603    N_1733
    SLICE_X2Y63                                                       r  O_OBUF[15]_inst_i_4/I5
    SLICE_X2Y63          LUT6 (Prop_lut6_I5_O)        0.043     6.646 r  O_OBUF[15]_inst_i_4/O
                         net (fo=2, routed)           0.414     7.060    N_1749
    SLICE_X1Y63                                                       r  O_OBUF[15]_inst_i_1/I5
    SLICE_X1Y63          LUT6 (Prop_lut6_I5_O)        0.043     7.103 r  O_OBUF[15]_inst_i_1/O
                         net (fo=1, routed)           1.335     8.437    O_OBUF[15]
    AN30                                                              r  O_OBUF[15]_inst/I
    AN30                 OBUF (Prop_obuf_I_O)         1.851    10.289 r  O_OBUF[15]_inst/O
                         net (fo=0)                   0.000    10.289    O[15]
    AN30                                                              r  O[15] (OUT)
  -------------------------------------------------------------------    -------------------

Slack:                    inf
  Source:                 A[3]
                            (input port)
  Destination:            O[12]
                            (output port)
  Path Group:             (none)
  Path Type:              Max at Slow Process Corner
  Data Path Delay:        10.031ns  (logic 3.177ns (31.670%)  route 6.854ns (68.330%))
  Logic Levels:           15  (IBUF=1 LUT4=4 LUT6=9 OBUF=1)

    Location             Delay type                Incr(ns)  Path(ns)    Netlist Resource(s)
  -------------------------------------------------------------------    -------------------
    AP26                                              0.000     0.000 r  A[3] (IN)
                         net (fo=0)                   0.000     0.000    A[3]
    AP26                                                              r  A_IBUF[3]_inst/I
    AP26                 IBUF (Prop_ibuf_I_O)         0.594     0.594 r  A_IBUF[3]_inst/O
                         net (fo=18, routed)          0.873     1.467    A_IBUF[3]
    SLICE_X0Y60                                                       r  O_OBUF[4]_inst_i_7/I2
    SLICE_X0Y60          LUT4 (Prop_lut4_I2_O)        0.043     1.510 r  O_OBUF[4]_inst_i_7/O
                         net (fo=1, routed)           0.334     1.844    N_598
    SLICE_X1Y60                                                       r  O_OBUF[4]_inst_i_4/I3
    SLICE_X1Y60          LUT6 (Prop_lut6_I3_O)        0.043     1.887 r  O_OBUF[4]_inst_i_4/O
                         net (fo=4, routed)           0.490     2.377    N_633
    SLICE_X2Y61                                                       r  O_OBUF[7]_inst_i_14/I2
    SLICE_X2Y61          LUT6 (Prop_lut6_I2_O)        0.043     2.420 r  O_OBUF[7]_inst_i_14/O
                         net (fo=1, routed)           0.337     2.757    N_849
    SLICE_X3Y61                                                       r  O_OBUF[7]_inst_i_12/I3
    SLICE_X3Y61          LUT6 (Prop_lut6_I3_O)        0.043     2.800 r  O_OBUF[7]_inst_i_12/O
                         net (fo=3, routed)           0.428     3.228    N_883
    SLICE_X2Y61                                                       r  O_OBUF[5]_inst_i_5/I3
    SLICE_X2Y61          LUT6 (Prop_lut6_I3_O)        0.043     3.271 r  O_OBUF[5]_inst_i_5/O
                         net (fo=3, routed)           0.322     3.593    N_915
    SLICE_X3Y61                                                       r  O_OBUF[5]_inst_i_2/I4
    SLICE_X3Y61          LUT6 (Prop_lut6_I4_O)        0.043     3.636 r  O_OBUF[5]_inst_i_2/O
                         net (fo=5, routed)           0.170     3.806    N_1099
    SLICE_X0Y61                                                       r  O_OBUF[7]_inst_i_5/I3
    SLICE_X0Y61          LUT6 (Prop_lut6_I3_O)        0.043     3.849 r  O_OBUF[7]_inst_i_5/O
                         net (fo=4, routed)           0.354     4.203    N_1133
    SLICE_X1Y61                                                       r  O_OBUF[15]_inst_i_12/I3
    SLICE_X1Y61          LUT6 (Prop_lut6_I3_O)        0.043     4.246 r  O_OBUF[15]_inst_i_12/O
                         net (fo=3, routed)           0.535     4.782    N_1165
    SLICE_X2Y62                                                       r  O_OBUF[10]_inst_i_9/I0
    SLICE_X2Y62          LUT4 (Prop_lut4_I0_O)        0.043     4.825 r  O_OBUF[10]_inst_i_9/O
                         net (fo=3, routed)           0.518     5.343    N_1182
    SLICE_X2Y64                                                       r  O_OBUF[15]_inst_i_8/I4
    SLICE_X2Y64          LUT6 (Prop_lut6_I4_O)        0.043     5.386 r  O_OBUF[15]_inst_i_8/O
                         net (fo=3, routed)           0.415     5.801    N_1449
    SLICE_X3Y63                                                       r  O_OBUF[12]_inst_i_6/I0
    SLICE_X3Y63          LUT4 (Prop_lut4_I0_O)        0.048     5.849 r  O_OBUF[12]_inst_i_6/O
                         net (fo=3, routed)           0.428     6.277    N_1464
    SLICE_X1Y63                                                       r  O_OBUF[12]_inst_i_3/I1
    SLICE_X1Y63          LUT4 (Prop_lut4_I1_O)        0.134     6.411 r  O_OBUF[12]_inst_i_3/O
                         net (fo=3, routed)           0.306     6.716    N_1714
    SLICE_X1Y64                                                       r  O_OBUF[12]_inst_i_1/I3
    SLICE_X1Y64          LUT6 (Prop_lut6_I3_O)        0.129     6.845 r  O_OBUF[12]_inst_i_1/O
                         net (fo=1, routed)           1.344     8.189    O_OBUF[12]
    AL31                                                              r  O_OBUF[12]_inst/I
    AL31                 OBUF (Prop_obuf_I_O)         1.842    10.031 r  O_OBUF[12]_inst/O
                         net (fo=0)                   0.000    10.031    O[12]
    AL31                                                              r  O[12] (OUT)
  -------------------------------------------------------------------    -------------------

Slack:                    inf
  Source:                 A[3]
                            (input port)
  Destination:            O[11]
                            (output port)
  Path Group:             (none)
  Path Type:              Max at Slow Process Corner
  Data Path Delay:        9.963ns  (logic 3.176ns (31.882%)  route 6.787ns (68.118%))
  Logic Levels:           15  (IBUF=1 LUT4=5 LUT6=8 OBUF=1)

    Location             Delay type                Incr(ns)  Path(ns)    Netlist Resource(s)
  -------------------------------------------------------------------    -------------------
    AP26                                              0.000     0.000 r  A[3] (IN)
                         net (fo=0)                   0.000     0.000    A[3]
    AP26                                                              r  A_IBUF[3]_inst/I
    AP26                 IBUF (Prop_ibuf_I_O)         0.594     0.594 r  A_IBUF[3]_inst/O
                         net (fo=18, routed)          0.873     1.467    A_IBUF[3]
    SLICE_X0Y60                                                       r  O_OBUF[4]_inst_i_7/I2
    SLICE_X0Y60          LUT4 (Prop_lut4_I2_O)        0.043     1.510 r  O_OBUF[4]_inst_i_7/O
                         net (fo=1, routed)           0.334     1.844    N_598
    SLICE_X1Y60                                                       r  O_OBUF[4]_inst_i_4/I3
    SLICE_X1Y60          LUT6 (Prop_lut6_I3_O)        0.043     1.887 r  O_OBUF[4]_inst_i_4/O
                         net (fo=4, routed)           0.490     2.377    N_633
    SLICE_X2Y61                                                       r  O_OBUF[7]_inst_i_14/I2
    SLICE_X2Y61          LUT6 (Prop_lut6_I2_O)        0.043     2.420 r  O_OBUF[7]_inst_i_14/O
                         net (fo=1, routed)           0.337     2.757    N_849
    SLICE_X3Y61                                                       r  O_OBUF[7]_inst_i_12/I3
    SLICE_X3Y61          LUT6 (Prop_lut6_I3_O)        0.043     2.800 r  O_OBUF[7]_inst_i_12/O
                         net (fo=3, routed)           0.428     3.228    N_883
    SLICE_X2Y61                                                       r  O_OBUF[5]_inst_i_5/I3
    SLICE_X2Y61          LUT6 (Prop_lut6_I3_O)        0.043     3.271 r  O_OBUF[5]_inst_i_5/O
                         net (fo=3, routed)           0.322     3.593    N_915
    SLICE_X3Y61                                                       r  O_OBUF[5]_inst_i_2/I4
    SLICE_X3Y61          LUT6 (Prop_lut6_I4_O)        0.043     3.636 r  O_OBUF[5]_inst_i_2/O
                         net (fo=5, routed)           0.170     3.806    N_1099
    SLICE_X0Y61                                                       r  O_OBUF[7]_inst_i_5/I3
    SLICE_X0Y61          LUT6 (Prop_lut6_I3_O)        0.043     3.849 r  O_OBUF[7]_inst_i_5/O
                         net (fo=4, routed)           0.354     4.203    N_1133
    SLICE_X1Y61                                                       r  O_OBUF[15]_inst_i_12/I3
    SLICE_X1Y61          LUT6 (Prop_lut6_I3_O)        0.043     4.246 r  O_OBUF[15]_inst_i_12/O
                         net (fo=3, routed)           0.535     4.782    N_1165
    SLICE_X2Y62                                                       r  O_OBUF[10]_inst_i_9/I0
    SLICE_X2Y62          LUT4 (Prop_lut4_I0_O)        0.043     4.825 r  O_OBUF[10]_inst_i_9/O
                         net (fo=3, routed)           0.518     5.343    N_1182
    SLICE_X2Y64                                                       r  O_OBUF[15]_inst_i_8/I4
    SLICE_X2Y64          LUT6 (Prop_lut6_I4_O)        0.043     5.386 r  O_OBUF[15]_inst_i_8/O
                         net (fo=3, routed)           0.415     5.801    N_1449
    SLICE_X3Y63                                                       r  O_OBUF[12]_inst_i_6/I0
    SLICE_X3Y63          LUT4 (Prop_lut4_I0_O)        0.048     5.849 r  O_OBUF[12]_inst_i_6/O
                         net (fo=3, routed)           0.428     6.277    N_1464
    SLICE_X1Y63                                                       r  O_OBUF[12]_inst_i_3/I1
    SLICE_X1Y63          LUT4 (Prop_lut4_I1_O)        0.134     6.411 r  O_OBUF[12]_inst_i_3/O
                         net (fo=3, routed)           0.308     6.718    N_1714
    SLICE_X1Y64                                                       r  O_OBUF[11]_inst_i_1/I1
    SLICE_X1Y64          LUT4 (Prop_lut4_I1_O)        0.129     6.847 r  O_OBUF[11]_inst_i_1/O
                         net (fo=1, routed)           1.274     8.122    O_OBUF[11]
    AM31                                                              r  O_OBUF[11]_inst/I
    AM31                 OBUF (Prop_obuf_I_O)         1.841     9.963 r  O_OBUF[11]_inst/O
                         net (fo=0)                   0.000     9.963    O[11]
    AM31                                                              r  O[11] (OUT)
  -------------------------------------------------------------------    -------------------

Slack:                    inf
  Source:                 A[3]
                            (input port)
  Destination:            O[10]
                            (output port)
  Path Group:             (none)
  Path Type:              Max at Slow Process Corner
  Data Path Delay:        9.246ns  (logic 3.126ns (33.812%)  route 6.120ns (66.188%))
  Logic Levels:           14  (IBUF=1 LUT4=3 LUT6=9 OBUF=1)

    Location             Delay type                Incr(ns)  Path(ns)    Netlist Resource(s)
  -------------------------------------------------------------------    -------------------
    AP26                                              0.000     0.000 r  A[3] (IN)
                         net (fo=0)                   0.000     0.000    A[3]
    AP26                                                              r  A_IBUF[3]_inst/I
    AP26                 IBUF (Prop_ibuf_I_O)         0.594     0.594 r  A_IBUF[3]_inst/O
                         net (fo=18, routed)          0.873     1.467    A_IBUF[3]
    SLICE_X0Y60                                                       r  O_OBUF[4]_inst_i_7/I2
    SLICE_X0Y60          LUT4 (Prop_lut4_I2_O)        0.043     1.510 r  O_OBUF[4]_inst_i_7/O
                         net (fo=1, routed)           0.334     1.844    N_598
    SLICE_X1Y60                                                       r  O_OBUF[4]_inst_i_4/I3
    SLICE_X1Y60          LUT6 (Prop_lut6_I3_O)        0.043     1.887 r  O_OBUF[4]_inst_i_4/O
                         net (fo=4, routed)           0.490     2.377    N_633
    SLICE_X2Y61                                                       r  O_OBUF[7]_inst_i_14/I2
    SLICE_X2Y61          LUT6 (Prop_lut6_I2_O)        0.043     2.420 r  O_OBUF[7]_inst_i_14/O
                         net (fo=1, routed)           0.337     2.757    N_849
    SLICE_X3Y61                                                       r  O_OBUF[7]_inst_i_12/I3
    SLICE_X3Y61          LUT6 (Prop_lut6_I3_O)        0.043     2.800 r  O_OBUF[7]_inst_i_12/O
                         net (fo=3, routed)           0.428     3.228    N_883
    SLICE_X2Y61                                                       r  O_OBUF[5]_inst_i_5/I3
    SLICE_X2Y61          LUT6 (Prop_lut6_I3_O)        0.043     3.271 r  O_OBUF[5]_inst_i_5/O
                         net (fo=3, routed)           0.322     3.593    N_915
    SLICE_X3Y61                                                       r  O_OBUF[5]_inst_i_2/I4
    SLICE_X3Y61          LUT6 (Prop_lut6_I4_O)        0.043     3.636 r  O_OBUF[5]_inst_i_2/O
                         net (fo=5, routed)           0.296     3.932    N_1099
    SLICE_X0Y61                                                       r  O_OBUF[7]_inst_i_4/I3
    SLICE_X0Y61          LUT6 (Prop_lut6_I3_O)        0.043     3.975 r  O_OBUF[7]_inst_i_4/O
                         net (fo=2, routed)           0.348     4.323    N_1383
    SLICE_X1Y61                                                       r  O_OBUF[9]_inst_i_7/I2
    SLICE_X1Y61          LUT6 (Prop_lut6_I2_O)        0.043     4.366 r  O_OBUF[9]_inst_i_7/O
                         net (fo=2, routed)           0.322     4.688    N_1399
    SLICE_X0Y61                                                       r  O_OBUF[9]_inst_i_5/I0
    SLICE_X0Y61          LUT4 (Prop_lut4_I0_O)        0.051     4.739 r  O_OBUF[9]_inst_i_5/O
                         net (fo=3, routed)           0.532     5.271    N_1414
    SLICE_X0Y63                                                       r  O_OBUF[9]_inst_i_2/I4
    SLICE_X0Y63          LUT6 (Prop_lut6_I4_O)        0.129     5.400 r  O_OBUF[9]_inst_i_2/O
                         net (fo=2, routed)           0.324     5.723    N_1915
    SLICE_X0Y64                                                       r  O_OBUF[10]_inst_i_2/I2
    SLICE_X0Y64          LUT6 (Prop_lut6_I2_O)        0.043     5.766 r  O_OBUF[10]_inst_i_2/O
                         net (fo=2, routed)           0.246     6.012    N_1933
    SLICE_X1Y64                                                       r  O_OBUF[10]_inst_i_1/I0
    SLICE_X1Y64          LUT4 (Prop_lut4_I0_O)        0.049     6.061 r  O_OBUF[10]_inst_i_1/O
                         net (fo=1, routed)           1.269     7.330    O_OBUF[10]
    AL29                                                              r  O_OBUF[10]_inst/I
    AL29                 OBUF (Prop_obuf_I_O)         1.916     9.246 r  O_OBUF[10]_inst/O
                         net (fo=0)                   0.000     9.246    O[10]
    AL29                                                              r  O[10] (OUT)
  -------------------------------------------------------------------    -------------------

Slack:                    inf
  Source:                 A[3]
                            (input port)
  Destination:            O[9]
                            (output port)
  Path Group:             (none)
  Path Type:              Max at Slow Process Corner
  Data Path Delay:        8.999ns  (logic 3.036ns (33.734%)  route 5.963ns (66.266%))
  Logic Levels:           14  (IBUF=1 LUT4=5 LUT5=1 LUT6=6 OBUF=1)

    Location             Delay type                Incr(ns)  Path(ns)    Netlist Resource(s)
  -------------------------------------------------------------------    -------------------
    AP26                                              0.000     0.000 r  A[3] (IN)
                         net (fo=0)                   0.000     0.000    A[3]
    AP26                                                              r  A_IBUF[3]_inst/I
    AP26                 IBUF (Prop_ibuf_I_O)         0.594     0.594 r  A_IBUF[3]_inst/O
                         net (fo=18, routed)          0.873     1.467    A_IBUF[3]
    SLICE_X0Y60                                                       r  O_OBUF[4]_inst_i_7/I2
    SLICE_X0Y60          LUT4 (Prop_lut4_I2_O)        0.043     1.510 r  O_OBUF[4]_inst_i_7/O
                         net (fo=1, routed)           0.334     1.844    N_598
    SLICE_X1Y60                                                       r  O_OBUF[4]_inst_i_4/I3
    SLICE_X1Y60          LUT6 (Prop_lut6_I3_O)        0.043     1.887 r  O_OBUF[4]_inst_i_4/O
                         net (fo=4, routed)           0.490     2.377    N_633
    SLICE_X2Y61                                                       r  O_OBUF[7]_inst_i_14/I2
    SLICE_X2Y61          LUT6 (Prop_lut6_I2_O)        0.043     2.420 r  O_OBUF[7]_inst_i_14/O
                         net (fo=1, routed)           0.337     2.757    N_849
    SLICE_X3Y61                                                       r  O_OBUF[7]_inst_i_12/I3
    SLICE_X3Y61          LUT6 (Prop_lut6_I3_O)        0.043     2.800 r  O_OBUF[7]_inst_i_12/O
                         net (fo=3, routed)           0.428     3.228    N_883
    SLICE_X2Y61                                                       r  O_OBUF[5]_inst_i_5/I3
    SLICE_X2Y61          LUT6 (Prop_lut6_I3_O)        0.043     3.271 r  O_OBUF[5]_inst_i_5/O
                         net (fo=3, routed)           0.322     3.593    N_915
    SLICE_X3Y61                                                       r  O_OBUF[5]_inst_i_2/I4
    SLICE_X3Y61          LUT6 (Prop_lut6_I4_O)        0.043     3.636 r  O_OBUF[5]_inst_i_2/O
                         net (fo=5, routed)           0.500     4.136    N_1099
    SLICE_X1Y62                                                       r  O_OBUF[7]_inst_i_8/I1
    SLICE_X1Y62          LUT6 (Prop_lut6_I1_O)        0.043     4.179 r  O_OBUF[7]_inst_i_8/O
                         net (fo=1, routed)           0.217     4.396    N_1132
    SLICE_X1Y62                                                       r  O_OBUF[7]_inst_i_3/I0
    SLICE_X1Y62          LUT5 (Prop_lut5_I0_O)        0.051     4.447 r  O_OBUF[7]_inst_i_3/O
                         net (fo=3, routed)           0.451     4.898    N_1633
    SLICE_X0Y62                                                       r  O_OBUF[9]_inst_i_4/I2
    SLICE_X0Y62          LUT4 (Prop_lut4_I2_O)        0.129     5.027 r  O_OBUF[9]_inst_i_4/O
                         net (fo=3, routed)           0.304     5.331    N_1649
    SLICE_X0Y63                                                       r  O_OBUF[10]_inst_i_4/I2
    SLICE_X0Y63          LUT4 (Prop_lut4_I2_O)        0.043     5.374 r  O_OBUF[10]_inst_i_4/O
                         net (fo=4, routed)           0.426     5.800    N_1665
    SLICE_X0Y64                                                       r  O_OBUF[9]_inst_i_3/I0
    SLICE_X0Y64          LUT4 (Prop_lut4_I0_O)        0.043     5.843 r  O_OBUF[9]_inst_i_3/O
                         net (fo=1, routed)           0.094     5.937    N_1682
    SLICE_X0Y64                                                       r  O_OBUF[9]_inst_i_1/I1
    SLICE_X0Y64          LUT4 (Prop_lut4_I1_O)        0.043     5.980 r  O_OBUF[9]_inst_i_1/O
                         net (fo=1, routed)           1.187     7.167    O_OBUF[9]
    AL30                                                              r  O_OBUF[9]_inst/I
    AL30                 OBUF (Prop_obuf_I_O)         1.831     8.999 r  O_OBUF[9]_inst/O
                         net (fo=0)                   0.000     8.999    O[9]
    AL30                                                              r  O[9] (OUT)
  -------------------------------------------------------------------    -------------------

Slack:                    inf
  Source:                 A[3]
                            (input port)
  Destination:            O[8]
                            (output port)
  Path Group:             (none)
  Path Type:              Max at Slow Process Corner
  Data Path Delay:        8.808ns  (logic 3.074ns (34.900%)  route 5.734ns (65.100%))
  Logic Levels:           13  (IBUF=1 LUT4=4 LUT5=1 LUT6=6 OBUF=1)

    Location             Delay type                Incr(ns)  Path(ns)    Netlist Resource(s)
  -------------------------------------------------------------------    -------------------
    AP26                                              0.000     0.000 r  A[3] (IN)
                         net (fo=0)                   0.000     0.000    A[3]
    AP26                                                              r  A_IBUF[3]_inst/I
    AP26                 IBUF (Prop_ibuf_I_O)         0.594     0.594 r  A_IBUF[3]_inst/O
                         net (fo=18, routed)          0.873     1.467    A_IBUF[3]
    SLICE_X0Y60                                                       r  O_OBUF[4]_inst_i_7/I2
    SLICE_X0Y60          LUT4 (Prop_lut4_I2_O)        0.043     1.510 r  O_OBUF[4]_inst_i_7/O
                         net (fo=1, routed)           0.334     1.844    N_598
    SLICE_X1Y60                                                       r  O_OBUF[4]_inst_i_4/I3
    SLICE_X1Y60          LUT6 (Prop_lut6_I3_O)        0.043     1.887 r  O_OBUF[4]_inst_i_4/O
                         net (fo=4, routed)           0.490     2.377    N_633
    SLICE_X2Y61                                                       r  O_OBUF[7]_inst_i_14/I2
    SLICE_X2Y61          LUT6 (Prop_lut6_I2_O)        0.043     2.420 r  O_OBUF[7]_inst_i_14/O
                         net (fo=1, routed)           0.337     2.757    N_849
    SLICE_X3Y61                                                       r  O_OBUF[7]_inst_i_12/I3
    SLICE_X3Y61          LUT6 (Prop_lut6_I3_O)        0.043     2.800 r  O_OBUF[7]_inst_i_12/O
                         net (fo=3, routed)           0.428     3.228    N_883
    SLICE_X2Y61                                                       r  O_OBUF[5]_inst_i_5/I3
    SLICE_X2Y61          LUT6 (Prop_lut6_I3_O)        0.043     3.271 r  O_OBUF[5]_inst_i_5/O
                         net (fo=3, routed)           0.322     3.593    N_915
    SLICE_X3Y61                                                       r  O_OBUF[5]_inst_i_2/I4
    SLICE_X3Y61          LUT6 (Prop_lut6_I4_O)        0.043     3.636 r  O_OBUF[5]_inst_i_2/O
                         net (fo=5, routed)           0.500     4.136    N_1099
    SLICE_X1Y62                                                       r  O_OBUF[7]_inst_i_8/I1
    SLICE_X1Y62          LUT6 (Prop_lut6_I1_O)        0.043     4.179 r  O_OBUF[7]_inst_i_8/O
                         net (fo=1, routed)           0.217     4.396    N_1132
    SLICE_X1Y62                                                       r  O_OBUF[7]_inst_i_3/I0
    SLICE_X1Y62          LUT5 (Prop_lut5_I0_O)        0.051     4.447 r  O_OBUF[7]_inst_i_3/O
                         net (fo=3, routed)           0.451     4.898    N_1633
    SLICE_X0Y62                                                       r  O_OBUF[9]_inst_i_4/I2
    SLICE_X0Y62          LUT4 (Prop_lut4_I2_O)        0.129     5.027 r  O_OBUF[9]_inst_i_4/O
                         net (fo=3, routed)           0.304     5.331    N_1649
    SLICE_X0Y63                                                       r  O_OBUF[8]_inst_i_3/I0
    SLICE_X0Y63          LUT4 (Prop_lut4_I0_O)        0.051     5.382 r  O_OBUF[8]_inst_i_3/O
                         net (fo=1, routed)           0.220     5.602    N_1664
    SLICE_X0Y63                                                       r  O_OBUF[8]_inst_i_1/I1
    SLICE_X0Y63          LUT4 (Prop_lut4_I1_O)        0.129     5.731 r  O_OBUF[8]_inst_i_1/O
                         net (fo=1, routed)           1.258     6.989    O_OBUF[8]
    AK28                                                              r  O_OBUF[8]_inst/I
    AK28                 OBUF (Prop_obuf_I_O)         1.819     8.808 r  O_OBUF[8]_inst/O
                         net (fo=0)                   0.000     8.808    O[8]
    AK28                                                              r  O[8] (OUT)
  -------------------------------------------------------------------    -------------------

Slack:                    inf
  Source:                 A[3]
                            (input port)
  Destination:            O[7]
                            (output port)
  Path Group:             (none)
  Path Type:              Max at Slow Process Corner
  Data Path Delay:        8.003ns  (logic 2.892ns (36.129%)  route 5.112ns (63.871%))
  Logic Levels:           11  (IBUF=1 LUT4=1 LUT5=1 LUT6=7 OBUF=1)

    Location             Delay type                Incr(ns)  Path(ns)    Netlist Resource(s)
  -------------------------------------------------------------------    -------------------
    AP26                                              0.000     0.000 r  A[3] (IN)
                         net (fo=0)                   0.000     0.000    A[3]
    AP26                                                              r  A_IBUF[3]_inst/I
    AP26                 IBUF (Prop_ibuf_I_O)         0.594     0.594 r  A_IBUF[3]_inst/O
                         net (fo=18, routed)          0.873     1.467    A_IBUF[3]
    SLICE_X0Y60                                                       r  O_OBUF[4]_inst_i_7/I2
    SLICE_X0Y60          LUT4 (Prop_lut4_I2_O)        0.043     1.510 r  O_OBUF[4]_inst_i_7/O
                         net (fo=1, routed)           0.334     1.844    N_598
    SLICE_X1Y60                                                       r  O_OBUF[4]_inst_i_4/I3
    SLICE_X1Y60          LUT6 (Prop_lut6_I3_O)        0.043     1.887 r  O_OBUF[4]_inst_i_4/O
                         net (fo=4, routed)           0.490     2.377    N_633
    SLICE_X2Y61                                                       r  O_OBUF[7]_inst_i_14/I2
    SLICE_X2Y61          LUT6 (Prop_lut6_I2_O)        0.043     2.420 r  O_OBUF[7]_inst_i_14/O
                         net (fo=1, routed)           0.337     2.757    N_849
    SLICE_X3Y61                                                       r  O_OBUF[7]_inst_i_12/I3
    SLICE_X3Y61          LUT6 (Prop_lut6_I3_O)        0.043     2.800 r  O_OBUF[7]_inst_i_12/O
                         net (fo=3, routed)           0.428     3.228    N_883
    SLICE_X2Y61                                                       r  O_OBUF[5]_inst_i_5/I3
    SLICE_X2Y61          LUT6 (Prop_lut6_I3_O)        0.043     3.271 r  O_OBUF[5]_inst_i_5/O
                         net (fo=3, routed)           0.322     3.593    N_915
    SLICE_X3Y61                                                       r  O_OBUF[5]_inst_i_2/I4
    SLICE_X3Y61          LUT6 (Prop_lut6_I4_O)        0.043     3.636 r  O_OBUF[5]_inst_i_2/O
                         net (fo=5, routed)           0.500     4.136    N_1099
    SLICE_X1Y62                                                       r  O_OBUF[7]_inst_i_8/I1
    SLICE_X1Y62          LUT6 (Prop_lut6_I1_O)        0.043     4.179 r  O_OBUF[7]_inst_i_8/O
                         net (fo=1, routed)           0.217     4.396    N_1132
    SLICE_X1Y62                                                       r  O_OBUF[7]_inst_i_3/I0
    SLICE_X1Y62          LUT5 (Prop_lut5_I0_O)        0.051     4.447 r  O_OBUF[7]_inst_i_3/O
                         net (fo=3, routed)           0.353     4.800    N_1633
    SLICE_X0Y62                                                       r  O_OBUF[7]_inst_i_1/I5
    SLICE_X0Y62          LUT6 (Prop_lut6_I5_O)        0.129     4.929 r  O_OBUF[7]_inst_i_1/O
                         net (fo=1, routed)           1.258     6.187    O_OBUF[7]
    AL28                                                              r  O_OBUF[7]_inst/I
    AL28                 OBUF (Prop_obuf_I_O)         1.816     8.003 r  O_OBUF[7]_inst/O
                         net (fo=0)                   0.000     8.003    O[7]
    AL28                                                              r  O[7] (OUT)
  -------------------------------------------------------------------    -------------------

Slack:                    inf
  Source:                 A[3]
                            (input port)
  Destination:            O[6]
                            (output port)
  Path Group:             (none)
  Path Type:              Max at Slow Process Corner
  Data Path Delay:        7.825ns  (logic 2.898ns (37.029%)  route 4.928ns (62.971%))
  Logic Levels:           11  (IBUF=1 LUT3=1 LUT4=2 LUT6=6 OBUF=1)

    Location             Delay type                Incr(ns)  Path(ns)    Netlist Resource(s)
  -------------------------------------------------------------------    -------------------
    AP26                                              0.000     0.000 r  A[3] (IN)
                         net (fo=0)                   0.000     0.000    A[3]
    AP26                                                              r  A_IBUF[3]_inst/I
    AP26                 IBUF (Prop_ibuf_I_O)         0.594     0.594 r  A_IBUF[3]_inst/O
                         net (fo=18, routed)          0.873     1.467    A_IBUF[3]
    SLICE_X0Y60                                                       r  O_OBUF[4]_inst_i_7/I2
    SLICE_X0Y60          LUT4 (Prop_lut4_I2_O)        0.043     1.510 r  O_OBUF[4]_inst_i_7/O
                         net (fo=1, routed)           0.334     1.844    N_598
    SLICE_X1Y60                                                       r  O_OBUF[4]_inst_i_4/I3
    SLICE_X1Y60          LUT6 (Prop_lut6_I3_O)        0.043     1.887 r  O_OBUF[4]_inst_i_4/O
                         net (fo=4, routed)           0.490     2.377    N_633
    SLICE_X2Y61                                                       r  O_OBUF[7]_inst_i_14/I2
    SLICE_X2Y61          LUT6 (Prop_lut6_I2_O)        0.043     2.420 r  O_OBUF[7]_inst_i_14/O
                         net (fo=1, routed)           0.337     2.757    N_849
    SLICE_X3Y61                                                       r  O_OBUF[7]_inst_i_12/I3
    SLICE_X3Y61          LUT6 (Prop_lut6_I3_O)        0.043     2.800 r  O_OBUF[7]_inst_i_12/O
                         net (fo=3, routed)           0.428     3.228    N_883
    SLICE_X2Y61                                                       r  O_OBUF[5]_inst_i_5/I3
    SLICE_X2Y61          LUT6 (Prop_lut6_I3_O)        0.043     3.271 r  O_OBUF[5]_inst_i_5/O
                         net (fo=3, routed)           0.322     3.593    N_915
    SLICE_X3Y61                                                       r  O_OBUF[5]_inst_i_2/I4
    SLICE_X3Y61          LUT6 (Prop_lut6_I4_O)        0.043     3.636 r  O_OBUF[5]_inst_i_2/O
                         net (fo=5, routed)           0.430     4.067    N_1099
    SLICE_X2Y62                                                       r  O_OBUF[6]_inst_i_4/I2
    SLICE_X2Y62          LUT4 (Prop_lut4_I2_O)        0.043     4.110 r  O_OBUF[6]_inst_i_4/O
                         net (fo=1, routed)           0.152     4.262    N_1115
    SLICE_X2Y62                                                       r  O_OBUF[6]_inst_i_2/I5
    SLICE_X2Y62          LUT6 (Prop_lut6_I5_O)        0.043     4.305 r  O_OBUF[6]_inst_i_2/O
                         net (fo=1, routed)           0.295     4.600    N_1382
    SLICE_X0Y62                                                       r  O_OBUF[6]_inst_i_1/I2
    SLICE_X0Y62          LUT3 (Prop_lut3_I2_O)        0.051     4.651 r  O_OBUF[6]_inst_i_1/O
                         net (fo=1, routed)           1.266     5.917    O_OBUF[6]
    AK26                                                              r  O_OBUF[6]_inst/I
    AK26                 OBUF (Prop_obuf_I_O)         1.909     7.825 r  O_OBUF[6]_inst/O
                         net (fo=0)                   0.000     7.825    O[6]
    AK26                                                              r  O[6] (OUT)
  -------------------------------------------------------------------    -------------------




