Copyright 1986-2017 Xilinx, Inc. All Rights Reserved.
-----------------------------------------------------------------------------------------------------------------------------------------------------------------------
| Tool Version : Vivado v.2017.1 (win64) Build 1846317 Fri Apr 14 18:55:03 MDT 2017
| Date         : Mon Nov 13 19:59:17 2017
| Host         : cfaed-pdpc003 running 64-bit major release  (build 9200)
| Command      : report_timing -to O -delay_type max -max_paths 10 -sort_by group -input_pins -file C:/Users/sanjeev/Desktop/Reports_EvoLib/tim_127_evolib.txt -name O
| Design       : mul8_127
| Device       : 7vx330t-ffg1157
| Speed File   : -3  PRODUCTION 1.11 2014-09-11
-----------------------------------------------------------------------------------------------------------------------------------------------------------------------

Timing Report

Slack:                    inf
  Source:                 A[1]
                            (input port)
  Destination:            O[13]
                            (output port)
  Path Group:             (none)
  Path Type:              Max at Slow Process Corner
  Data Path Delay:        11.235ns  (logic 3.259ns (29.007%)  route 7.976ns (70.993%))
  Logic Levels:           15  (IBUF=1 LUT4=6 LUT5=1 LUT6=6 OBUF=1)

    Location             Delay type                Incr(ns)  Path(ns)    Netlist Resource(s)
  -------------------------------------------------------------------    -------------------
    AP27                                              0.000     0.000 r  A[1] (IN)
                         net (fo=0)                   0.000     0.000    A[1]
    AP27                                                              r  A_IBUF[1]_inst/I
    AP27                 IBUF (Prop_ibuf_I_O)         0.593     0.593 r  A_IBUF[1]_inst/O
                         net (fo=21, routed)          1.743     2.337    A_IBUF[1]
    SLICE_X2Y63                                                       r  O_OBUF[4]_inst_i_11/I4
    SLICE_X2Y63          LUT5 (Prop_lut5_I4_O)        0.043     2.380 r  O_OBUF[4]_inst_i_11/O
                         net (fo=2, routed)           0.412     2.791    N_50
    SLICE_X0Y63                                                       r  O_OBUF[4]_inst_i_7/I1
    SLICE_X0Y63          LUT6 (Prop_lut6_I1_O)        0.127     2.918 r  O_OBUF[4]_inst_i_7/O
                         net (fo=3, routed)           0.196     3.114    N_315
    SLICE_X0Y63                                                       r  O_OBUF[4]_inst_i_3/I1
    SLICE_X0Y63          LUT6 (Prop_lut6_I1_O)        0.043     3.157 r  O_OBUF[4]_inst_i_3/O
                         net (fo=4, routed)           0.429     3.586    N_833
    SLICE_X1Y62                                                       r  O_OBUF[6]_inst_i_6/I2
    SLICE_X1Y62          LUT4 (Prop_lut4_I2_O)        0.043     3.629 r  O_OBUF[6]_inst_i_6/O
                         net (fo=2, routed)           0.414     4.043    N_849
    SLICE_X3Y62                                                       r  O_OBUF[6]_inst_i_5/I1
    SLICE_X3Y62          LUT6 (Prop_lut6_I1_O)        0.043     4.086 r  O_OBUF[6]_inst_i_5/O
                         net (fo=3, routed)           0.529     4.614    N_882
    SLICE_X2Y63                                                       r  O_OBUF[7]_inst_i_5/I3
    SLICE_X2Y63          LUT4 (Prop_lut4_I3_O)        0.043     4.657 r  O_OBUF[7]_inst_i_5/O
                         net (fo=4, routed)           0.438     5.095    N_1133
    SLICE_X4Y64                                                       r  O_OBUF[15]_inst_i_17/I3
    SLICE_X4Y64          LUT6 (Prop_lut6_I3_O)        0.043     5.138 r  O_OBUF[15]_inst_i_17/O
                         net (fo=3, routed)           0.426     5.564    N_1165
    SLICE_X3Y63                                                       r  O_OBUF[10]_inst_i_9/I0
    SLICE_X3Y63          LUT4 (Prop_lut4_I0_O)        0.043     5.607 r  O_OBUF[10]_inst_i_9/O
                         net (fo=3, routed)           0.509     6.116    N_1182
    SLICE_X4Y64                                                       r  O_OBUF[15]_inst_i_8/I4
    SLICE_X4Y64          LUT6 (Prop_lut6_I4_O)        0.043     6.159 r  O_OBUF[15]_inst_i_8/O
                         net (fo=3, routed)           0.427     6.586    N_1449
    SLICE_X3Y64                                                       r  O_OBUF[12]_inst_i_6/I0
    SLICE_X3Y64          LUT4 (Prop_lut4_I0_O)        0.048     6.634 r  O_OBUF[12]_inst_i_6/O
                         net (fo=3, routed)           0.342     6.976    N_1464
    SLICE_X2Y64                                                       r  O_OBUF[12]_inst_i_3/I1
    SLICE_X2Y64          LUT4 (Prop_lut4_I1_O)        0.129     7.105 r  O_OBUF[12]_inst_i_3/O
                         net (fo=3, routed)           0.434     7.539    N_1714
    SLICE_X0Y64                                                       r  O_OBUF[15]_inst_i_2/I4
    SLICE_X0Y64          LUT6 (Prop_lut6_I4_O)        0.043     7.582 r  O_OBUF[15]_inst_i_2/O
                         net (fo=3, routed)           0.326     7.908    N_1983
    SLICE_X0Y65                                                       r  O_OBUF[13]_inst_i_1/I0
    SLICE_X0Y65          LUT4 (Prop_lut4_I0_O)        0.054     7.962 r  O_OBUF[13]_inst_i_1/O
                         net (fo=1, routed)           1.353     9.315    O_OBUF[13]
    AK29                                                              r  O_OBUF[13]_inst/I
    AK29                 OBUF (Prop_obuf_I_O)         1.921    11.235 r  O_OBUF[13]_inst/O
                         net (fo=0)                   0.000    11.235    O[13]
    AK29                                                              r  O[13] (OUT)
  -------------------------------------------------------------------    -------------------

Slack:                    inf
  Source:                 A[1]
                            (input port)
  Destination:            O[15]
                            (output port)
  Path Group:             (none)
  Path Type:              Max at Slow Process Corner
  Data Path Delay:        11.205ns  (logic 3.179ns (28.368%)  route 8.026ns (71.632%))
  Logic Levels:           15  (IBUF=1 LUT4=5 LUT5=1 LUT6=7 OBUF=1)

    Location             Delay type                Incr(ns)  Path(ns)    Netlist Resource(s)
  -------------------------------------------------------------------    -------------------
    AP27                                              0.000     0.000 r  A[1] (IN)
                         net (fo=0)                   0.000     0.000    A[1]
    AP27                                                              r  A_IBUF[1]_inst/I
    AP27                 IBUF (Prop_ibuf_I_O)         0.593     0.593 r  A_IBUF[1]_inst/O
                         net (fo=21, routed)          1.743     2.337    A_IBUF[1]
    SLICE_X2Y63                                                       r  O_OBUF[4]_inst_i_11/I4
    SLICE_X2Y63          LUT5 (Prop_lut5_I4_O)        0.043     2.380 r  O_OBUF[4]_inst_i_11/O
                         net (fo=2, routed)           0.412     2.791    N_50
    SLICE_X0Y63                                                       r  O_OBUF[4]_inst_i_7/I1
    SLICE_X0Y63          LUT6 (Prop_lut6_I1_O)        0.127     2.918 r  O_OBUF[4]_inst_i_7/O
                         net (fo=3, routed)           0.196     3.114    N_315
    SLICE_X0Y63                                                       r  O_OBUF[4]_inst_i_3/I1
    SLICE_X0Y63          LUT6 (Prop_lut6_I1_O)        0.043     3.157 r  O_OBUF[4]_inst_i_3/O
                         net (fo=4, routed)           0.429     3.586    N_833
    SLICE_X1Y62                                                       r  O_OBUF[6]_inst_i_6/I2
    SLICE_X1Y62          LUT4 (Prop_lut4_I2_O)        0.043     3.629 r  O_OBUF[6]_inst_i_6/O
                         net (fo=2, routed)           0.414     4.043    N_849
    SLICE_X3Y62                                                       r  O_OBUF[6]_inst_i_5/I1
    SLICE_X3Y62          LUT6 (Prop_lut6_I1_O)        0.043     4.086 r  O_OBUF[6]_inst_i_5/O
                         net (fo=3, routed)           0.529     4.614    N_882
    SLICE_X2Y63                                                       r  O_OBUF[7]_inst_i_5/I3
    SLICE_X2Y63          LUT4 (Prop_lut4_I3_O)        0.043     4.657 r  O_OBUF[7]_inst_i_5/O
                         net (fo=4, routed)           0.438     5.095    N_1133
    SLICE_X4Y64                                                       r  O_OBUF[15]_inst_i_17/I3
    SLICE_X4Y64          LUT6 (Prop_lut6_I3_O)        0.043     5.138 r  O_OBUF[15]_inst_i_17/O
                         net (fo=3, routed)           0.426     5.564    N_1165
    SLICE_X3Y63                                                       r  O_OBUF[10]_inst_i_9/I0
    SLICE_X3Y63          LUT4 (Prop_lut4_I0_O)        0.043     5.607 r  O_OBUF[10]_inst_i_9/O
                         net (fo=3, routed)           0.509     6.116    N_1182
    SLICE_X4Y64                                                       r  O_OBUF[15]_inst_i_8/I4
    SLICE_X4Y64          LUT6 (Prop_lut6_I4_O)        0.043     6.159 r  O_OBUF[15]_inst_i_8/O
                         net (fo=3, routed)           0.427     6.586    N_1449
    SLICE_X3Y64                                                       r  O_OBUF[12]_inst_i_6/I0
    SLICE_X3Y64          LUT4 (Prop_lut4_I0_O)        0.048     6.634 r  O_OBUF[12]_inst_i_6/O
                         net (fo=3, routed)           0.342     6.976    N_1464
    SLICE_X2Y64                                                       r  O_OBUF[12]_inst_i_3/I1
    SLICE_X2Y64          LUT4 (Prop_lut4_I1_O)        0.129     7.105 r  O_OBUF[12]_inst_i_3/O
                         net (fo=3, routed)           0.434     7.539    N_1714
    SLICE_X0Y64                                                       r  O_OBUF[15]_inst_i_2/I4
    SLICE_X0Y64          LUT6 (Prop_lut6_I4_O)        0.043     7.582 r  O_OBUF[15]_inst_i_2/O
                         net (fo=3, routed)           0.301     7.883    N_1983
    SLICE_X0Y65                                                       r  O_OBUF[15]_inst_i_1/I3
    SLICE_X0Y65          LUT6 (Prop_lut6_I3_O)        0.043     7.926 r  O_OBUF[15]_inst_i_1/O
                         net (fo=1, routed)           1.428     9.354    O_OBUF[15]
    AN30                                                              r  O_OBUF[15]_inst/I
    AN30                 OBUF (Prop_obuf_I_O)         1.851    11.205 r  O_OBUF[15]_inst/O
                         net (fo=0)                   0.000    11.205    O[15]
    AN30                                                              r  O[15] (OUT)
  -------------------------------------------------------------------    -------------------

Slack:                    inf
  Source:                 A[1]
                            (input port)
  Destination:            O[14]
                            (output port)
  Path Group:             (none)
  Path Type:              Max at Slow Process Corner
  Data Path Delay:        11.013ns  (logic 3.163ns (28.718%)  route 7.851ns (71.282%))
  Logic Levels:           15  (IBUF=1 LUT4=4 LUT5=1 LUT6=8 OBUF=1)

    Location             Delay type                Incr(ns)  Path(ns)    Netlist Resource(s)
  -------------------------------------------------------------------    -------------------
    AP27                                              0.000     0.000 r  A[1] (IN)
                         net (fo=0)                   0.000     0.000    A[1]
    AP27                                                              r  A_IBUF[1]_inst/I
    AP27                 IBUF (Prop_ibuf_I_O)         0.593     0.593 r  A_IBUF[1]_inst/O
                         net (fo=21, routed)          1.743     2.337    A_IBUF[1]
    SLICE_X2Y63                                                       r  O_OBUF[4]_inst_i_11/I4
    SLICE_X2Y63          LUT5 (Prop_lut5_I4_O)        0.043     2.380 r  O_OBUF[4]_inst_i_11/O
                         net (fo=2, routed)           0.412     2.791    N_50
    SLICE_X0Y63                                                       r  O_OBUF[4]_inst_i_7/I1
    SLICE_X0Y63          LUT6 (Prop_lut6_I1_O)        0.127     2.918 r  O_OBUF[4]_inst_i_7/O
                         net (fo=3, routed)           0.196     3.114    N_315
    SLICE_X0Y63                                                       r  O_OBUF[4]_inst_i_3/I1
    SLICE_X0Y63          LUT6 (Prop_lut6_I1_O)        0.043     3.157 r  O_OBUF[4]_inst_i_3/O
                         net (fo=4, routed)           0.429     3.586    N_833
    SLICE_X1Y62                                                       r  O_OBUF[6]_inst_i_6/I2
    SLICE_X1Y62          LUT4 (Prop_lut4_I2_O)        0.043     3.629 r  O_OBUF[6]_inst_i_6/O
                         net (fo=2, routed)           0.414     4.043    N_849
    SLICE_X3Y62                                                       r  O_OBUF[6]_inst_i_5/I1
    SLICE_X3Y62          LUT6 (Prop_lut6_I1_O)        0.043     4.086 r  O_OBUF[6]_inst_i_5/O
                         net (fo=3, routed)           0.529     4.614    N_882
    SLICE_X2Y63                                                       r  O_OBUF[7]_inst_i_5/I3
    SLICE_X2Y63          LUT4 (Prop_lut4_I3_O)        0.043     4.657 r  O_OBUF[7]_inst_i_5/O
                         net (fo=4, routed)           0.438     5.095    N_1133
    SLICE_X4Y64                                                       r  O_OBUF[15]_inst_i_17/I3
    SLICE_X4Y64          LUT6 (Prop_lut6_I3_O)        0.043     5.138 r  O_OBUF[15]_inst_i_17/O
                         net (fo=3, routed)           0.426     5.564    N_1165
    SLICE_X3Y63                                                       r  O_OBUF[10]_inst_i_9/I0
    SLICE_X3Y63          LUT4 (Prop_lut4_I0_O)        0.043     5.607 r  O_OBUF[10]_inst_i_9/O
                         net (fo=3, routed)           0.509     6.116    N_1182
    SLICE_X4Y64                                                       r  O_OBUF[15]_inst_i_8/I4
    SLICE_X4Y64          LUT6 (Prop_lut6_I4_O)        0.043     6.159 r  O_OBUF[15]_inst_i_8/O
                         net (fo=3, routed)           0.427     6.586    N_1449
    SLICE_X3Y64                                                       r  O_OBUF[12]_inst_i_6/I0
    SLICE_X3Y64          LUT4 (Prop_lut4_I0_O)        0.048     6.634 r  O_OBUF[12]_inst_i_6/O
                         net (fo=3, routed)           0.360     6.994    N_1464
    SLICE_X2Y64                                                       r  O_OBUF[15]_inst_i_7/I4
    SLICE_X2Y64          LUT6 (Prop_lut6_I4_O)        0.129     7.123 r  O_OBUF[15]_inst_i_7/O
                         net (fo=2, routed)           0.258     7.382    N_1733
    SLICE_X3Y64                                                       r  O_OBUF[15]_inst_i_4/I5
    SLICE_X3Y64          LUT6 (Prop_lut6_I5_O)        0.043     7.425 r  O_OBUF[15]_inst_i_4/O
                         net (fo=2, routed)           0.340     7.764    N_1749
    SLICE_X0Y65                                                       r  O_OBUF[14]_inst_i_1/I3
    SLICE_X0Y65          LUT6 (Prop_lut6_I3_O)        0.043     7.807 r  O_OBUF[14]_inst_i_1/O
                         net (fo=1, routed)           1.371     9.178    O_OBUF[14]
    AJ29                                                              r  O_OBUF[14]_inst/I
    AJ29                 OBUF (Prop_obuf_I_O)         1.836    11.013 r  O_OBUF[14]_inst/O
                         net (fo=0)                   0.000    11.013    O[14]
    AJ29                                                              r  O[14] (OUT)
  -------------------------------------------------------------------    -------------------

Slack:                    inf
  Source:                 A[1]
                            (input port)
  Destination:            O[12]
                            (output port)
  Path Group:             (none)
  Path Type:              Max at Slow Process Corner
  Data Path Delay:        10.769ns  (logic 3.126ns (29.028%)  route 7.643ns (70.972%))
  Logic Levels:           14  (IBUF=1 LUT4=5 LUT5=1 LUT6=6 OBUF=1)

    Location             Delay type                Incr(ns)  Path(ns)    Netlist Resource(s)
  -------------------------------------------------------------------    -------------------
    AP27                                              0.000     0.000 r  A[1] (IN)
                         net (fo=0)                   0.000     0.000    A[1]
    AP27                                                              r  A_IBUF[1]_inst/I
    AP27                 IBUF (Prop_ibuf_I_O)         0.593     0.593 r  A_IBUF[1]_inst/O
                         net (fo=21, routed)          1.743     2.337    A_IBUF[1]
    SLICE_X2Y63                                                       r  O_OBUF[4]_inst_i_11/I4
    SLICE_X2Y63          LUT5 (Prop_lut5_I4_O)        0.043     2.380 r  O_OBUF[4]_inst_i_11/O
                         net (fo=2, routed)           0.412     2.791    N_50
    SLICE_X0Y63                                                       r  O_OBUF[4]_inst_i_7/I1
    SLICE_X0Y63          LUT6 (Prop_lut6_I1_O)        0.127     2.918 r  O_OBUF[4]_inst_i_7/O
                         net (fo=3, routed)           0.196     3.114    N_315
    SLICE_X0Y63                                                       r  O_OBUF[4]_inst_i_3/I1
    SLICE_X0Y63          LUT6 (Prop_lut6_I1_O)        0.043     3.157 r  O_OBUF[4]_inst_i_3/O
                         net (fo=4, routed)           0.429     3.586    N_833
    SLICE_X1Y62                                                       r  O_OBUF[6]_inst_i_6/I2
    SLICE_X1Y62          LUT4 (Prop_lut4_I2_O)        0.043     3.629 r  O_OBUF[6]_inst_i_6/O
                         net (fo=2, routed)           0.414     4.043    N_849
    SLICE_X3Y62                                                       r  O_OBUF[6]_inst_i_5/I1
    SLICE_X3Y62          LUT6 (Prop_lut6_I1_O)        0.043     4.086 r  O_OBUF[6]_inst_i_5/O
                         net (fo=3, routed)           0.529     4.614    N_882
    SLICE_X2Y63                                                       r  O_OBUF[7]_inst_i_5/I3
    SLICE_X2Y63          LUT4 (Prop_lut4_I3_O)        0.043     4.657 r  O_OBUF[7]_inst_i_5/O
                         net (fo=4, routed)           0.438     5.095    N_1133
    SLICE_X4Y64                                                       r  O_OBUF[15]_inst_i_17/I3
    SLICE_X4Y64          LUT6 (Prop_lut6_I3_O)        0.043     5.138 r  O_OBUF[15]_inst_i_17/O
                         net (fo=3, routed)           0.426     5.564    N_1165
    SLICE_X3Y63                                                       r  O_OBUF[10]_inst_i_9/I0
    SLICE_X3Y63          LUT4 (Prop_lut4_I0_O)        0.043     5.607 r  O_OBUF[10]_inst_i_9/O
                         net (fo=3, routed)           0.509     6.116    N_1182
    SLICE_X4Y64                                                       r  O_OBUF[15]_inst_i_8/I4
    SLICE_X4Y64          LUT6 (Prop_lut6_I4_O)        0.043     6.159 r  O_OBUF[15]_inst_i_8/O
                         net (fo=3, routed)           0.427     6.586    N_1449
    SLICE_X3Y64                                                       r  O_OBUF[12]_inst_i_6/I0
    SLICE_X3Y64          LUT4 (Prop_lut4_I0_O)        0.048     6.634 r  O_OBUF[12]_inst_i_6/O
                         net (fo=3, routed)           0.342     6.976    N_1464
    SLICE_X2Y64                                                       r  O_OBUF[12]_inst_i_3/I1
    SLICE_X2Y64          LUT4 (Prop_lut4_I1_O)        0.129     7.105 r  O_OBUF[12]_inst_i_3/O
                         net (fo=3, routed)           0.435     7.540    N_1714
    SLICE_X0Y64                                                       r  O_OBUF[12]_inst_i_1/I3
    SLICE_X0Y64          LUT6 (Prop_lut6_I3_O)        0.043     7.583 r  O_OBUF[12]_inst_i_1/O
                         net (fo=1, routed)           1.344     8.927    O_OBUF[12]
    AL31                                                              r  O_OBUF[12]_inst/I
    AL31                 OBUF (Prop_obuf_I_O)         1.842    10.769 r  O_OBUF[12]_inst/O
                         net (fo=0)                   0.000    10.769    O[12]
    AL31                                                              r  O[12] (OUT)
  -------------------------------------------------------------------    -------------------

Slack:                    inf
  Source:                 A[1]
                            (input port)
  Destination:            O[11]
                            (output port)
  Path Group:             (none)
  Path Type:              Max at Slow Process Corner
  Data Path Delay:        10.714ns  (logic 3.034ns (28.322%)  route 7.680ns (71.678%))
  Logic Levels:           14  (IBUF=1 LUT4=4 LUT5=1 LUT6=7 OBUF=1)

    Location             Delay type                Incr(ns)  Path(ns)    Netlist Resource(s)
  -------------------------------------------------------------------    -------------------
    AP27                                              0.000     0.000 r  A[1] (IN)
                         net (fo=0)                   0.000     0.000    A[1]
    AP27                                                              r  A_IBUF[1]_inst/I
    AP27                 IBUF (Prop_ibuf_I_O)         0.593     0.593 r  A_IBUF[1]_inst/O
                         net (fo=21, routed)          1.743     2.337    A_IBUF[1]
    SLICE_X2Y63                                                       r  O_OBUF[4]_inst_i_11/I4
    SLICE_X2Y63          LUT5 (Prop_lut5_I4_O)        0.043     2.380 r  O_OBUF[4]_inst_i_11/O
                         net (fo=2, routed)           0.481     2.861    N_50
    SLICE_X0Y61                                                       r  O_OBUF[4]_inst_i_5/I1
    SLICE_X0Y61          LUT6 (Prop_lut6_I1_O)        0.127     2.988 r  O_OBUF[4]_inst_i_5/O
                         net (fo=3, routed)           0.184     3.172    N_333
    SLICE_X0Y62                                                       r  O_OBUF[5]_inst_i_6/I1
    SLICE_X0Y62          LUT6 (Prop_lut6_I1_O)        0.043     3.215 r  O_OBUF[5]_inst_i_6/O
                         net (fo=3, routed)           0.356     3.570    N_364
    SLICE_X1Y62                                                       r  O_OBUF[5]_inst_i_3/I4
    SLICE_X1Y62          LUT6 (Prop_lut6_I4_O)        0.043     3.613 r  O_OBUF[5]_inst_i_3/O
                         net (fo=3, routed)           0.520     4.134    N_864
    SLICE_X1Y63                                                       r  O_OBUF[6]_inst_i_4/I3
    SLICE_X1Y63          LUT4 (Prop_lut4_I3_O)        0.043     4.177 r  O_OBUF[6]_inst_i_4/O
                         net (fo=3, routed)           0.635     4.812    N_1115
    SLICE_X2Y63                                                       r  O_OBUF[7]_inst_i_4/I3
    SLICE_X2Y63          LUT6 (Prop_lut6_I3_O)        0.043     4.855 r  O_OBUF[7]_inst_i_4/O
                         net (fo=2, routed)           0.428     5.283    N_1383
    SLICE_X3Y65                                                       r  O_OBUF[9]_inst_i_7/I2
    SLICE_X3Y65          LUT6 (Prop_lut6_I2_O)        0.043     5.326 r  O_OBUF[9]_inst_i_7/O
                         net (fo=2, routed)           0.217     5.542    N_1399
    SLICE_X3Y65                                                       r  O_OBUF[10]_inst_i_8/I2
    SLICE_X3Y65          LUT4 (Prop_lut4_I2_O)        0.043     5.585 r  O_OBUF[10]_inst_i_8/O
                         net (fo=3, routed)           0.502     6.088    N_1415
    SLICE_X4Y64                                                       r  O_OBUF[10]_inst_i_7/I1
    SLICE_X4Y64          LUT6 (Prop_lut6_I1_O)        0.043     6.131 r  O_OBUF[10]_inst_i_7/O
                         net (fo=2, routed)           0.416     6.547    N_1448
    SLICE_X2Y65                                                       r  O_OBUF[10]_inst_i_3/I3
    SLICE_X2Y65          LUT6 (Prop_lut6_I3_O)        0.043     6.590 r  O_OBUF[10]_inst_i_3/O
                         net (fo=2, routed)           0.418     7.008    N_1698
    SLICE_X0Y65                                                       r  O_OBUF[12]_inst_i_2/I3
    SLICE_X0Y65          LUT4 (Prop_lut4_I3_O)        0.043     7.051 r  O_OBUF[12]_inst_i_2/O
                         net (fo=3, routed)           0.509     7.559    N_1949
    SLICE_X0Y64                                                       r  O_OBUF[11]_inst_i_1/I0
    SLICE_X0Y64          LUT4 (Prop_lut4_I0_O)        0.043     7.602 r  O_OBUF[11]_inst_i_1/O
                         net (fo=1, routed)           1.271     8.873    O_OBUF[11]
    AM31                                                              r  O_OBUF[11]_inst/I
    AM31                 OBUF (Prop_obuf_I_O)         1.841    10.714 r  O_OBUF[11]_inst/O
                         net (fo=0)                   0.000    10.714    O[11]
    AM31                                                              r  O[11] (OUT)
  -------------------------------------------------------------------    -------------------

Slack:                    inf
  Source:                 A[1]
                            (input port)
  Destination:            O[10]
                            (output port)
  Path Group:             (none)
  Path Type:              Max at Slow Process Corner
  Data Path Delay:        10.172ns  (logic 3.071ns (30.196%)  route 7.100ns (69.804%))
  Logic Levels:           13  (IBUF=1 LUT4=3 LUT5=1 LUT6=7 OBUF=1)

    Location             Delay type                Incr(ns)  Path(ns)    Netlist Resource(s)
  -------------------------------------------------------------------    -------------------
    AP27                                              0.000     0.000 r  A[1] (IN)
                         net (fo=0)                   0.000     0.000    A[1]
    AP27                                                              r  A_IBUF[1]_inst/I
    AP27                 IBUF (Prop_ibuf_I_O)         0.593     0.593 r  A_IBUF[1]_inst/O
                         net (fo=21, routed)          1.743     2.337    A_IBUF[1]
    SLICE_X2Y63                                                       r  O_OBUF[4]_inst_i_11/I4
    SLICE_X2Y63          LUT5 (Prop_lut5_I4_O)        0.043     2.380 r  O_OBUF[4]_inst_i_11/O
                         net (fo=2, routed)           0.481     2.861    N_50
    SLICE_X0Y61                                                       r  O_OBUF[4]_inst_i_5/I1
    SLICE_X0Y61          LUT6 (Prop_lut6_I1_O)        0.127     2.988 r  O_OBUF[4]_inst_i_5/O
                         net (fo=3, routed)           0.184     3.172    N_333
    SLICE_X0Y62                                                       r  O_OBUF[5]_inst_i_6/I1
    SLICE_X0Y62          LUT6 (Prop_lut6_I1_O)        0.043     3.215 r  O_OBUF[5]_inst_i_6/O
                         net (fo=3, routed)           0.356     3.570    N_364
    SLICE_X1Y62                                                       r  O_OBUF[5]_inst_i_3/I4
    SLICE_X1Y62          LUT6 (Prop_lut6_I4_O)        0.043     3.613 r  O_OBUF[5]_inst_i_3/O
                         net (fo=3, routed)           0.520     4.134    N_864
    SLICE_X1Y63                                                       r  O_OBUF[6]_inst_i_4/I3
    SLICE_X1Y63          LUT4 (Prop_lut4_I3_O)        0.043     4.177 r  O_OBUF[6]_inst_i_4/O
                         net (fo=3, routed)           0.635     4.812    N_1115
    SLICE_X2Y63                                                       r  O_OBUF[7]_inst_i_4/I3
    SLICE_X2Y63          LUT6 (Prop_lut6_I3_O)        0.043     4.855 r  O_OBUF[7]_inst_i_4/O
                         net (fo=2, routed)           0.428     5.283    N_1383
    SLICE_X3Y65                                                       r  O_OBUF[9]_inst_i_7/I2
    SLICE_X3Y65          LUT6 (Prop_lut6_I2_O)        0.043     5.326 r  O_OBUF[9]_inst_i_7/O
                         net (fo=2, routed)           0.217     5.542    N_1399
    SLICE_X3Y65                                                       r  O_OBUF[10]_inst_i_8/I2
    SLICE_X3Y65          LUT4 (Prop_lut4_I2_O)        0.043     5.585 r  O_OBUF[10]_inst_i_8/O
                         net (fo=3, routed)           0.502     6.088    N_1415
    SLICE_X4Y64                                                       r  O_OBUF[10]_inst_i_7/I1
    SLICE_X4Y64          LUT6 (Prop_lut6_I1_O)        0.043     6.131 r  O_OBUF[10]_inst_i_7/O
                         net (fo=2, routed)           0.416     6.547    N_1448
    SLICE_X2Y65                                                       r  O_OBUF[10]_inst_i_3/I3
    SLICE_X2Y65          LUT6 (Prop_lut6_I3_O)        0.043     6.590 r  O_OBUF[10]_inst_i_3/O
                         net (fo=2, routed)           0.418     7.008    N_1698
    SLICE_X0Y65                                                       r  O_OBUF[10]_inst_i_1/I1
    SLICE_X0Y65          LUT4 (Prop_lut4_I1_O)        0.048     7.056 r  O_OBUF[10]_inst_i_1/O
                         net (fo=1, routed)           1.200     8.255    O_OBUF[10]
    AL29                                                              r  O_OBUF[10]_inst/I
    AL29                 OBUF (Prop_obuf_I_O)         1.916    10.172 r  O_OBUF[10]_inst/O
                         net (fo=0)                   0.000    10.172    O[10]
    AL29                                                              r  O[10] (OUT)
  -------------------------------------------------------------------    -------------------

Slack:                    inf
  Source:                 A[1]
                            (input port)
  Destination:            O[9]
                            (output port)
  Path Group:             (none)
  Path Type:              Max at Slow Process Corner
  Data Path Delay:        9.995ns  (logic 3.076ns (30.772%)  route 6.919ns (69.228%))
  Logic Levels:           13  (IBUF=1 LUT4=5 LUT5=1 LUT6=5 OBUF=1)

    Location             Delay type                Incr(ns)  Path(ns)    Netlist Resource(s)
  -------------------------------------------------------------------    -------------------
    AP27                                              0.000     0.000 r  A[1] (IN)
                         net (fo=0)                   0.000     0.000    A[1]
    AP27                                                              r  A_IBUF[1]_inst/I
    AP27                 IBUF (Prop_ibuf_I_O)         0.593     0.593 r  A_IBUF[1]_inst/O
                         net (fo=21, routed)          1.743     2.337    A_IBUF[1]
    SLICE_X2Y63                                                       r  O_OBUF[4]_inst_i_11/I4
    SLICE_X2Y63          LUT5 (Prop_lut5_I4_O)        0.043     2.380 r  O_OBUF[4]_inst_i_11/O
                         net (fo=2, routed)           0.481     2.861    N_50
    SLICE_X0Y61                                                       r  O_OBUF[4]_inst_i_5/I1
    SLICE_X0Y61          LUT6 (Prop_lut6_I1_O)        0.127     2.988 r  O_OBUF[4]_inst_i_5/O
                         net (fo=3, routed)           0.184     3.172    N_333
    SLICE_X0Y62                                                       r  O_OBUF[5]_inst_i_6/I1
    SLICE_X0Y62          LUT6 (Prop_lut6_I1_O)        0.043     3.215 r  O_OBUF[5]_inst_i_6/O
                         net (fo=3, routed)           0.356     3.570    N_364
    SLICE_X1Y62                                                       r  O_OBUF[5]_inst_i_3/I4
    SLICE_X1Y62          LUT6 (Prop_lut6_I4_O)        0.043     3.613 r  O_OBUF[5]_inst_i_3/O
                         net (fo=3, routed)           0.520     4.134    N_864
    SLICE_X1Y63                                                       r  O_OBUF[6]_inst_i_4/I3
    SLICE_X1Y63          LUT4 (Prop_lut4_I3_O)        0.043     4.177 r  O_OBUF[6]_inst_i_4/O
                         net (fo=3, routed)           0.635     4.812    N_1115
    SLICE_X2Y63                                                       r  O_OBUF[7]_inst_i_4/I3
    SLICE_X2Y63          LUT6 (Prop_lut6_I3_O)        0.043     4.855 r  O_OBUF[7]_inst_i_4/O
                         net (fo=2, routed)           0.428     5.283    N_1383
    SLICE_X3Y65                                                       r  O_OBUF[9]_inst_i_7/I2
    SLICE_X3Y65          LUT6 (Prop_lut6_I2_O)        0.043     5.326 r  O_OBUF[9]_inst_i_7/O
                         net (fo=2, routed)           0.217     5.542    N_1399
    SLICE_X3Y65                                                       r  O_OBUF[9]_inst_i_6/I0
    SLICE_X3Y65          LUT4 (Prop_lut4_I0_O)        0.051     5.593 r  O_OBUF[9]_inst_i_6/O
                         net (fo=3, routed)           0.409     6.002    N_1414
    SLICE_X1Y65                                                       r  O_OBUF[10]_inst_i_4/I3
    SLICE_X1Y65          LUT4 (Prop_lut4_I3_O)        0.129     6.131 r  O_OBUF[10]_inst_i_4/O
                         net (fo=4, routed)           0.420     6.552    N_1665
    SLICE_X1Y64                                                       r  O_OBUF[9]_inst_i_3/I0
    SLICE_X1Y64          LUT4 (Prop_lut4_I0_O)        0.043     6.595 r  O_OBUF[9]_inst_i_3/O
                         net (fo=1, routed)           0.339     6.933    N_1682
    SLICE_X0Y64                                                       r  O_OBUF[9]_inst_i_1/I1
    SLICE_X0Y64          LUT4 (Prop_lut4_I1_O)        0.043     6.976 r  O_OBUF[9]_inst_i_1/O
                         net (fo=1, routed)           1.187     8.164    O_OBUF[9]
    AL30                                                              r  O_OBUF[9]_inst/I
    AL30                 OBUF (Prop_obuf_I_O)         1.831     9.995 r  O_OBUF[9]_inst/O
                         net (fo=0)                   0.000     9.995    O[9]
    AL30                                                              r  O[9] (OUT)
  -------------------------------------------------------------------    -------------------

Slack:                    inf
  Source:                 A[1]
                            (input port)
  Destination:            O[8]
                            (output port)
  Path Group:             (none)
  Path Type:              Max at Slow Process Corner
  Data Path Delay:        9.521ns  (logic 3.114ns (32.707%)  route 6.407ns (67.293%))
  Logic Levels:           12  (IBUF=1 LUT4=4 LUT5=1 LUT6=5 OBUF=1)

    Location             Delay type                Incr(ns)  Path(ns)    Netlist Resource(s)
  -------------------------------------------------------------------    -------------------
    AP27                                              0.000     0.000 r  A[1] (IN)
                         net (fo=0)                   0.000     0.000    A[1]
    AP27                                                              r  A_IBUF[1]_inst/I
    AP27                 IBUF (Prop_ibuf_I_O)         0.593     0.593 r  A_IBUF[1]_inst/O
                         net (fo=21, routed)          1.743     2.337    A_IBUF[1]
    SLICE_X2Y63                                                       r  O_OBUF[4]_inst_i_11/I4
    SLICE_X2Y63          LUT5 (Prop_lut5_I4_O)        0.043     2.380 r  O_OBUF[4]_inst_i_11/O
                         net (fo=2, routed)           0.481     2.861    N_50
    SLICE_X0Y61                                                       r  O_OBUF[4]_inst_i_5/I1
    SLICE_X0Y61          LUT6 (Prop_lut6_I1_O)        0.127     2.988 r  O_OBUF[4]_inst_i_5/O
                         net (fo=3, routed)           0.184     3.172    N_333
    SLICE_X0Y62                                                       r  O_OBUF[5]_inst_i_6/I1
    SLICE_X0Y62          LUT6 (Prop_lut6_I1_O)        0.043     3.215 r  O_OBUF[5]_inst_i_6/O
                         net (fo=3, routed)           0.356     3.570    N_364
    SLICE_X1Y62                                                       r  O_OBUF[5]_inst_i_3/I4
    SLICE_X1Y62          LUT6 (Prop_lut6_I4_O)        0.043     3.613 r  O_OBUF[5]_inst_i_3/O
                         net (fo=3, routed)           0.520     4.134    N_864
    SLICE_X1Y63                                                       r  O_OBUF[6]_inst_i_4/I3
    SLICE_X1Y63          LUT4 (Prop_lut4_I3_O)        0.043     4.177 r  O_OBUF[6]_inst_i_4/O
                         net (fo=3, routed)           0.635     4.812    N_1115
    SLICE_X2Y63                                                       r  O_OBUF[7]_inst_i_4/I3
    SLICE_X2Y63          LUT6 (Prop_lut6_I3_O)        0.043     4.855 r  O_OBUF[7]_inst_i_4/O
                         net (fo=2, routed)           0.428     5.283    N_1383
    SLICE_X3Y65                                                       r  O_OBUF[9]_inst_i_7/I2
    SLICE_X3Y65          LUT6 (Prop_lut6_I2_O)        0.043     5.326 r  O_OBUF[9]_inst_i_7/O
                         net (fo=2, routed)           0.217     5.542    N_1399
    SLICE_X3Y65                                                       r  O_OBUF[9]_inst_i_6/I0
    SLICE_X3Y65          LUT4 (Prop_lut4_I0_O)        0.051     5.593 r  O_OBUF[9]_inst_i_6/O
                         net (fo=3, routed)           0.409     6.002    N_1414
    SLICE_X1Y65                                                       r  O_OBUF[8]_inst_i_3/I1
    SLICE_X1Y65          LUT4 (Prop_lut4_I1_O)        0.137     6.139 r  O_OBUF[8]_inst_i_3/O
                         net (fo=1, routed)           0.220     6.359    N_1664
    SLICE_X1Y65                                                       r  O_OBUF[8]_inst_i_1/I1
    SLICE_X1Y65          LUT4 (Prop_lut4_I1_O)        0.129     6.488 r  O_OBUF[8]_inst_i_1/O
                         net (fo=1, routed)           1.214     7.702    O_OBUF[8]
    AK28                                                              r  O_OBUF[8]_inst/I
    AK28                 OBUF (Prop_obuf_I_O)         1.819     9.521 r  O_OBUF[8]_inst/O
                         net (fo=0)                   0.000     9.521    O[8]
    AK28                                                              r  O[8] (OUT)
  -------------------------------------------------------------------    -------------------

Slack:                    inf
  Source:                 A[1]
                            (input port)
  Destination:            O[7]
                            (output port)
  Path Group:             (none)
  Path Type:              Max at Slow Process Corner
  Data Path Delay:        8.418ns  (logic 2.838ns (33.707%)  route 5.581ns (66.293%))
  Logic Levels:           10  (IBUF=1 LUT4=1 LUT5=1 LUT6=6 OBUF=1)

    Location             Delay type                Incr(ns)  Path(ns)    Netlist Resource(s)
  -------------------------------------------------------------------    -------------------
    AP27                                              0.000     0.000 r  A[1] (IN)
                         net (fo=0)                   0.000     0.000    A[1]
    AP27                                                              r  A_IBUF[1]_inst/I
    AP27                 IBUF (Prop_ibuf_I_O)         0.593     0.593 r  A_IBUF[1]_inst/O
                         net (fo=21, routed)          1.743     2.337    A_IBUF[1]
    SLICE_X2Y63                                                       r  O_OBUF[4]_inst_i_11/I4
    SLICE_X2Y63          LUT5 (Prop_lut5_I4_O)        0.043     2.380 r  O_OBUF[4]_inst_i_11/O
                         net (fo=2, routed)           0.481     2.861    N_50
    SLICE_X0Y61                                                       r  O_OBUF[4]_inst_i_5/I1
    SLICE_X0Y61          LUT6 (Prop_lut6_I1_O)        0.127     2.988 r  O_OBUF[4]_inst_i_5/O
                         net (fo=3, routed)           0.184     3.172    N_333
    SLICE_X0Y62                                                       r  O_OBUF[5]_inst_i_6/I1
    SLICE_X0Y62          LUT6 (Prop_lut6_I1_O)        0.043     3.215 r  O_OBUF[5]_inst_i_6/O
                         net (fo=3, routed)           0.356     3.570    N_364
    SLICE_X1Y62                                                       r  O_OBUF[5]_inst_i_3/I4
    SLICE_X1Y62          LUT6 (Prop_lut6_I4_O)        0.043     3.613 r  O_OBUF[5]_inst_i_3/O
                         net (fo=3, routed)           0.520     4.134    N_864
    SLICE_X1Y63                                                       r  O_OBUF[6]_inst_i_4/I3
    SLICE_X1Y63          LUT4 (Prop_lut4_I3_O)        0.043     4.177 r  O_OBUF[6]_inst_i_4/O
                         net (fo=3, routed)           0.635     4.812    N_1115
    SLICE_X2Y63                                                       r  O_OBUF[7]_inst_i_4/I3
    SLICE_X2Y63          LUT6 (Prop_lut6_I3_O)        0.043     4.855 r  O_OBUF[7]_inst_i_4/O
                         net (fo=2, routed)           0.356     5.211    N_1383
    SLICE_X2Y65                                                       r  O_OBUF[7]_inst_i_2/I0
    SLICE_X2Y65          LUT6 (Prop_lut6_I0_O)        0.043     5.254 r  O_OBUF[7]_inst_i_2/O
                         net (fo=3, routed)           0.176     5.430    N_1398
    SLICE_X2Y66                                                       r  O_OBUF[7]_inst_i_1/I4
    SLICE_X2Y66          LUT6 (Prop_lut6_I4_O)        0.043     5.473 r  O_OBUF[7]_inst_i_1/O
                         net (fo=1, routed)           1.130     6.602    O_OBUF[7]
    AL28                                                              r  O_OBUF[7]_inst/I
    AL28                 OBUF (Prop_obuf_I_O)         1.816     8.418 r  O_OBUF[7]_inst/O
                         net (fo=0)                   0.000     8.418    O[7]
    AL28                                                              r  O[7] (OUT)
  -------------------------------------------------------------------    -------------------

Slack:                    inf
  Source:                 A[1]
                            (input port)
  Destination:            O[6]
                            (output port)
  Path Group:             (none)
  Path Type:              Max at Slow Process Corner
  Data Path Delay:        8.295ns  (logic 2.895ns (34.899%)  route 5.400ns (65.101%))
  Logic Levels:           9  (IBUF=1 LUT4=2 LUT5=1 LUT6=4 OBUF=1)

    Location             Delay type                Incr(ns)  Path(ns)    Netlist Resource(s)
  -------------------------------------------------------------------    -------------------
    AP27                                              0.000     0.000 r  A[1] (IN)
                         net (fo=0)                   0.000     0.000    A[1]
    AP27                                                              r  A_IBUF[1]_inst/I
    AP27                 IBUF (Prop_ibuf_I_O)         0.593     0.593 r  A_IBUF[1]_inst/O
                         net (fo=21, routed)          1.743     2.337    A_IBUF[1]
    SLICE_X2Y63                                                       r  O_OBUF[4]_inst_i_11/I4
    SLICE_X2Y63          LUT5 (Prop_lut5_I4_O)        0.043     2.380 r  O_OBUF[4]_inst_i_11/O
                         net (fo=2, routed)           0.412     2.791    N_50
    SLICE_X0Y63                                                       r  O_OBUF[4]_inst_i_7/I1
    SLICE_X0Y63          LUT6 (Prop_lut6_I1_O)        0.127     2.918 r  O_OBUF[4]_inst_i_7/O
                         net (fo=3, routed)           0.196     3.114    N_315
    SLICE_X0Y63                                                       r  O_OBUF[4]_inst_i_3/I1
    SLICE_X0Y63          LUT6 (Prop_lut6_I1_O)        0.043     3.157 r  O_OBUF[4]_inst_i_3/O
                         net (fo=4, routed)           0.429     3.586    N_833
    SLICE_X1Y62                                                       r  O_OBUF[6]_inst_i_6/I2
    SLICE_X1Y62          LUT4 (Prop_lut4_I2_O)        0.043     3.629 r  O_OBUF[6]_inst_i_6/O
                         net (fo=2, routed)           0.414     4.043    N_849
    SLICE_X3Y62                                                       r  O_OBUF[6]_inst_i_5/I1
    SLICE_X3Y62          LUT6 (Prop_lut6_I1_O)        0.043     4.086 r  O_OBUF[6]_inst_i_5/O
                         net (fo=3, routed)           0.529     4.614    N_882
    SLICE_X2Y63                                                       r  O_OBUF[6]_inst_i_2/I1
    SLICE_X2Y63          LUT4 (Prop_lut4_I1_O)        0.048     4.662 r  O_OBUF[6]_inst_i_2/O
                         net (fo=2, routed)           0.530     5.192    N_1132
    SLICE_X1Y66                                                       r  O_OBUF[6]_inst_i_1/I4
    SLICE_X1Y66          LUT6 (Prop_lut6_I4_O)        0.132     5.324 r  O_OBUF[6]_inst_i_1/O
                         net (fo=1, routed)           1.148     6.472    O_OBUF[6]
    AK26                                                              r  O_OBUF[6]_inst/I
    AK26                 OBUF (Prop_obuf_I_O)         1.823     8.295 r  O_OBUF[6]_inst/O
                         net (fo=0)                   0.000     8.295    O[6]
    AK26                                                              r  O[6] (OUT)
  -------------------------------------------------------------------    -------------------




