Copyright 1986-2017 Xilinx, Inc. All Rights Reserved.
-----------------------------------------------------------------------------------------------------------------------------------------------------------------------
| Tool Version : Vivado v.2017.1 (win64) Build 1846317 Fri Apr 14 18:55:03 MDT 2017
| Date         : Tue Nov 14 12:25:31 2017
| Host         : cfaed-pdpc003 running 64-bit major release  (build 9200)
| Command      : report_timing -to O -delay_type max -max_paths 10 -sort_by group -input_pins -file C:/Users/sanjeev/Desktop/Reports_EvoLib/tim_460_evolib.txt -name O
| Design       : mul8_460
| Device       : 7vx330t-ffg1157
| Speed File   : -3  PRODUCTION 1.11 2014-09-11
-----------------------------------------------------------------------------------------------------------------------------------------------------------------------

Timing Report

Slack:                    inf
  Source:                 A[3]
                            (input port)
  Destination:            O[14]
                            (output port)
  Path Group:             (none)
  Path Type:              Max at Slow Process Corner
  Data Path Delay:        10.177ns  (logic 3.128ns (30.734%)  route 7.049ns (69.266%))
  Logic Levels:           14  (IBUF=1 LUT4=5 LUT6=7 OBUF=1)

    Location             Delay type                Incr(ns)  Path(ns)    Netlist Resource(s)
  -------------------------------------------------------------------    -------------------
    AP26                                              0.000     0.000 r  A[3] (IN)
                         net (fo=0)                   0.000     0.000    A[3]
    AP26                                                              r  A_IBUF[3]_inst/I
    AP26                 IBUF (Prop_ibuf_I_O)         0.594     0.594 r  A_IBUF[3]_inst/O
                         net (fo=17, routed)          1.333     1.927    A_IBUF[3]
    SLICE_X3Y61                                                       r  O_OBUF[5]_inst_i_5/I3
    SLICE_X3Y61          LUT4 (Prop_lut4_I3_O)        0.043     1.970 r  O_OBUF[5]_inst_i_5/O
                         net (fo=6, routed)           0.183     2.153    N_349
    SLICE_X3Y62                                                       r  O_OBUF[2]_inst_i_6/I0
    SLICE_X3Y62          LUT6 (Prop_lut6_I0_O)        0.043     2.196 r  O_OBUF[2]_inst_i_6/O
                         net (fo=5, routed)           0.523     2.719    N_382
    SLICE_X2Y61                                                       r  O_OBUF[2]_inst_i_3/I2
    SLICE_X2Y61          LUT6 (Prop_lut6_I2_O)        0.043     2.762 r  O_OBUF[2]_inst_i_3/O
                         net (fo=2, routed)           0.414     3.177    N_648
    SLICE_X2Y62                                                       r  O_OBUF[7]_inst_i_6/I1
    SLICE_X2Y62          LUT4 (Prop_lut4_I1_O)        0.048     3.225 r  O_OBUF[7]_inst_i_6/O
                         net (fo=3, routed)           0.580     3.805    N_898
    SLICE_X4Y64                                                       r  O_OBUF[9]_inst_i_7/I4
    SLICE_X4Y64          LUT6 (Prop_lut6_I4_O)        0.132     3.937 r  O_OBUF[9]_inst_i_7/O
                         net (fo=2, routed)           0.344     4.282    N_1399
    SLICE_X2Y64                                                       r  O_OBUF[10]_inst_i_7/I2
    SLICE_X2Y64          LUT6 (Prop_lut6_I2_O)        0.043     4.325 r  O_OBUF[10]_inst_i_7/O
                         net (fo=2, routed)           0.228     4.552    N_1415
    SLICE_X2Y64                                                       r  O_OBUF[10]_inst_i_5/I0
    SLICE_X2Y64          LUT4 (Prop_lut4_I0_O)        0.047     4.599 r  O_OBUF[10]_inst_i_5/O
                         net (fo=3, routed)           0.421     5.020    N_1432
    SLICE_X2Y65                                                       r  O_OBUF[11]_inst_i_4/I3
    SLICE_X2Y65          LUT4 (Prop_lut4_I3_O)        0.127     5.147 r  O_OBUF[11]_inst_i_4/O
                         net (fo=4, routed)           0.377     5.524    N_1683
    SLICE_X1Y63                                                       r  O_OBUF[15]_inst_i_5/I3
    SLICE_X1Y63          LUT6 (Prop_lut6_I3_O)        0.043     5.567 r  O_OBUF[15]_inst_i_5/O
                         net (fo=3, routed)           0.586     6.153    N_1715
    SLICE_X1Y66                                                       r  O_OBUF[13]_inst_i_3/I0
    SLICE_X1Y66          LUT4 (Prop_lut4_I0_O)        0.043     6.196 r  O_OBUF[13]_inst_i_3/O
                         net (fo=3, routed)           0.356     6.552    N_1732
    SLICE_X1Y66                                                       r  O_OBUF[15]_inst_i_4/I4
    SLICE_X1Y66          LUT6 (Prop_lut6_I4_O)        0.043     6.595 r  O_OBUF[15]_inst_i_4/O
                         net (fo=2, routed)           0.421     7.016    N_1999
    SLICE_X0Y66                                                       r  O_OBUF[14]_inst_i_1/I4
    SLICE_X0Y66          LUT6 (Prop_lut6_I4_O)        0.043     7.059 r  O_OBUF[14]_inst_i_1/O
                         net (fo=1, routed)           1.282     8.341    O_OBUF[14]
    AJ29                                                              r  O_OBUF[14]_inst/I
    AJ29                 OBUF (Prop_obuf_I_O)         1.836    10.177 r  O_OBUF[14]_inst/O
                         net (fo=0)                   0.000    10.177    O[14]
    AJ29                                                              r  O[14] (OUT)
  -------------------------------------------------------------------    -------------------

Slack:                    inf
  Source:                 A[3]
                            (input port)
  Destination:            O[15]
                            (output port)
  Path Group:             (none)
  Path Type:              Max at Slow Process Corner
  Data Path Delay:        10.114ns  (logic 3.143ns (31.080%)  route 6.971ns (68.920%))
  Logic Levels:           14  (IBUF=1 LUT4=5 LUT6=7 OBUF=1)

    Location             Delay type                Incr(ns)  Path(ns)    Netlist Resource(s)
  -------------------------------------------------------------------    -------------------
    AP26                                              0.000     0.000 r  A[3] (IN)
                         net (fo=0)                   0.000     0.000    A[3]
    AP26                                                              r  A_IBUF[3]_inst/I
    AP26                 IBUF (Prop_ibuf_I_O)         0.594     0.594 r  A_IBUF[3]_inst/O
                         net (fo=17, routed)          1.333     1.927    A_IBUF[3]
    SLICE_X3Y61                                                       r  O_OBUF[5]_inst_i_5/I3
    SLICE_X3Y61          LUT4 (Prop_lut4_I3_O)        0.043     1.970 r  O_OBUF[5]_inst_i_5/O
                         net (fo=6, routed)           0.183     2.153    N_349
    SLICE_X3Y62                                                       r  O_OBUF[2]_inst_i_6/I0
    SLICE_X3Y62          LUT6 (Prop_lut6_I0_O)        0.043     2.196 r  O_OBUF[2]_inst_i_6/O
                         net (fo=5, routed)           0.523     2.719    N_382
    SLICE_X2Y61                                                       r  O_OBUF[2]_inst_i_3/I2
    SLICE_X2Y61          LUT6 (Prop_lut6_I2_O)        0.043     2.762 r  O_OBUF[2]_inst_i_3/O
                         net (fo=2, routed)           0.414     3.177    N_648
    SLICE_X2Y62                                                       r  O_OBUF[7]_inst_i_6/I1
    SLICE_X2Y62          LUT4 (Prop_lut4_I1_O)        0.048     3.225 r  O_OBUF[7]_inst_i_6/O
                         net (fo=3, routed)           0.580     3.805    N_898
    SLICE_X4Y64                                                       r  O_OBUF[9]_inst_i_7/I4
    SLICE_X4Y64          LUT6 (Prop_lut6_I4_O)        0.132     3.937 r  O_OBUF[9]_inst_i_7/O
                         net (fo=2, routed)           0.344     4.282    N_1399
    SLICE_X2Y64                                                       r  O_OBUF[10]_inst_i_7/I2
    SLICE_X2Y64          LUT6 (Prop_lut6_I2_O)        0.043     4.325 r  O_OBUF[10]_inst_i_7/O
                         net (fo=2, routed)           0.228     4.552    N_1415
    SLICE_X2Y64                                                       r  O_OBUF[10]_inst_i_5/I0
    SLICE_X2Y64          LUT4 (Prop_lut4_I0_O)        0.047     4.599 r  O_OBUF[10]_inst_i_5/O
                         net (fo=3, routed)           0.421     5.020    N_1432
    SLICE_X2Y65                                                       r  O_OBUF[11]_inst_i_4/I3
    SLICE_X2Y65          LUT4 (Prop_lut4_I3_O)        0.127     5.147 r  O_OBUF[11]_inst_i_4/O
                         net (fo=4, routed)           0.377     5.524    N_1683
    SLICE_X1Y63                                                       r  O_OBUF[15]_inst_i_5/I3
    SLICE_X1Y63          LUT6 (Prop_lut6_I3_O)        0.043     5.567 r  O_OBUF[15]_inst_i_5/O
                         net (fo=3, routed)           0.586     6.153    N_1715
    SLICE_X1Y66                                                       r  O_OBUF[13]_inst_i_3/I0
    SLICE_X1Y66          LUT4 (Prop_lut4_I0_O)        0.043     6.196 r  O_OBUF[13]_inst_i_3/O
                         net (fo=3, routed)           0.356     6.552    N_1732
    SLICE_X1Y66                                                       r  O_OBUF[15]_inst_i_4/I4
    SLICE_X1Y66          LUT6 (Prop_lut6_I4_O)        0.043     6.595 r  O_OBUF[15]_inst_i_4/O
                         net (fo=2, routed)           0.253     6.848    N_1999
    SLICE_X0Y66                                                       r  O_OBUF[15]_inst_i_1/I5
    SLICE_X0Y66          LUT6 (Prop_lut6_I5_O)        0.043     6.891 r  O_OBUF[15]_inst_i_1/O
                         net (fo=1, routed)           1.372     8.263    O_OBUF[15]
    AN30                                                              r  O_OBUF[15]_inst/I
    AN30                 OBUF (Prop_obuf_I_O)         1.851    10.114 r  O_OBUF[15]_inst/O
                         net (fo=0)                   0.000    10.114    O[15]
    AN30                                                              r  O[15] (OUT)
  -------------------------------------------------------------------    -------------------

Slack:                    inf
  Source:                 A[3]
                            (input port)
  Destination:            O[12]
                            (output port)
  Path Group:             (none)
  Path Type:              Max at Slow Process Corner
  Data Path Delay:        9.918ns  (logic 3.280ns (33.068%)  route 6.639ns (66.932%))
  Logic Levels:           13  (IBUF=1 LUT4=6 LUT6=5 OBUF=1)

    Location             Delay type                Incr(ns)  Path(ns)    Netlist Resource(s)
  -------------------------------------------------------------------    -------------------
    AP26                                              0.000     0.000 r  A[3] (IN)
                         net (fo=0)                   0.000     0.000    A[3]
    AP26                                                              r  A_IBUF[3]_inst/I
    AP26                 IBUF (Prop_ibuf_I_O)         0.594     0.594 r  A_IBUF[3]_inst/O
                         net (fo=17, routed)          1.333     1.927    A_IBUF[3]
    SLICE_X3Y61                                                       r  O_OBUF[5]_inst_i_5/I3
    SLICE_X3Y61          LUT4 (Prop_lut4_I3_O)        0.043     1.970 r  O_OBUF[5]_inst_i_5/O
                         net (fo=6, routed)           0.183     2.153    N_349
    SLICE_X3Y62                                                       r  O_OBUF[2]_inst_i_6/I0
    SLICE_X3Y62          LUT6 (Prop_lut6_I0_O)        0.043     2.196 r  O_OBUF[2]_inst_i_6/O
                         net (fo=5, routed)           0.523     2.719    N_382
    SLICE_X2Y61                                                       r  O_OBUF[2]_inst_i_3/I2
    SLICE_X2Y61          LUT6 (Prop_lut6_I2_O)        0.043     2.762 r  O_OBUF[2]_inst_i_3/O
                         net (fo=2, routed)           0.414     3.177    N_648
    SLICE_X2Y62                                                       r  O_OBUF[7]_inst_i_6/I1
    SLICE_X2Y62          LUT4 (Prop_lut4_I1_O)        0.048     3.225 r  O_OBUF[7]_inst_i_6/O
                         net (fo=3, routed)           0.580     3.805    N_898
    SLICE_X4Y64                                                       r  O_OBUF[9]_inst_i_7/I4
    SLICE_X4Y64          LUT6 (Prop_lut6_I4_O)        0.132     3.937 r  O_OBUF[9]_inst_i_7/O
                         net (fo=2, routed)           0.344     4.282    N_1399
    SLICE_X2Y64                                                       r  O_OBUF[10]_inst_i_7/I2
    SLICE_X2Y64          LUT6 (Prop_lut6_I2_O)        0.043     4.325 r  O_OBUF[10]_inst_i_7/O
                         net (fo=2, routed)           0.228     4.552    N_1415
    SLICE_X2Y64                                                       r  O_OBUF[10]_inst_i_5/I0
    SLICE_X2Y64          LUT4 (Prop_lut4_I0_O)        0.047     4.599 r  O_OBUF[10]_inst_i_5/O
                         net (fo=3, routed)           0.421     5.020    N_1432
    SLICE_X2Y65                                                       r  O_OBUF[11]_inst_i_4/I3
    SLICE_X2Y65          LUT4 (Prop_lut4_I3_O)        0.127     5.147 r  O_OBUF[11]_inst_i_4/O
                         net (fo=4, routed)           0.489     5.636    N_1683
    SLICE_X0Y63                                                       r  O_OBUF[11]_inst_i_3/I1
    SLICE_X0Y63          LUT6 (Prop_lut6_I1_O)        0.043     5.679 r  O_OBUF[11]_inst_i_3/O
                         net (fo=2, routed)           0.414     6.094    N_1714
    SLICE_X0Y64                                                       r  O_OBUF[13]_inst_i_2/I3
    SLICE_X0Y64          LUT4 (Prop_lut4_I3_O)        0.053     6.147 r  O_OBUF[13]_inst_i_2/O
                         net (fo=3, routed)           0.439     6.586    N_1965
    SLICE_X0Y66                                                       r  O_OBUF[12]_inst_i_1/I0
    SLICE_X0Y66          LUT4 (Prop_lut4_I0_O)        0.136     6.722 r  O_OBUF[12]_inst_i_1/O
                         net (fo=1, routed)           1.269     7.991    O_OBUF[12]
    AL31                                                              r  O_OBUF[12]_inst/I
    AL31                 OBUF (Prop_obuf_I_O)         1.928     9.918 r  O_OBUF[12]_inst/O
                         net (fo=0)                   0.000     9.918    O[12]
    AL31                                                              r  O[12] (OUT)
  -------------------------------------------------------------------    -------------------

Slack:                    inf
  Source:                 A[3]
                            (input port)
  Destination:            O[13]
                            (output port)
  Path Group:             (none)
  Path Type:              Max at Slow Process Corner
  Data Path Delay:        9.813ns  (logic 3.180ns (32.406%)  route 6.633ns (67.594%))
  Logic Levels:           13  (IBUF=1 LUT4=5 LUT6=6 OBUF=1)

    Location             Delay type                Incr(ns)  Path(ns)    Netlist Resource(s)
  -------------------------------------------------------------------    -------------------
    AP26                                              0.000     0.000 r  A[3] (IN)
                         net (fo=0)                   0.000     0.000    A[3]
    AP26                                                              r  A_IBUF[3]_inst/I
    AP26                 IBUF (Prop_ibuf_I_O)         0.594     0.594 r  A_IBUF[3]_inst/O
                         net (fo=17, routed)          1.333     1.927    A_IBUF[3]
    SLICE_X3Y61                                                       r  O_OBUF[5]_inst_i_5/I3
    SLICE_X3Y61          LUT4 (Prop_lut4_I3_O)        0.043     1.970 r  O_OBUF[5]_inst_i_5/O
                         net (fo=6, routed)           0.183     2.153    N_349
    SLICE_X3Y62                                                       r  O_OBUF[2]_inst_i_6/I0
    SLICE_X3Y62          LUT6 (Prop_lut6_I0_O)        0.043     2.196 r  O_OBUF[2]_inst_i_6/O
                         net (fo=5, routed)           0.523     2.719    N_382
    SLICE_X2Y61                                                       r  O_OBUF[2]_inst_i_3/I2
    SLICE_X2Y61          LUT6 (Prop_lut6_I2_O)        0.043     2.762 r  O_OBUF[2]_inst_i_3/O
                         net (fo=2, routed)           0.414     3.177    N_648
    SLICE_X2Y62                                                       r  O_OBUF[7]_inst_i_6/I1
    SLICE_X2Y62          LUT4 (Prop_lut4_I1_O)        0.048     3.225 r  O_OBUF[7]_inst_i_6/O
                         net (fo=3, routed)           0.580     3.805    N_898
    SLICE_X4Y64                                                       r  O_OBUF[9]_inst_i_7/I4
    SLICE_X4Y64          LUT6 (Prop_lut6_I4_O)        0.132     3.937 r  O_OBUF[9]_inst_i_7/O
                         net (fo=2, routed)           0.344     4.282    N_1399
    SLICE_X2Y64                                                       r  O_OBUF[10]_inst_i_7/I2
    SLICE_X2Y64          LUT6 (Prop_lut6_I2_O)        0.043     4.325 r  O_OBUF[10]_inst_i_7/O
                         net (fo=2, routed)           0.228     4.552    N_1415
    SLICE_X2Y64                                                       r  O_OBUF[10]_inst_i_5/I0
    SLICE_X2Y64          LUT4 (Prop_lut4_I0_O)        0.047     4.599 r  O_OBUF[10]_inst_i_5/O
                         net (fo=3, routed)           0.421     5.020    N_1432
    SLICE_X2Y65                                                       r  O_OBUF[11]_inst_i_4/I3
    SLICE_X2Y65          LUT4 (Prop_lut4_I3_O)        0.127     5.147 r  O_OBUF[11]_inst_i_4/O
                         net (fo=4, routed)           0.489     5.636    N_1683
    SLICE_X0Y63                                                       r  O_OBUF[11]_inst_i_3/I1
    SLICE_X0Y63          LUT6 (Prop_lut6_I1_O)        0.043     5.679 r  O_OBUF[11]_inst_i_3/O
                         net (fo=2, routed)           0.414     6.094    N_1714
    SLICE_X0Y64                                                       r  O_OBUF[13]_inst_i_2/I3
    SLICE_X0Y64          LUT4 (Prop_lut4_I3_O)        0.053     6.147 r  O_OBUF[13]_inst_i_2/O
                         net (fo=3, routed)           0.433     6.580    N_1965
    SLICE_X1Y66                                                       r  O_OBUF[13]_inst_i_1/I2
    SLICE_X1Y66          LUT6 (Prop_lut6_I2_O)        0.131     6.711 r  O_OBUF[13]_inst_i_1/O
                         net (fo=1, routed)           1.269     7.980    O_OBUF[13]
    AK29                                                              r  O_OBUF[13]_inst/I
    AK29                 OBUF (Prop_obuf_I_O)         1.833     9.813 r  O_OBUF[13]_inst/O
                         net (fo=0)                   0.000     9.813    O[13]
    AK29                                                              r  O[13] (OUT)
  -------------------------------------------------------------------    -------------------

Slack:                    inf
  Source:                 A[3]
                            (input port)
  Destination:            O[11]
                            (output port)
  Path Group:             (none)
  Path Type:              Max at Slow Process Corner
  Data Path Delay:        9.247ns  (logic 3.047ns (32.956%)  route 6.199ns (67.044%))
  Logic Levels:           12  (IBUF=1 LUT4=5 LUT6=5 OBUF=1)

    Location             Delay type                Incr(ns)  Path(ns)    Netlist Resource(s)
  -------------------------------------------------------------------    -------------------
    AP26                                              0.000     0.000 r  A[3] (IN)
                         net (fo=0)                   0.000     0.000    A[3]
    AP26                                                              r  A_IBUF[3]_inst/I
    AP26                 IBUF (Prop_ibuf_I_O)         0.594     0.594 r  A_IBUF[3]_inst/O
                         net (fo=17, routed)          1.333     1.927    A_IBUF[3]
    SLICE_X3Y61                                                       r  O_OBUF[5]_inst_i_5/I3
    SLICE_X3Y61          LUT4 (Prop_lut4_I3_O)        0.043     1.970 r  O_OBUF[5]_inst_i_5/O
                         net (fo=6, routed)           0.183     2.153    N_349
    SLICE_X3Y62                                                       r  O_OBUF[2]_inst_i_6/I0
    SLICE_X3Y62          LUT6 (Prop_lut6_I0_O)        0.043     2.196 r  O_OBUF[2]_inst_i_6/O
                         net (fo=5, routed)           0.523     2.719    N_382
    SLICE_X2Y61                                                       r  O_OBUF[2]_inst_i_3/I2
    SLICE_X2Y61          LUT6 (Prop_lut6_I2_O)        0.043     2.762 r  O_OBUF[2]_inst_i_3/O
                         net (fo=2, routed)           0.414     3.177    N_648
    SLICE_X2Y62                                                       r  O_OBUF[7]_inst_i_6/I1
    SLICE_X2Y62          LUT4 (Prop_lut4_I1_O)        0.048     3.225 r  O_OBUF[7]_inst_i_6/O
                         net (fo=3, routed)           0.580     3.805    N_898
    SLICE_X4Y64                                                       r  O_OBUF[9]_inst_i_7/I4
    SLICE_X4Y64          LUT6 (Prop_lut6_I4_O)        0.132     3.937 r  O_OBUF[9]_inst_i_7/O
                         net (fo=2, routed)           0.344     4.282    N_1399
    SLICE_X2Y64                                                       r  O_OBUF[10]_inst_i_7/I2
    SLICE_X2Y64          LUT6 (Prop_lut6_I2_O)        0.043     4.325 r  O_OBUF[10]_inst_i_7/O
                         net (fo=2, routed)           0.228     4.552    N_1415
    SLICE_X2Y64                                                       r  O_OBUF[10]_inst_i_5/I0
    SLICE_X2Y64          LUT4 (Prop_lut4_I0_O)        0.047     4.599 r  O_OBUF[10]_inst_i_5/O
                         net (fo=3, routed)           0.421     5.020    N_1432
    SLICE_X2Y65                                                       r  O_OBUF[11]_inst_i_4/I3
    SLICE_X2Y65          LUT4 (Prop_lut4_I3_O)        0.127     5.147 r  O_OBUF[11]_inst_i_4/O
                         net (fo=4, routed)           0.489     5.636    N_1683
    SLICE_X0Y63                                                       r  O_OBUF[11]_inst_i_3/I1
    SLICE_X0Y63          LUT6 (Prop_lut6_I1_O)        0.043     5.679 r  O_OBUF[11]_inst_i_3/O
                         net (fo=2, routed)           0.414     6.094    N_1714
    SLICE_X0Y64                                                       r  O_OBUF[11]_inst_i_1/I1
    SLICE_X0Y64          LUT4 (Prop_lut4_I1_O)        0.043     6.137 r  O_OBUF[11]_inst_i_1/O
                         net (fo=1, routed)           1.269     7.405    O_OBUF[11]
    AM31                                                              r  O_OBUF[11]_inst/I
    AM31                 OBUF (Prop_obuf_I_O)         1.841     9.247 r  O_OBUF[11]_inst/O
                         net (fo=0)                   0.000     9.247    O[11]
    AM31                                                              r  O[11] (OUT)
  -------------------------------------------------------------------    -------------------

Slack:                    inf
  Source:                 A[3]
                            (input port)
  Destination:            O[10]
                            (output port)
  Path Group:             (none)
  Path Type:              Max at Slow Process Corner
  Data Path Delay:        9.021ns  (logic 3.036ns (33.658%)  route 5.985ns (66.342%))
  Logic Levels:           12  (IBUF=1 LUT4=6 LUT6=4 OBUF=1)

    Location             Delay type                Incr(ns)  Path(ns)    Netlist Resource(s)
  -------------------------------------------------------------------    -------------------
    AP26                                              0.000     0.000 r  A[3] (IN)
                         net (fo=0)                   0.000     0.000    A[3]
    AP26                                                              r  A_IBUF[3]_inst/I
    AP26                 IBUF (Prop_ibuf_I_O)         0.594     0.594 r  A_IBUF[3]_inst/O
                         net (fo=17, routed)          1.333     1.927    A_IBUF[3]
    SLICE_X3Y61                                                       r  O_OBUF[5]_inst_i_5/I3
    SLICE_X3Y61          LUT4 (Prop_lut4_I3_O)        0.043     1.970 r  O_OBUF[5]_inst_i_5/O
                         net (fo=6, routed)           0.183     2.153    N_349
    SLICE_X3Y62                                                       r  O_OBUF[2]_inst_i_6/I0
    SLICE_X3Y62          LUT6 (Prop_lut6_I0_O)        0.043     2.196 r  O_OBUF[2]_inst_i_6/O
                         net (fo=5, routed)           0.523     2.719    N_382
    SLICE_X2Y61                                                       r  O_OBUF[2]_inst_i_3/I2
    SLICE_X2Y61          LUT6 (Prop_lut6_I2_O)        0.043     2.762 r  O_OBUF[2]_inst_i_3/O
                         net (fo=2, routed)           0.414     3.177    N_648
    SLICE_X2Y62                                                       r  O_OBUF[7]_inst_i_6/I1
    SLICE_X2Y62          LUT4 (Prop_lut4_I1_O)        0.048     3.225 r  O_OBUF[7]_inst_i_6/O
                         net (fo=3, routed)           0.580     3.805    N_898
    SLICE_X4Y64                                                       r  O_OBUF[9]_inst_i_7/I4
    SLICE_X4Y64          LUT6 (Prop_lut6_I4_O)        0.132     3.937 r  O_OBUF[9]_inst_i_7/O
                         net (fo=2, routed)           0.344     4.282    N_1399
    SLICE_X2Y64                                                       r  O_OBUF[10]_inst_i_7/I2
    SLICE_X2Y64          LUT6 (Prop_lut6_I2_O)        0.043     4.325 r  O_OBUF[10]_inst_i_7/O
                         net (fo=2, routed)           0.228     4.552    N_1415
    SLICE_X2Y64                                                       r  O_OBUF[10]_inst_i_5/I0
    SLICE_X2Y64          LUT4 (Prop_lut4_I0_O)        0.047     4.599 r  O_OBUF[10]_inst_i_5/O
                         net (fo=3, routed)           0.421     5.020    N_1432
    SLICE_X2Y65                                                       r  O_OBUF[11]_inst_i_4/I3
    SLICE_X2Y65          LUT4 (Prop_lut4_I3_O)        0.127     5.147 r  O_OBUF[11]_inst_i_4/O
                         net (fo=4, routed)           0.418     5.566    N_1683
    SLICE_X0Y64                                                       r  O_OBUF[10]_inst_i_3/I0
    SLICE_X0Y64          LUT4 (Prop_lut4_I0_O)        0.043     5.609 r  O_OBUF[10]_inst_i_3/O
                         net (fo=1, routed)           0.246     5.855    N_1698
    SLICE_X1Y64                                                       r  O_OBUF[10]_inst_i_1/I1
    SLICE_X1Y64          LUT4 (Prop_lut4_I1_O)        0.043     5.898 r  O_OBUF[10]_inst_i_1/O
                         net (fo=1, routed)           1.293     7.191    O_OBUF[10]
    AL29                                                              r  O_OBUF[10]_inst/I
    AL29                 OBUF (Prop_obuf_I_O)         1.830     9.021 r  O_OBUF[10]_inst/O
                         net (fo=0)                   0.000     9.021    O[10]
    AL29                                                              r  O[10] (OUT)
  -------------------------------------------------------------------    -------------------

Slack:                    inf
  Source:                 A[3]
                            (input port)
  Destination:            O[9]
                            (output port)
  Path Group:             (none)
  Path Type:              Max at Slow Process Corner
  Data Path Delay:        8.735ns  (logic 3.079ns (35.244%)  route 5.656ns (64.756%))
  Logic Levels:           11  (IBUF=1 LUT4=5 LUT6=4 OBUF=1)

    Location             Delay type                Incr(ns)  Path(ns)    Netlist Resource(s)
  -------------------------------------------------------------------    -------------------
    AP26                                              0.000     0.000 r  A[3] (IN)
                         net (fo=0)                   0.000     0.000    A[3]
    AP26                                                              r  A_IBUF[3]_inst/I
    AP26                 IBUF (Prop_ibuf_I_O)         0.594     0.594 r  A_IBUF[3]_inst/O
                         net (fo=17, routed)          1.333     1.927    A_IBUF[3]
    SLICE_X3Y61                                                       r  O_OBUF[5]_inst_i_5/I3
    SLICE_X3Y61          LUT4 (Prop_lut4_I3_O)        0.043     1.970 r  O_OBUF[5]_inst_i_5/O
                         net (fo=6, routed)           0.183     2.153    N_349
    SLICE_X3Y62                                                       r  O_OBUF[2]_inst_i_6/I0
    SLICE_X3Y62          LUT6 (Prop_lut6_I0_O)        0.043     2.196 r  O_OBUF[2]_inst_i_6/O
                         net (fo=5, routed)           0.523     2.719    N_382
    SLICE_X2Y61                                                       r  O_OBUF[2]_inst_i_3/I2
    SLICE_X2Y61          LUT6 (Prop_lut6_I2_O)        0.043     2.762 r  O_OBUF[2]_inst_i_3/O
                         net (fo=2, routed)           0.414     3.177    N_648
    SLICE_X2Y62                                                       r  O_OBUF[7]_inst_i_6/I1
    SLICE_X2Y62          LUT4 (Prop_lut4_I1_O)        0.048     3.225 r  O_OBUF[7]_inst_i_6/O
                         net (fo=3, routed)           0.580     3.805    N_898
    SLICE_X4Y64                                                       r  O_OBUF[9]_inst_i_7/I4
    SLICE_X4Y64          LUT6 (Prop_lut6_I4_O)        0.132     3.937 r  O_OBUF[9]_inst_i_7/O
                         net (fo=2, routed)           0.344     4.282    N_1399
    SLICE_X2Y64                                                       r  O_OBUF[10]_inst_i_7/I2
    SLICE_X2Y64          LUT6 (Prop_lut6_I2_O)        0.043     4.325 r  O_OBUF[10]_inst_i_7/O
                         net (fo=2, routed)           0.228     4.552    N_1415
    SLICE_X2Y64                                                       r  O_OBUF[10]_inst_i_5/I0
    SLICE_X2Y64          LUT4 (Prop_lut4_I0_O)        0.047     4.599 r  O_OBUF[10]_inst_i_5/O
                         net (fo=3, routed)           0.421     5.020    N_1432
    SLICE_X2Y65                                                       r  O_OBUF[9]_inst_i_3/I1
    SLICE_X2Y65          LUT4 (Prop_lut4_I1_O)        0.127     5.147 r  O_OBUF[9]_inst_i_3/O
                         net (fo=1, routed)           0.439     5.587    N_1682
    SLICE_X2Y65                                                       r  O_OBUF[9]_inst_i_1/I1
    SLICE_X2Y65          LUT4 (Prop_lut4_I1_O)        0.127     5.714 r  O_OBUF[9]_inst_i_1/O
                         net (fo=1, routed)           1.190     6.904    O_OBUF[9]
    AL30                                                              r  O_OBUF[9]_inst/I
    AL30                 OBUF (Prop_obuf_I_O)         1.831     8.735 r  O_OBUF[9]_inst/O
                         net (fo=0)                   0.000     8.735    O[9]
    AL30                                                              r  O[9] (OUT)
  -------------------------------------------------------------------    -------------------

Slack:                    inf
  Source:                 A[3]
                            (input port)
  Destination:            O[8]
                            (output port)
  Path Group:             (none)
  Path Type:              Max at Slow Process Corner
  Data Path Delay:        8.377ns  (logic 2.935ns (35.036%)  route 5.442ns (64.964%))
  Logic Levels:           10  (IBUF=1 LUT4=4 LUT6=4 OBUF=1)

    Location             Delay type                Incr(ns)  Path(ns)    Netlist Resource(s)
  -------------------------------------------------------------------    -------------------
    AP26                                              0.000     0.000 r  A[3] (IN)
                         net (fo=0)                   0.000     0.000    A[3]
    AP26                                                              r  A_IBUF[3]_inst/I
    AP26                 IBUF (Prop_ibuf_I_O)         0.594     0.594 r  A_IBUF[3]_inst/O
                         net (fo=17, routed)          1.333     1.927    A_IBUF[3]
    SLICE_X3Y61                                                       r  O_OBUF[5]_inst_i_5/I3
    SLICE_X3Y61          LUT4 (Prop_lut4_I3_O)        0.043     1.970 r  O_OBUF[5]_inst_i_5/O
                         net (fo=6, routed)           0.183     2.153    N_349
    SLICE_X3Y62                                                       r  O_OBUF[2]_inst_i_6/I0
    SLICE_X3Y62          LUT6 (Prop_lut6_I0_O)        0.043     2.196 r  O_OBUF[2]_inst_i_6/O
                         net (fo=5, routed)           0.523     2.719    N_382
    SLICE_X2Y61                                                       r  O_OBUF[2]_inst_i_3/I2
    SLICE_X2Y61          LUT6 (Prop_lut6_I2_O)        0.043     2.762 r  O_OBUF[2]_inst_i_3/O
                         net (fo=2, routed)           0.414     3.177    N_648
    SLICE_X2Y62                                                       r  O_OBUF[7]_inst_i_6/I1
    SLICE_X2Y62          LUT4 (Prop_lut4_I1_O)        0.048     3.225 r  O_OBUF[7]_inst_i_6/O
                         net (fo=3, routed)           0.580     3.805    N_898
    SLICE_X4Y64                                                       r  O_OBUF[9]_inst_i_7/I4
    SLICE_X4Y64          LUT6 (Prop_lut6_I4_O)        0.132     3.937 r  O_OBUF[9]_inst_i_7/O
                         net (fo=2, routed)           0.304     4.242    N_1399
    SLICE_X3Y64                                                       r  O_OBUF[9]_inst_i_6/I0
    SLICE_X3Y64          LUT6 (Prop_lut6_I0_O)        0.043     4.285 r  O_OBUF[9]_inst_i_6/O
                         net (fo=3, routed)           0.445     4.730    N_1414
    SLICE_X2Y66                                                       r  O_OBUF[8]_inst_i_3/I1
    SLICE_X2Y66          LUT4 (Prop_lut4_I1_O)        0.043     4.773 r  O_OBUF[8]_inst_i_3/O
                         net (fo=1, routed)           0.439     5.212    N_1664
    SLICE_X2Y66                                                       r  O_OBUF[8]_inst_i_1/I1
    SLICE_X2Y66          LUT4 (Prop_lut4_I1_O)        0.127     5.339 r  O_OBUF[8]_inst_i_1/O
                         net (fo=1, routed)           1.219     6.558    O_OBUF[8]
    AK28                                                              r  O_OBUF[8]_inst/I
    AK28                 OBUF (Prop_obuf_I_O)         1.819     8.377 r  O_OBUF[8]_inst/O
                         net (fo=0)                   0.000     8.377    O[8]
    AK28                                                              r  O[8] (OUT)
  -------------------------------------------------------------------    -------------------

Slack:                    inf
  Source:                 A[3]
                            (input port)
  Destination:            O[7]
                            (output port)
  Path Group:             (none)
  Path Type:              Max at Slow Process Corner
  Data Path Delay:        7.488ns  (logic 2.763ns (36.891%)  route 4.726ns (63.109%))
  Logic Levels:           8  (IBUF=1 LUT4=2 LUT6=4 OBUF=1)

    Location             Delay type                Incr(ns)  Path(ns)    Netlist Resource(s)
  -------------------------------------------------------------------    -------------------
    AP26                                              0.000     0.000 r  A[3] (IN)
                         net (fo=0)                   0.000     0.000    A[3]
    AP26                                                              r  A_IBUF[3]_inst/I
    AP26                 IBUF (Prop_ibuf_I_O)         0.594     0.594 r  A_IBUF[3]_inst/O
                         net (fo=17, routed)          1.333     1.927    A_IBUF[3]
    SLICE_X3Y61                                                       r  O_OBUF[5]_inst_i_5/I3
    SLICE_X3Y61          LUT4 (Prop_lut4_I3_O)        0.043     1.970 r  O_OBUF[5]_inst_i_5/O
                         net (fo=6, routed)           0.183     2.153    N_349
    SLICE_X3Y62                                                       r  O_OBUF[2]_inst_i_6/I0
    SLICE_X3Y62          LUT6 (Prop_lut6_I0_O)        0.043     2.196 r  O_OBUF[2]_inst_i_6/O
                         net (fo=5, routed)           0.523     2.719    N_382
    SLICE_X2Y61                                                       r  O_OBUF[2]_inst_i_3/I2
    SLICE_X2Y61          LUT6 (Prop_lut6_I2_O)        0.043     2.762 r  O_OBUF[2]_inst_i_3/O
                         net (fo=2, routed)           0.414     3.177    N_648
    SLICE_X2Y62                                                       r  O_OBUF[7]_inst_i_6/I1
    SLICE_X2Y62          LUT4 (Prop_lut4_I1_O)        0.048     3.225 r  O_OBUF[7]_inst_i_6/O
                         net (fo=3, routed)           0.507     3.732    N_898
    SLICE_X4Y64                                                       r  O_OBUF[7]_inst_i_2/I2
    SLICE_X4Y64          LUT6 (Prop_lut6_I2_O)        0.132     3.864 r  O_OBUF[7]_inst_i_2/O
                         net (fo=3, routed)           0.618     4.482    N_1398
    SLICE_X2Y66                                                       r  O_OBUF[7]_inst_i_1/I4
    SLICE_X2Y66          LUT6 (Prop_lut6_I4_O)        0.043     4.525 r  O_OBUF[7]_inst_i_1/O
                         net (fo=1, routed)           1.147     5.672    O_OBUF[7]
    AL28                                                              r  O_OBUF[7]_inst/I
    AL28                 OBUF (Prop_obuf_I_O)         1.816     7.488 r  O_OBUF[7]_inst/O
                         net (fo=0)                   0.000     7.488    O[7]
    AL28                                                              r  O[7] (OUT)
  -------------------------------------------------------------------    -------------------

Slack:                    inf
  Source:                 A[3]
                            (input port)
  Destination:            O[6]
                            (output port)
  Path Group:             (none)
  Path Type:              Max at Slow Process Corner
  Data Path Delay:        6.532ns  (logic 2.726ns (41.727%)  route 3.806ns (58.273%))
  Logic Levels:           7  (IBUF=1 LUT4=2 LUT6=3 OBUF=1)

    Location             Delay type                Incr(ns)  Path(ns)    Netlist Resource(s)
  -------------------------------------------------------------------    -------------------
    AP26                                              0.000     0.000 r  A[3] (IN)
                         net (fo=0)                   0.000     0.000    A[3]
    AP26                                                              r  A_IBUF[3]_inst/I
    AP26                 IBUF (Prop_ibuf_I_O)         0.594     0.594 r  A_IBUF[3]_inst/O
                         net (fo=17, routed)          1.333     1.927    A_IBUF[3]
    SLICE_X3Y61                                                       r  O_OBUF[5]_inst_i_5/I3
    SLICE_X3Y61          LUT4 (Prop_lut4_I3_O)        0.043     1.970 r  O_OBUF[5]_inst_i_5/O
                         net (fo=6, routed)           0.261     2.231    N_349
    SLICE_X1Y62                                                       r  O_OBUF[2]_inst_i_5/I1
    SLICE_X1Y62          LUT6 (Prop_lut6_I1_O)        0.043     2.274 r  O_OBUF[2]_inst_i_5/O
                         net (fo=5, routed)           0.431     2.706    N_615
    SLICE_X2Y62                                                       r  O_OBUF[6]_inst_i_5/I1
    SLICE_X2Y62          LUT6 (Prop_lut6_I1_O)        0.043     2.749 r  O_OBUF[6]_inst_i_5/O
                         net (fo=3, routed)           0.439     3.187    N_882
    SLICE_X2Y64                                                       r  O_OBUF[6]_inst_i_2/I1
    SLICE_X2Y64          LUT4 (Prop_lut4_I1_O)        0.048     3.235 r  O_OBUF[6]_inst_i_2/O
                         net (fo=2, routed)           0.217     3.452    N_1132
    SLICE_X1Y65                                                       r  O_OBUF[6]_inst_i_1/I4
    SLICE_X1Y65          LUT6 (Prop_lut6_I4_O)        0.132     3.584 r  O_OBUF[6]_inst_i_1/O
                         net (fo=1, routed)           1.125     4.710    O_OBUF[6]
    AK26                                                              r  O_OBUF[6]_inst/I
    AK26                 OBUF (Prop_obuf_I_O)         1.823     6.532 r  O_OBUF[6]_inst/O
                         net (fo=0)                   0.000     6.532    O[6]
    AK26                                                              r  O[6] (OUT)
  -------------------------------------------------------------------    -------------------




