Copyright 1986-2017 Xilinx, Inc. All Rights Reserved.
-----------------------------------------------------------------------------------------------------------------------------------------------------------------------
| Tool Version : Vivado v.2017.1 (win64) Build 1846317 Fri Apr 14 18:55:03 MDT 2017
| Date         : Tue Nov 14 04:32:39 2017
| Host         : cfaed-pdpc003 running 64-bit major release  (build 9200)
| Command      : report_timing -to O -delay_type max -max_paths 10 -sort_by group -input_pins -file C:/Users/sanjeev/Desktop/Reports_EvoLib/tim_303_evolib.txt -name O
| Design       : mul8_303
| Device       : 7vx330t-ffg1157
| Speed File   : -3  PRODUCTION 1.11 2014-09-11
-----------------------------------------------------------------------------------------------------------------------------------------------------------------------

Timing Report

Slack:                    inf
  Source:                 A[1]
                            (input port)
  Destination:            O[14]
                            (output port)
  Path Group:             (none)
  Path Type:              Max at Slow Process Corner
  Data Path Delay:        10.555ns  (logic 3.128ns (29.634%)  route 7.427ns (70.366%))
  Logic Levels:           14  (IBUF=1 LUT2=1 LUT4=2 LUT6=9 OBUF=1)

    Location             Delay type                Incr(ns)  Path(ns)    Netlist Resource(s)
  -------------------------------------------------------------------    -------------------
    AP27                                              0.000     0.000 f  A[1] (IN)
                         net (fo=0)                   0.000     0.000    A[1]
    AP27                                                              f  A_IBUF[1]_inst/I
    AP27                 IBUF (Prop_ibuf_I_O)         0.593     0.593 f  A_IBUF[1]_inst/O
                         net (fo=21, routed)          1.065     1.658    A_IBUF[1]
    SLICE_X2Y62                                                       f  O_OBUF[5]_inst_i_9/I1
    SLICE_X2Y62          LUT2 (Prop_lut2_I1_O)        0.050     1.708 r  O_OBUF[5]_inst_i_9/O
                         net (fo=1, routed)           0.418     2.126    O_OBUF[5]_inst_i_9_n_0
    SLICE_X1Y63                                                       r  O_OBUF[5]_inst_i_4/I2
    SLICE_X1Y63          LUT6 (Prop_lut6_I2_O)        0.127     2.253 r  O_OBUF[5]_inst_i_4/O
                         net (fo=3, routed)           0.529     2.782    N_582
    SLICE_X2Y63                                                       r  O_OBUF[5]_inst_i_3/I1
    SLICE_X2Y63          LUT6 (Prop_lut6_I1_O)        0.043     2.825 r  O_OBUF[5]_inst_i_3/O
                         net (fo=3, routed)           0.554     3.379    N_864
    SLICE_X1Y65                                                       r  O_OBUF[7]_inst_i_7/I3
    SLICE_X1Y65          LUT4 (Prop_lut4_I3_O)        0.043     3.422 r  O_OBUF[7]_inst_i_7/O
                         net (fo=5, routed)           0.429     3.850    N_1115
    SLICE_X1Y63                                                       r  O_OBUF[9]_inst_i_12/I3
    SLICE_X1Y63          LUT6 (Prop_lut6_I3_O)        0.043     3.893 r  O_OBUF[9]_inst_i_12/O
                         net (fo=3, routed)           0.416     4.309    N_1149
    SLICE_X3Y63                                                       r  O_OBUF[15]_inst_i_10/I3
    SLICE_X3Y63          LUT6 (Prop_lut6_I3_O)        0.043     4.352 r  O_OBUF[15]_inst_i_10/O
                         net (fo=3, routed)           0.225     4.577    N_1183
    SLICE_X4Y63                                                       r  O_OBUF[15]_inst_i_16/I0
    SLICE_X4Y63          LUT4 (Prop_lut4_I0_O)        0.049     4.626 r  O_OBUF[15]_inst_i_16/O
                         net (fo=3, routed)           0.511     5.137    N_1198
    SLICE_X3Y64                                                       r  O_OBUF[11]_inst_i_7/I2
    SLICE_X3Y64          LUT6 (Prop_lut6_I2_O)        0.129     5.266 r  O_OBUF[11]_inst_i_7/O
                         net (fo=2, routed)           0.592     5.858    N_1464
    SLICE_X3Y66                                                       r  O_OBUF[11]_inst_i_4/I3
    SLICE_X3Y66          LUT6 (Prop_lut6_I3_O)        0.043     5.901 r  O_OBUF[11]_inst_i_4/O
                         net (fo=2, routed)           0.499     6.400    N_1714
    SLICE_X1Y66                                                       r  O_OBUF[13]_inst_i_2/I5
    SLICE_X1Y66          LUT6 (Prop_lut6_I5_O)        0.043     6.443 r  O_OBUF[13]_inst_i_2/O
                         net (fo=3, routed)           0.430     6.873    N_1965
    SLICE_X1Y64                                                       r  O_OBUF[15]_inst_i_4/I3
    SLICE_X1Y64          LUT6 (Prop_lut6_I3_O)        0.043     6.916 r  O_OBUF[15]_inst_i_4/O
                         net (fo=2, routed)           0.346     7.262    N_1999
    SLICE_X0Y64                                                       r  O_OBUF[14]_inst_i_1/I4
    SLICE_X0Y64          LUT6 (Prop_lut6_I4_O)        0.043     7.305 r  O_OBUF[14]_inst_i_1/O
                         net (fo=1, routed)           1.414     8.719    O_OBUF[14]
    AJ29                                                              r  O_OBUF[14]_inst/I
    AJ29                 OBUF (Prop_obuf_I_O)         1.836    10.555 r  O_OBUF[14]_inst/O
                         net (fo=0)                   0.000    10.555    O[14]
    AJ29                                                              r  O[14] (OUT)
  -------------------------------------------------------------------    -------------------

Slack:                    inf
  Source:                 A[1]
                            (input port)
  Destination:            O[15]
                            (output port)
  Path Group:             (none)
  Path Type:              Max at Slow Process Corner
  Data Path Delay:        10.464ns  (logic 3.144ns (30.042%)  route 7.320ns (69.958%))
  Logic Levels:           14  (IBUF=1 LUT2=1 LUT4=2 LUT6=9 OBUF=1)

    Location             Delay type                Incr(ns)  Path(ns)    Netlist Resource(s)
  -------------------------------------------------------------------    -------------------
    AP27                                              0.000     0.000 f  A[1] (IN)
                         net (fo=0)                   0.000     0.000    A[1]
    AP27                                                              f  A_IBUF[1]_inst/I
    AP27                 IBUF (Prop_ibuf_I_O)         0.593     0.593 f  A_IBUF[1]_inst/O
                         net (fo=21, routed)          1.065     1.658    A_IBUF[1]
    SLICE_X2Y62                                                       f  O_OBUF[5]_inst_i_9/I1
    SLICE_X2Y62          LUT2 (Prop_lut2_I1_O)        0.050     1.708 r  O_OBUF[5]_inst_i_9/O
                         net (fo=1, routed)           0.418     2.126    O_OBUF[5]_inst_i_9_n_0
    SLICE_X1Y63                                                       r  O_OBUF[5]_inst_i_4/I2
    SLICE_X1Y63          LUT6 (Prop_lut6_I2_O)        0.127     2.253 r  O_OBUF[5]_inst_i_4/O
                         net (fo=3, routed)           0.529     2.782    N_582
    SLICE_X2Y63                                                       r  O_OBUF[5]_inst_i_3/I1
    SLICE_X2Y63          LUT6 (Prop_lut6_I1_O)        0.043     2.825 r  O_OBUF[5]_inst_i_3/O
                         net (fo=3, routed)           0.554     3.379    N_864
    SLICE_X1Y65                                                       r  O_OBUF[7]_inst_i_7/I3
    SLICE_X1Y65          LUT4 (Prop_lut4_I3_O)        0.043     3.422 r  O_OBUF[7]_inst_i_7/O
                         net (fo=5, routed)           0.429     3.850    N_1115
    SLICE_X1Y63                                                       r  O_OBUF[9]_inst_i_12/I3
    SLICE_X1Y63          LUT6 (Prop_lut6_I3_O)        0.043     3.893 r  O_OBUF[9]_inst_i_12/O
                         net (fo=3, routed)           0.416     4.309    N_1149
    SLICE_X3Y63                                                       r  O_OBUF[15]_inst_i_10/I3
    SLICE_X3Y63          LUT6 (Prop_lut6_I3_O)        0.043     4.352 r  O_OBUF[15]_inst_i_10/O
                         net (fo=3, routed)           0.225     4.577    N_1183
    SLICE_X4Y63                                                       r  O_OBUF[15]_inst_i_16/I0
    SLICE_X4Y63          LUT4 (Prop_lut4_I0_O)        0.049     4.626 r  O_OBUF[15]_inst_i_16/O
                         net (fo=3, routed)           0.511     5.137    N_1198
    SLICE_X3Y64                                                       r  O_OBUF[11]_inst_i_7/I2
    SLICE_X3Y64          LUT6 (Prop_lut6_I2_O)        0.129     5.266 r  O_OBUF[11]_inst_i_7/O
                         net (fo=2, routed)           0.592     5.858    N_1464
    SLICE_X3Y66                                                       r  O_OBUF[11]_inst_i_4/I3
    SLICE_X3Y66          LUT6 (Prop_lut6_I3_O)        0.043     5.901 r  O_OBUF[11]_inst_i_4/O
                         net (fo=2, routed)           0.499     6.400    N_1714
    SLICE_X1Y66                                                       r  O_OBUF[13]_inst_i_2/I5
    SLICE_X1Y66          LUT6 (Prop_lut6_I5_O)        0.043     6.443 r  O_OBUF[13]_inst_i_2/O
                         net (fo=3, routed)           0.430     6.873    N_1965
    SLICE_X1Y64                                                       r  O_OBUF[15]_inst_i_4/I3
    SLICE_X1Y64          LUT6 (Prop_lut6_I3_O)        0.043     6.916 r  O_OBUF[15]_inst_i_4/O
                         net (fo=2, routed)           0.326     7.242    N_1999
    SLICE_X0Y64                                                       r  O_OBUF[15]_inst_i_1/I5
    SLICE_X0Y64          LUT6 (Prop_lut6_I5_O)        0.043     7.285 r  O_OBUF[15]_inst_i_1/O
                         net (fo=1, routed)           1.328     8.613    O_OBUF[15]
    AN30                                                              r  O_OBUF[15]_inst/I
    AN30                 OBUF (Prop_obuf_I_O)         1.851    10.464 r  O_OBUF[15]_inst/O
                         net (fo=0)                   0.000    10.464    O[15]
    AN30                                                              r  O[15] (OUT)
  -------------------------------------------------------------------    -------------------

Slack:                    inf
  Source:                 A[1]
                            (input port)
  Destination:            O[13]
                            (output port)
  Path Group:             (none)
  Path Type:              Max at Slow Process Corner
  Data Path Delay:        10.071ns  (logic 3.082ns (30.602%)  route 6.989ns (69.398%))
  Logic Levels:           13  (IBUF=1 LUT2=1 LUT4=2 LUT6=8 OBUF=1)

    Location             Delay type                Incr(ns)  Path(ns)    Netlist Resource(s)
  -------------------------------------------------------------------    -------------------
    AP27                                              0.000     0.000 f  A[1] (IN)
                         net (fo=0)                   0.000     0.000    A[1]
    AP27                                                              f  A_IBUF[1]_inst/I
    AP27                 IBUF (Prop_ibuf_I_O)         0.593     0.593 f  A_IBUF[1]_inst/O
                         net (fo=21, routed)          1.065     1.658    A_IBUF[1]
    SLICE_X2Y62                                                       f  O_OBUF[5]_inst_i_9/I1
    SLICE_X2Y62          LUT2 (Prop_lut2_I1_O)        0.050     1.708 r  O_OBUF[5]_inst_i_9/O
                         net (fo=1, routed)           0.418     2.126    O_OBUF[5]_inst_i_9_n_0
    SLICE_X1Y63                                                       r  O_OBUF[5]_inst_i_4/I2
    SLICE_X1Y63          LUT6 (Prop_lut6_I2_O)        0.127     2.253 r  O_OBUF[5]_inst_i_4/O
                         net (fo=3, routed)           0.529     2.782    N_582
    SLICE_X2Y63                                                       r  O_OBUF[5]_inst_i_3/I1
    SLICE_X2Y63          LUT6 (Prop_lut6_I1_O)        0.043     2.825 r  O_OBUF[5]_inst_i_3/O
                         net (fo=3, routed)           0.554     3.379    N_864
    SLICE_X1Y65                                                       r  O_OBUF[7]_inst_i_7/I3
    SLICE_X1Y65          LUT4 (Prop_lut4_I3_O)        0.043     3.422 r  O_OBUF[7]_inst_i_7/O
                         net (fo=5, routed)           0.429     3.850    N_1115
    SLICE_X1Y63                                                       r  O_OBUF[9]_inst_i_12/I3
    SLICE_X1Y63          LUT6 (Prop_lut6_I3_O)        0.043     3.893 r  O_OBUF[9]_inst_i_12/O
                         net (fo=3, routed)           0.416     4.309    N_1149
    SLICE_X3Y63                                                       r  O_OBUF[15]_inst_i_10/I3
    SLICE_X3Y63          LUT6 (Prop_lut6_I3_O)        0.043     4.352 r  O_OBUF[15]_inst_i_10/O
                         net (fo=3, routed)           0.225     4.577    N_1183
    SLICE_X4Y63                                                       r  O_OBUF[15]_inst_i_16/I0
    SLICE_X4Y63          LUT4 (Prop_lut4_I0_O)        0.049     4.626 r  O_OBUF[15]_inst_i_16/O
                         net (fo=3, routed)           0.511     5.137    N_1198
    SLICE_X3Y64                                                       r  O_OBUF[11]_inst_i_7/I2
    SLICE_X3Y64          LUT6 (Prop_lut6_I2_O)        0.129     5.266 r  O_OBUF[11]_inst_i_7/O
                         net (fo=2, routed)           0.592     5.858    N_1464
    SLICE_X3Y66                                                       r  O_OBUF[11]_inst_i_4/I3
    SLICE_X3Y66          LUT6 (Prop_lut6_I3_O)        0.043     5.901 r  O_OBUF[11]_inst_i_4/O
                         net (fo=2, routed)           0.499     6.400    N_1714
    SLICE_X1Y66                                                       r  O_OBUF[13]_inst_i_2/I5
    SLICE_X1Y66          LUT6 (Prop_lut6_I5_O)        0.043     6.443 r  O_OBUF[13]_inst_i_2/O
                         net (fo=3, routed)           0.430     6.873    N_1965
    SLICE_X1Y64                                                       r  O_OBUF[13]_inst_i_1/I2
    SLICE_X1Y64          LUT6 (Prop_lut6_I2_O)        0.043     6.916 r  O_OBUF[13]_inst_i_1/O
                         net (fo=1, routed)           1.323     8.238    O_OBUF[13]
    AK29                                                              r  O_OBUF[13]_inst/I
    AK29                 OBUF (Prop_obuf_I_O)         1.833    10.071 r  O_OBUF[13]_inst/O
                         net (fo=0)                   0.000    10.071    O[13]
    AK29                                                              r  O[13] (OUT)
  -------------------------------------------------------------------    -------------------

Slack:                    inf
  Source:                 A[1]
                            (input port)
  Destination:            O[12]
                            (output port)
  Path Group:             (none)
  Path Type:              Max at Slow Process Corner
  Data Path Delay:        9.868ns  (logic 3.091ns (31.322%)  route 6.777ns (68.678%))
  Logic Levels:           13  (IBUF=1 LUT2=1 LUT4=5 LUT6=5 OBUF=1)

    Location             Delay type                Incr(ns)  Path(ns)    Netlist Resource(s)
  -------------------------------------------------------------------    -------------------
    AP27                                              0.000     0.000 f  A[1] (IN)
                         net (fo=0)                   0.000     0.000    A[1]
    AP27                                                              f  A_IBUF[1]_inst/I
    AP27                 IBUF (Prop_ibuf_I_O)         0.593     0.593 f  A_IBUF[1]_inst/O
                         net (fo=21, routed)          1.065     1.658    A_IBUF[1]
    SLICE_X2Y62                                                       f  O_OBUF[5]_inst_i_9/I1
    SLICE_X2Y62          LUT2 (Prop_lut2_I1_O)        0.050     1.708 r  O_OBUF[5]_inst_i_9/O
                         net (fo=1, routed)           0.418     2.126    O_OBUF[5]_inst_i_9_n_0
    SLICE_X1Y63                                                       r  O_OBUF[5]_inst_i_4/I2
    SLICE_X1Y63          LUT6 (Prop_lut6_I2_O)        0.127     2.253 r  O_OBUF[5]_inst_i_4/O
                         net (fo=3, routed)           0.529     2.782    N_582
    SLICE_X2Y63                                                       r  O_OBUF[5]_inst_i_3/I1
    SLICE_X2Y63          LUT6 (Prop_lut6_I1_O)        0.043     2.825 r  O_OBUF[5]_inst_i_3/O
                         net (fo=3, routed)           0.554     3.379    N_864
    SLICE_X1Y65                                                       r  O_OBUF[7]_inst_i_7/I3
    SLICE_X1Y65          LUT4 (Prop_lut4_I3_O)        0.043     3.422 r  O_OBUF[7]_inst_i_7/O
                         net (fo=5, routed)           0.429     3.850    N_1115
    SLICE_X1Y63                                                       r  O_OBUF[9]_inst_i_12/I3
    SLICE_X1Y63          LUT6 (Prop_lut6_I3_O)        0.043     3.893 r  O_OBUF[9]_inst_i_12/O
                         net (fo=3, routed)           0.416     4.309    N_1149
    SLICE_X3Y63                                                       r  O_OBUF[15]_inst_i_10/I3
    SLICE_X3Y63          LUT6 (Prop_lut6_I3_O)        0.043     4.352 r  O_OBUF[15]_inst_i_10/O
                         net (fo=3, routed)           0.225     4.577    N_1183
    SLICE_X4Y63                                                       r  O_OBUF[15]_inst_i_16/I0
    SLICE_X4Y63          LUT4 (Prop_lut4_I0_O)        0.049     4.626 r  O_OBUF[15]_inst_i_16/O
                         net (fo=3, routed)           0.528     5.154    N_1198
    SLICE_X2Y64                                                       r  O_OBUF[11]_inst_i_6/I1
    SLICE_X2Y64          LUT4 (Prop_lut4_I1_O)        0.129     5.283 r  O_OBUF[11]_inst_i_6/O
                         net (fo=3, routed)           0.390     5.673    N_1448
    SLICE_X3Y65                                                       r  O_OBUF[15]_inst_i_5/I4
    SLICE_X3Y65          LUT6 (Prop_lut6_I4_O)        0.043     5.716 r  O_OBUF[15]_inst_i_5/O
                         net (fo=3, routed)           0.431     6.147    N_1715
    SLICE_X4Y64                                                       r  O_OBUF[13]_inst_i_3/I0
    SLICE_X4Y64          LUT4 (Prop_lut4_I0_O)        0.043     6.190 r  O_OBUF[13]_inst_i_3/O
                         net (fo=3, routed)           0.522     6.712    N_1732
    SLICE_X1Y66                                                       r  O_OBUF[12]_inst_i_1/I1
    SLICE_X1Y66          LUT4 (Prop_lut4_I1_O)        0.043     6.755 r  O_OBUF[12]_inst_i_1/O
                         net (fo=1, routed)           1.271     8.027    O_OBUF[12]
    AL31                                                              r  O_OBUF[12]_inst/I
    AL31                 OBUF (Prop_obuf_I_O)         1.842     9.868 r  O_OBUF[12]_inst/O
                         net (fo=0)                   0.000     9.868    O[12]
    AL31                                                              r  O[12] (OUT)
  -------------------------------------------------------------------    -------------------

Slack:                    inf
  Source:                 A[1]
                            (input port)
  Destination:            O[10]
                            (output port)
  Path Group:             (none)
  Path Type:              Max at Slow Process Corner
  Data Path Delay:        9.623ns  (logic 3.132ns (32.552%)  route 6.490ns (67.448%))
  Logic Levels:           12  (IBUF=1 LUT2=1 LUT4=3 LUT6=6 OBUF=1)

    Location             Delay type                Incr(ns)  Path(ns)    Netlist Resource(s)
  -------------------------------------------------------------------    -------------------
    AP27                                              0.000     0.000 f  A[1] (IN)
                         net (fo=0)                   0.000     0.000    A[1]
    AP27                                                              f  A_IBUF[1]_inst/I
    AP27                 IBUF (Prop_ibuf_I_O)         0.593     0.593 f  A_IBUF[1]_inst/O
                         net (fo=21, routed)          1.065     1.658    A_IBUF[1]
    SLICE_X2Y62                                                       f  O_OBUF[5]_inst_i_9/I1
    SLICE_X2Y62          LUT2 (Prop_lut2_I1_O)        0.050     1.708 r  O_OBUF[5]_inst_i_9/O
                         net (fo=1, routed)           0.418     2.126    O_OBUF[5]_inst_i_9_n_0
    SLICE_X1Y63                                                       r  O_OBUF[5]_inst_i_4/I2
    SLICE_X1Y63          LUT6 (Prop_lut6_I2_O)        0.127     2.253 r  O_OBUF[5]_inst_i_4/O
                         net (fo=3, routed)           0.529     2.782    N_582
    SLICE_X2Y63                                                       r  O_OBUF[5]_inst_i_3/I1
    SLICE_X2Y63          LUT6 (Prop_lut6_I1_O)        0.043     2.825 r  O_OBUF[5]_inst_i_3/O
                         net (fo=3, routed)           0.554     3.379    N_864
    SLICE_X1Y65                                                       r  O_OBUF[7]_inst_i_7/I3
    SLICE_X1Y65          LUT4 (Prop_lut4_I3_O)        0.043     3.422 r  O_OBUF[7]_inst_i_7/O
                         net (fo=5, routed)           0.629     4.050    N_1115
    SLICE_X2Y66                                                       r  O_OBUF[7]_inst_i_2/I3
    SLICE_X2Y66          LUT6 (Prop_lut6_I3_O)        0.043     4.093 r  O_OBUF[7]_inst_i_2/O
                         net (fo=3, routed)           0.436     4.529    N_1633
    SLICE_X2Y64                                                       r  O_OBUF[9]_inst_i_5/I2
    SLICE_X2Y64          LUT6 (Prop_lut6_I2_O)        0.043     4.572 r  O_OBUF[9]_inst_i_5/O
                         net (fo=2, routed)           0.240     4.812    N_1649
    SLICE_X2Y64                                                       r  O_OBUF[9]_inst_i_9/I2
    SLICE_X2Y64          LUT6 (Prop_lut6_I2_O)        0.043     4.855 r  O_OBUF[9]_inst_i_9/O
                         net (fo=2, routed)           0.407     5.262    N_1665
    SLICE_X3Y65                                                       r  O_OBUF[9]_inst_i_4/I0
    SLICE_X3Y65          LUT4 (Prop_lut4_I0_O)        0.051     5.313 r  O_OBUF[9]_inst_i_4/O
                         net (fo=2, routed)           0.510     5.824    N_1682
    SLICE_X1Y65                                                       r  O_OBUF[11]_inst_i_2/I5
    SLICE_X1Y65          LUT6 (Prop_lut6_I5_O)        0.129     5.953 r  O_OBUF[11]_inst_i_2/O
                         net (fo=3, routed)           0.416     6.368    N_1933
    SLICE_X0Y66                                                       r  O_OBUF[10]_inst_i_1/I0
    SLICE_X0Y66          LUT4 (Prop_lut4_I0_O)        0.051     6.419 r  O_OBUF[10]_inst_i_1/O
                         net (fo=1, routed)           1.287     7.707    O_OBUF[10]
    AL29                                                              r  O_OBUF[10]_inst/I
    AL29                 OBUF (Prop_obuf_I_O)         1.916     9.623 r  O_OBUF[10]_inst/O
                         net (fo=0)                   0.000     9.623    O[10]
    AL29                                                              r  O[10] (OUT)
  -------------------------------------------------------------------    -------------------

Slack:                    inf
  Source:                 A[1]
                            (input port)
  Destination:            O[11]
                            (output port)
  Path Group:             (none)
  Path Type:              Max at Slow Process Corner
  Data Path Delay:        9.366ns  (logic 2.955ns (31.554%)  route 6.411ns (68.446%))
  Logic Levels:           12  (IBUF=1 LUT2=1 LUT4=3 LUT6=6 OBUF=1)

    Location             Delay type                Incr(ns)  Path(ns)    Netlist Resource(s)
  -------------------------------------------------------------------    -------------------
    AP27                                              0.000     0.000 f  A[1] (IN)
                         net (fo=0)                   0.000     0.000    A[1]
    AP27                                                              f  A_IBUF[1]_inst/I
    AP27                 IBUF (Prop_ibuf_I_O)         0.593     0.593 f  A_IBUF[1]_inst/O
                         net (fo=21, routed)          1.065     1.658    A_IBUF[1]
    SLICE_X2Y62                                                       f  O_OBUF[5]_inst_i_9/I1
    SLICE_X2Y62          LUT2 (Prop_lut2_I1_O)        0.050     1.708 r  O_OBUF[5]_inst_i_9/O
                         net (fo=1, routed)           0.418     2.126    O_OBUF[5]_inst_i_9_n_0
    SLICE_X1Y63                                                       r  O_OBUF[5]_inst_i_4/I2
    SLICE_X1Y63          LUT6 (Prop_lut6_I2_O)        0.127     2.253 r  O_OBUF[5]_inst_i_4/O
                         net (fo=3, routed)           0.529     2.782    N_582
    SLICE_X2Y63                                                       r  O_OBUF[5]_inst_i_3/I1
    SLICE_X2Y63          LUT6 (Prop_lut6_I1_O)        0.043     2.825 r  O_OBUF[5]_inst_i_3/O
                         net (fo=3, routed)           0.554     3.379    N_864
    SLICE_X1Y65                                                       r  O_OBUF[7]_inst_i_7/I3
    SLICE_X1Y65          LUT4 (Prop_lut4_I3_O)        0.043     3.422 r  O_OBUF[7]_inst_i_7/O
                         net (fo=5, routed)           0.629     4.050    N_1115
    SLICE_X2Y66                                                       r  O_OBUF[7]_inst_i_2/I3
    SLICE_X2Y66          LUT6 (Prop_lut6_I3_O)        0.043     4.093 r  O_OBUF[7]_inst_i_2/O
                         net (fo=3, routed)           0.436     4.529    N_1633
    SLICE_X2Y64                                                       r  O_OBUF[9]_inst_i_5/I2
    SLICE_X2Y64          LUT6 (Prop_lut6_I2_O)        0.043     4.572 r  O_OBUF[9]_inst_i_5/O
                         net (fo=2, routed)           0.240     4.812    N_1649
    SLICE_X2Y64                                                       r  O_OBUF[9]_inst_i_9/I2
    SLICE_X2Y64          LUT6 (Prop_lut6_I2_O)        0.043     4.855 r  O_OBUF[9]_inst_i_9/O
                         net (fo=2, routed)           0.407     5.262    N_1665
    SLICE_X3Y65                                                       r  O_OBUF[11]_inst_i_5/I2
    SLICE_X3Y65          LUT4 (Prop_lut4_I2_O)        0.043     5.305 r  O_OBUF[11]_inst_i_5/O
                         net (fo=3, routed)           0.520     5.825    N_1683
    SLICE_X2Y66                                                       r  O_OBUF[11]_inst_i_3/I0
    SLICE_X2Y66          LUT4 (Prop_lut4_I0_O)        0.043     5.868 r  O_OBUF[11]_inst_i_3/O
                         net (fo=3, routed)           0.423     6.291    N_1698
    SLICE_X0Y66                                                       r  O_OBUF[11]_inst_i_1/I3
    SLICE_X0Y66          LUT6 (Prop_lut6_I3_O)        0.043     6.334 r  O_OBUF[11]_inst_i_1/O
                         net (fo=1, routed)           1.191     7.525    O_OBUF[11]
    AM31                                                              r  O_OBUF[11]_inst/I
    AM31                 OBUF (Prop_obuf_I_O)         1.841     9.366 r  O_OBUF[11]_inst/O
                         net (fo=0)                   0.000     9.366    O[11]
    AM31                                                              r  O[11] (OUT)
  -------------------------------------------------------------------    -------------------

Slack:                    inf
  Source:                 A[1]
                            (input port)
  Destination:            O[9]
                            (output port)
  Path Group:             (none)
  Path Type:              Max at Slow Process Corner
  Data Path Delay:        8.898ns  (logic 2.997ns (33.680%)  route 5.901ns (66.320%))
  Logic Levels:           11  (IBUF=1 LUT2=1 LUT4=2 LUT6=6 OBUF=1)

    Location             Delay type                Incr(ns)  Path(ns)    Netlist Resource(s)
  -------------------------------------------------------------------    -------------------
    AP27                                              0.000     0.000 f  A[1] (IN)
                         net (fo=0)                   0.000     0.000    A[1]
    AP27                                                              f  A_IBUF[1]_inst/I
    AP27                 IBUF (Prop_ibuf_I_O)         0.593     0.593 f  A_IBUF[1]_inst/O
                         net (fo=21, routed)          1.065     1.658    A_IBUF[1]
    SLICE_X2Y62                                                       f  O_OBUF[5]_inst_i_9/I1
    SLICE_X2Y62          LUT2 (Prop_lut2_I1_O)        0.050     1.708 r  O_OBUF[5]_inst_i_9/O
                         net (fo=1, routed)           0.418     2.126    O_OBUF[5]_inst_i_9_n_0
    SLICE_X1Y63                                                       r  O_OBUF[5]_inst_i_4/I2
    SLICE_X1Y63          LUT6 (Prop_lut6_I2_O)        0.127     2.253 r  O_OBUF[5]_inst_i_4/O
                         net (fo=3, routed)           0.529     2.782    N_582
    SLICE_X2Y63                                                       r  O_OBUF[5]_inst_i_3/I1
    SLICE_X2Y63          LUT6 (Prop_lut6_I1_O)        0.043     2.825 r  O_OBUF[5]_inst_i_3/O
                         net (fo=3, routed)           0.554     3.379    N_864
    SLICE_X1Y65                                                       r  O_OBUF[7]_inst_i_7/I3
    SLICE_X1Y65          LUT4 (Prop_lut4_I3_O)        0.043     3.422 r  O_OBUF[7]_inst_i_7/O
                         net (fo=5, routed)           0.629     4.050    N_1115
    SLICE_X2Y66                                                       r  O_OBUF[7]_inst_i_2/I3
    SLICE_X2Y66          LUT6 (Prop_lut6_I3_O)        0.043     4.093 r  O_OBUF[7]_inst_i_2/O
                         net (fo=3, routed)           0.436     4.529    N_1633
    SLICE_X2Y64                                                       r  O_OBUF[9]_inst_i_5/I2
    SLICE_X2Y64          LUT6 (Prop_lut6_I2_O)        0.043     4.572 r  O_OBUF[9]_inst_i_5/O
                         net (fo=2, routed)           0.240     4.812    N_1649
    SLICE_X2Y64                                                       r  O_OBUF[9]_inst_i_9/I2
    SLICE_X2Y64          LUT6 (Prop_lut6_I2_O)        0.043     4.855 r  O_OBUF[9]_inst_i_9/O
                         net (fo=2, routed)           0.407     5.262    N_1665
    SLICE_X3Y65                                                       r  O_OBUF[9]_inst_i_4/I0
    SLICE_X3Y65          LUT4 (Prop_lut4_I0_O)        0.051     5.313 r  O_OBUF[9]_inst_i_4/O
                         net (fo=2, routed)           0.329     5.643    N_1682
    SLICE_X1Y65                                                       r  O_OBUF[9]_inst_i_1/I4
    SLICE_X1Y65          LUT6 (Prop_lut6_I4_O)        0.129     5.772 r  O_OBUF[9]_inst_i_1/O
                         net (fo=1, routed)           1.295     7.066    O_OBUF[9]
    AL30                                                              r  O_OBUF[9]_inst/I
    AL30                 OBUF (Prop_obuf_I_O)         1.831     8.898 r  O_OBUF[9]_inst/O
                         net (fo=0)                   0.000     8.898    O[9]
    AL30                                                              r  O[9] (OUT)
  -------------------------------------------------------------------    -------------------

Slack:                    inf
  Source:                 A[1]
                            (input port)
  Destination:            O[8]
                            (output port)
  Path Group:             (none)
  Path Type:              Max at Slow Process Corner
  Data Path Delay:        8.286ns  (logic 2.847ns (34.357%)  route 5.439ns (65.643%))
  Logic Levels:           10  (IBUF=1 LUT2=1 LUT4=3 LUT6=4 OBUF=1)

    Location             Delay type                Incr(ns)  Path(ns)    Netlist Resource(s)
  -------------------------------------------------------------------    -------------------
    AP27                                              0.000     0.000 f  A[1] (IN)
                         net (fo=0)                   0.000     0.000    A[1]
    AP27                                                              f  A_IBUF[1]_inst/I
    AP27                 IBUF (Prop_ibuf_I_O)         0.593     0.593 f  A_IBUF[1]_inst/O
                         net (fo=21, routed)          1.065     1.658    A_IBUF[1]
    SLICE_X2Y62                                                       f  O_OBUF[5]_inst_i_9/I1
    SLICE_X2Y62          LUT2 (Prop_lut2_I1_O)        0.050     1.708 r  O_OBUF[5]_inst_i_9/O
                         net (fo=1, routed)           0.418     2.126    O_OBUF[5]_inst_i_9_n_0
    SLICE_X1Y63                                                       r  O_OBUF[5]_inst_i_4/I2
    SLICE_X1Y63          LUT6 (Prop_lut6_I2_O)        0.127     2.253 r  O_OBUF[5]_inst_i_4/O
                         net (fo=3, routed)           0.529     2.782    N_582
    SLICE_X2Y63                                                       r  O_OBUF[5]_inst_i_3/I1
    SLICE_X2Y63          LUT6 (Prop_lut6_I1_O)        0.043     2.825 r  O_OBUF[5]_inst_i_3/O
                         net (fo=3, routed)           0.554     3.379    N_864
    SLICE_X1Y65                                                       r  O_OBUF[7]_inst_i_7/I3
    SLICE_X1Y65          LUT4 (Prop_lut4_I3_O)        0.043     3.422 r  O_OBUF[7]_inst_i_7/O
                         net (fo=5, routed)           0.229     3.650    N_1115
    SLICE_X1Y63                                                       r  O_OBUF[7]_inst_i_10/I1
    SLICE_X1Y63          LUT6 (Prop_lut6_I1_O)        0.043     3.693 r  O_OBUF[7]_inst_i_10/O
                         net (fo=3, routed)           0.689     4.382    N_1148
    SLICE_X2Y65                                                       r  O_OBUF[9]_inst_i_6/I3
    SLICE_X2Y65          LUT4 (Prop_lut4_I3_O)        0.043     4.425 r  O_OBUF[9]_inst_i_6/O
                         net (fo=4, routed)           0.451     4.876    N_1399
    SLICE_X3Y65                                                       r  O_OBUF[9]_inst_i_3/I1
    SLICE_X3Y65          LUT6 (Prop_lut6_I1_O)        0.043     4.919 r  O_OBUF[9]_inst_i_3/O
                         net (fo=3, routed)           0.370     5.289    N_1664
    SLICE_X1Y66                                                       r  O_OBUF[8]_inst_i_1/I1
    SLICE_X1Y66          LUT4 (Prop_lut4_I1_O)        0.043     5.332 r  O_OBUF[8]_inst_i_1/O
                         net (fo=1, routed)           1.136     6.468    O_OBUF[8]
    AK28                                                              r  O_OBUF[8]_inst/I
    AK28                 OBUF (Prop_obuf_I_O)         1.819     8.286 r  O_OBUF[8]_inst/O
                         net (fo=0)                   0.000     8.286    O[8]
    AK28                                                              r  O[8] (OUT)
  -------------------------------------------------------------------    -------------------

Slack:                    inf
  Source:                 A[1]
                            (input port)
  Destination:            O[7]
                            (output port)
  Path Group:             (none)
  Path Type:              Max at Slow Process Corner
  Data Path Delay:        7.697ns  (logic 2.896ns (37.620%)  route 4.801ns (62.380%))
  Logic Levels:           9  (IBUF=1 LUT2=1 LUT4=2 LUT6=4 OBUF=1)

    Location             Delay type                Incr(ns)  Path(ns)    Netlist Resource(s)
  -------------------------------------------------------------------    -------------------
    AP27                                              0.000     0.000 f  A[1] (IN)
                         net (fo=0)                   0.000     0.000    A[1]
    AP27                                                              f  A_IBUF[1]_inst/I
    AP27                 IBUF (Prop_ibuf_I_O)         0.593     0.593 f  A_IBUF[1]_inst/O
                         net (fo=21, routed)          1.065     1.658    A_IBUF[1]
    SLICE_X2Y62                                                       f  O_OBUF[5]_inst_i_9/I1
    SLICE_X2Y62          LUT2 (Prop_lut2_I1_O)        0.050     1.708 r  O_OBUF[5]_inst_i_9/O
                         net (fo=1, routed)           0.418     2.126    O_OBUF[5]_inst_i_9_n_0
    SLICE_X1Y63                                                       r  O_OBUF[5]_inst_i_4/I2
    SLICE_X1Y63          LUT6 (Prop_lut6_I2_O)        0.127     2.253 r  O_OBUF[5]_inst_i_4/O
                         net (fo=3, routed)           0.529     2.782    N_582
    SLICE_X2Y63                                                       r  O_OBUF[5]_inst_i_3/I1
    SLICE_X2Y63          LUT6 (Prop_lut6_I1_O)        0.043     2.825 r  O_OBUF[5]_inst_i_3/O
                         net (fo=3, routed)           0.554     3.379    N_864
    SLICE_X1Y65                                                       r  O_OBUF[7]_inst_i_7/I3
    SLICE_X1Y65          LUT4 (Prop_lut4_I3_O)        0.043     3.422 r  O_OBUF[7]_inst_i_7/O
                         net (fo=5, routed)           0.229     3.650    N_1115
    SLICE_X1Y63                                                       r  O_OBUF[7]_inst_i_10/I1
    SLICE_X1Y63          LUT6 (Prop_lut6_I1_O)        0.043     3.693 r  O_OBUF[7]_inst_i_10/O
                         net (fo=3, routed)           0.689     4.382    N_1148
    SLICE_X2Y65                                                       r  O_OBUF[7]_inst_i_3/I1
    SLICE_X2Y65          LUT4 (Prop_lut4_I1_O)        0.048     4.430 r  O_OBUF[7]_inst_i_3/O
                         net (fo=2, routed)           0.171     4.601    N_1398
    SLICE_X2Y66                                                       r  O_OBUF[7]_inst_i_1/I1
    SLICE_X2Y66          LUT6 (Prop_lut6_I1_O)        0.132     4.733 r  O_OBUF[7]_inst_i_1/O
                         net (fo=1, routed)           1.147     5.881    O_OBUF[7]
    AL28                                                              r  O_OBUF[7]_inst/I
    AL28                 OBUF (Prop_obuf_I_O)         1.816     7.697 r  O_OBUF[7]_inst/O
                         net (fo=0)                   0.000     7.697    O[7]
    AL28                                                              r  O[7] (OUT)
  -------------------------------------------------------------------    -------------------

Slack:                    inf
  Source:                 A[1]
                            (input port)
  Destination:            O[6]
                            (output port)
  Path Group:             (none)
  Path Type:              Max at Slow Process Corner
  Data Path Delay:        7.061ns  (logic 2.765ns (39.157%)  route 4.296ns (60.843%))
  Logic Levels:           8  (IBUF=1 LUT2=1 LUT4=2 LUT6=3 OBUF=1)

    Location             Delay type                Incr(ns)  Path(ns)    Netlist Resource(s)
  -------------------------------------------------------------------    -------------------
    AP27                                              0.000     0.000 f  A[1] (IN)
                         net (fo=0)                   0.000     0.000    A[1]
    AP27                                                              f  A_IBUF[1]_inst/I
    AP27                 IBUF (Prop_ibuf_I_O)         0.593     0.593 f  A_IBUF[1]_inst/O
                         net (fo=21, routed)          1.065     1.658    A_IBUF[1]
    SLICE_X2Y62                                                       f  O_OBUF[5]_inst_i_9/I1
    SLICE_X2Y62          LUT2 (Prop_lut2_I1_O)        0.050     1.708 r  O_OBUF[5]_inst_i_9/O
                         net (fo=1, routed)           0.418     2.126    O_OBUF[5]_inst_i_9_n_0
    SLICE_X1Y63                                                       r  O_OBUF[5]_inst_i_4/I2
    SLICE_X1Y63          LUT6 (Prop_lut6_I2_O)        0.127     2.253 r  O_OBUF[5]_inst_i_4/O
                         net (fo=3, routed)           0.529     2.782    N_582
    SLICE_X2Y63                                                       r  O_OBUF[5]_inst_i_3/I1
    SLICE_X2Y63          LUT6 (Prop_lut6_I1_O)        0.043     2.825 r  O_OBUF[5]_inst_i_3/O
                         net (fo=3, routed)           0.554     3.379    N_864
    SLICE_X1Y65                                                       r  O_OBUF[7]_inst_i_7/I3
    SLICE_X1Y65          LUT4 (Prop_lut4_I3_O)        0.043     3.422 r  O_OBUF[7]_inst_i_7/O
                         net (fo=5, routed)           0.312     3.733    N_1115
    SLICE_X2Y65                                                       r  O_OBUF[6]_inst_i_2/I0
    SLICE_X2Y65          LUT4 (Prop_lut4_I0_O)        0.043     3.776 r  O_OBUF[6]_inst_i_2/O
                         net (fo=1, routed)           0.223     4.000    N_1132
    SLICE_X2Y66                                                       r  O_OBUF[6]_inst_i_1/I4
    SLICE_X2Y66          LUT6 (Prop_lut6_I4_O)        0.043     4.043 r  O_OBUF[6]_inst_i_1/O
                         net (fo=1, routed)           1.196     5.238    O_OBUF[6]
    AK26                                                              r  O_OBUF[6]_inst/I
    AK26                 OBUF (Prop_obuf_I_O)         1.823     7.061 r  O_OBUF[6]_inst/O
                         net (fo=0)                   0.000     7.061    O[6]
    AK26                                                              r  O[6] (OUT)
  -------------------------------------------------------------------    -------------------




