Copyright 1986-2017 Xilinx, Inc. All Rights Reserved.
-----------------------------------------------------------------------------------------------------------------------------------------------------------------------
| Tool Version : Vivado v.2017.1 (win64) Build 1846317 Fri Apr 14 18:55:03 MDT 2017
| Date         : Mon Nov 13 21:57:43 2017
| Host         : cfaed-pdpc003 running 64-bit major release  (build 9200)
| Command      : report_timing -to O -delay_type max -max_paths 10 -sort_by group -input_pins -file C:/Users/sanjeev/Desktop/Reports_EvoLib/tim_168_evolib.txt -name O
| Design       : mul8_168
| Device       : 7vx330t-ffg1157
| Speed File   : -3  PRODUCTION 1.11 2014-09-11
-----------------------------------------------------------------------------------------------------------------------------------------------------------------------

Timing Report

Slack:                    inf
  Source:                 A[2]
                            (input port)
  Destination:            O[13]
                            (output port)
  Path Group:             (none)
  Path Type:              Max at Slow Process Corner
  Data Path Delay:        10.486ns  (logic 3.131ns (29.855%)  route 7.355ns (70.145%))
  Logic Levels:           14  (IBUF=1 LUT2=1 LUT4=5 LUT6=6 OBUF=1)

    Location             Delay type                Incr(ns)  Path(ns)    Netlist Resource(s)
  -------------------------------------------------------------------    -------------------
    AN27                                              0.000     0.000 f  A[2] (IN)
                         net (fo=0)                   0.000     0.000    A[2]
    AN27                                                              f  A_IBUF[2]_inst/I
    AN27                 IBUF (Prop_ibuf_I_O)         0.596     0.596 f  A_IBUF[2]_inst/O
                         net (fo=22, routed)          1.212     1.808    A_IBUF[2]
    SLICE_X1Y66                                                       f  O_OBUF[4]_inst_i_7/I1
    SLICE_X1Y66          LUT2 (Prop_lut2_I1_O)        0.049     1.857 r  O_OBUF[4]_inst_i_7/O
                         net (fo=2, routed)           0.652     2.509    O_OBUF[4]_inst_i_7_n_0
    SLICE_X1Y61                                                       r  O_OBUF[4]_inst_i_2/I5
    SLICE_X1Y61          LUT6 (Prop_lut6_I5_O)        0.129     2.638 r  O_OBUF[4]_inst_i_2/O
                         net (fo=3, routed)           0.356     2.994    N_598
    SLICE_X0Y61                                                       r  O_OBUF[5]_inst_i_3/I2
    SLICE_X0Y61          LUT6 (Prop_lut6_I2_O)        0.043     3.037 r  O_OBUF[5]_inst_i_3/O
                         net (fo=3, routed)           0.620     3.657    N_1099
    SLICE_X2Y63                                                       r  O_OBUF[6]_inst_i_9/I2
    SLICE_X2Y63          LUT6 (Prop_lut6_I2_O)        0.043     3.700 r  O_OBUF[6]_inst_i_9/O
                         net (fo=3, routed)           0.354     4.054    N_1115
    SLICE_X2Y63                                                       r  O_OBUF[7]_inst_i_5/I2
    SLICE_X2Y63          LUT4 (Prop_lut4_I2_O)        0.043     4.097 r  O_OBUF[7]_inst_i_5/O
                         net (fo=4, routed)           0.333     4.430    N_1133
    SLICE_X3Y63                                                       r  O_OBUF[9]_inst_i_8/I1
    SLICE_X3Y63          LUT6 (Prop_lut6_I1_O)        0.043     4.473 r  O_OBUF[9]_inst_i_8/O
                         net (fo=2, routed)           0.407     4.881    N_1164
    SLICE_X3Y64                                                       r  O_OBUF[9]_inst_i_5/I1
    SLICE_X3Y64          LUT4 (Prop_lut4_I1_O)        0.051     4.932 r  O_OBUF[9]_inst_i_5/O
                         net (fo=3, routed)           0.517     5.449    N_1414
    SLICE_X3Y65                                                       r  O_OBUF[10]_inst_i_4/I3
    SLICE_X3Y65          LUT4 (Prop_lut4_I3_O)        0.129     5.578 r  O_OBUF[10]_inst_i_4/O
                         net (fo=4, routed)           0.499     6.077    N_1665
    SLICE_X1Y64                                                       r  O_OBUF[12]_inst_i_5/I3
    SLICE_X1Y64          LUT6 (Prop_lut6_I3_O)        0.043     6.120 r  O_OBUF[12]_inst_i_5/O
                         net (fo=3, routed)           0.216     6.336    N_1699
    SLICE_X1Y65                                                       r  O_OBUF[12]_inst_i_3/I0
    SLICE_X1Y65          LUT4 (Prop_lut4_I0_O)        0.043     6.379 r  O_OBUF[12]_inst_i_3/O
                         net (fo=3, routed)           0.425     6.804    N_1714
    SLICE_X0Y66                                                       r  O_OBUF[15]_inst_i_2/I4
    SLICE_X0Y66          LUT6 (Prop_lut6_I4_O)        0.043     6.847 r  O_OBUF[15]_inst_i_2/O
                         net (fo=3, routed)           0.417     7.263    N_1983
    SLICE_X0Y65                                                       r  O_OBUF[13]_inst_i_1/I0
    SLICE_X0Y65          LUT4 (Prop_lut4_I0_O)        0.043     7.306 r  O_OBUF[13]_inst_i_1/O
                         net (fo=1, routed)           1.347     8.653    O_OBUF[13]
    AK29                                                              r  O_OBUF[13]_inst/I
    AK29                 OBUF (Prop_obuf_I_O)         1.833    10.486 r  O_OBUF[13]_inst/O
                         net (fo=0)                   0.000    10.486    O[13]
    AK29                                                              r  O[13] (OUT)
  -------------------------------------------------------------------    -------------------

Slack:                    inf
  Source:                 A[2]
                            (input port)
  Destination:            O[15]
                            (output port)
  Path Group:             (none)
  Path Type:              Max at Slow Process Corner
  Data Path Delay:        10.459ns  (logic 3.149ns (30.110%)  route 7.310ns (69.890%))
  Logic Levels:           14  (IBUF=1 LUT2=1 LUT4=4 LUT6=7 OBUF=1)

    Location             Delay type                Incr(ns)  Path(ns)    Netlist Resource(s)
  -------------------------------------------------------------------    -------------------
    AN27                                              0.000     0.000 f  A[2] (IN)
                         net (fo=0)                   0.000     0.000    A[2]
    AN27                                                              f  A_IBUF[2]_inst/I
    AN27                 IBUF (Prop_ibuf_I_O)         0.596     0.596 f  A_IBUF[2]_inst/O
                         net (fo=22, routed)          1.212     1.808    A_IBUF[2]
    SLICE_X1Y66                                                       f  O_OBUF[4]_inst_i_7/I1
    SLICE_X1Y66          LUT2 (Prop_lut2_I1_O)        0.049     1.857 r  O_OBUF[4]_inst_i_7/O
                         net (fo=2, routed)           0.652     2.509    O_OBUF[4]_inst_i_7_n_0
    SLICE_X1Y61                                                       r  O_OBUF[4]_inst_i_2/I5
    SLICE_X1Y61          LUT6 (Prop_lut6_I5_O)        0.129     2.638 r  O_OBUF[4]_inst_i_2/O
                         net (fo=3, routed)           0.356     2.994    N_598
    SLICE_X0Y61                                                       r  O_OBUF[5]_inst_i_3/I2
    SLICE_X0Y61          LUT6 (Prop_lut6_I2_O)        0.043     3.037 r  O_OBUF[5]_inst_i_3/O
                         net (fo=3, routed)           0.620     3.657    N_1099
    SLICE_X2Y63                                                       r  O_OBUF[6]_inst_i_9/I2
    SLICE_X2Y63          LUT6 (Prop_lut6_I2_O)        0.043     3.700 r  O_OBUF[6]_inst_i_9/O
                         net (fo=3, routed)           0.354     4.054    N_1115
    SLICE_X2Y63                                                       r  O_OBUF[7]_inst_i_5/I2
    SLICE_X2Y63          LUT4 (Prop_lut4_I2_O)        0.043     4.097 r  O_OBUF[7]_inst_i_5/O
                         net (fo=4, routed)           0.333     4.430    N_1133
    SLICE_X3Y63                                                       r  O_OBUF[9]_inst_i_8/I1
    SLICE_X3Y63          LUT6 (Prop_lut6_I1_O)        0.043     4.473 r  O_OBUF[9]_inst_i_8/O
                         net (fo=2, routed)           0.407     4.881    N_1164
    SLICE_X3Y64                                                       r  O_OBUF[9]_inst_i_5/I1
    SLICE_X3Y64          LUT4 (Prop_lut4_I1_O)        0.051     4.932 r  O_OBUF[9]_inst_i_5/O
                         net (fo=3, routed)           0.517     5.449    N_1414
    SLICE_X3Y65                                                       r  O_OBUF[10]_inst_i_4/I3
    SLICE_X3Y65          LUT4 (Prop_lut4_I3_O)        0.129     5.578 r  O_OBUF[10]_inst_i_4/O
                         net (fo=4, routed)           0.499     6.077    N_1665
    SLICE_X1Y64                                                       r  O_OBUF[12]_inst_i_5/I3
    SLICE_X1Y64          LUT6 (Prop_lut6_I3_O)        0.043     6.120 r  O_OBUF[12]_inst_i_5/O
                         net (fo=3, routed)           0.216     6.336    N_1699
    SLICE_X1Y65                                                       r  O_OBUF[12]_inst_i_3/I0
    SLICE_X1Y65          LUT4 (Prop_lut4_I0_O)        0.043     6.379 r  O_OBUF[12]_inst_i_3/O
                         net (fo=3, routed)           0.425     6.804    N_1714
    SLICE_X0Y66                                                       r  O_OBUF[15]_inst_i_2/I4
    SLICE_X0Y66          LUT6 (Prop_lut6_I4_O)        0.043     6.847 r  O_OBUF[15]_inst_i_2/O
                         net (fo=3, routed)           0.303     7.149    N_1983
    SLICE_X0Y65                                                       r  O_OBUF[15]_inst_i_1/I3
    SLICE_X0Y65          LUT6 (Prop_lut6_I3_O)        0.043     7.192 r  O_OBUF[15]_inst_i_1/O
                         net (fo=1, routed)           1.415     8.608    O_OBUF[15]
    AN30                                                              r  O_OBUF[15]_inst/I
    AN30                 OBUF (Prop_obuf_I_O)         1.851    10.459 r  O_OBUF[15]_inst/O
                         net (fo=0)                   0.000    10.459    O[15]
    AN30                                                              r  O[15] (OUT)
  -------------------------------------------------------------------    -------------------

Slack:                    inf
  Source:                 A[2]
                            (input port)
  Destination:            O[14]
                            (output port)
  Path Group:             (none)
  Path Type:              Max at Slow Process Corner
  Data Path Delay:        10.386ns  (logic 3.133ns (30.169%)  route 7.253ns (69.831%))
  Logic Levels:           14  (IBUF=1 LUT2=1 LUT4=3 LUT6=8 OBUF=1)

    Location             Delay type                Incr(ns)  Path(ns)    Netlist Resource(s)
  -------------------------------------------------------------------    -------------------
    AN27                                              0.000     0.000 f  A[2] (IN)
                         net (fo=0)                   0.000     0.000    A[2]
    AN27                                                              f  A_IBUF[2]_inst/I
    AN27                 IBUF (Prop_ibuf_I_O)         0.596     0.596 f  A_IBUF[2]_inst/O
                         net (fo=22, routed)          1.212     1.808    A_IBUF[2]
    SLICE_X1Y66                                                       f  O_OBUF[4]_inst_i_7/I1
    SLICE_X1Y66          LUT2 (Prop_lut2_I1_O)        0.049     1.857 r  O_OBUF[4]_inst_i_7/O
                         net (fo=2, routed)           0.652     2.509    O_OBUF[4]_inst_i_7_n_0
    SLICE_X1Y61                                                       r  O_OBUF[4]_inst_i_2/I5
    SLICE_X1Y61          LUT6 (Prop_lut6_I5_O)        0.129     2.638 r  O_OBUF[4]_inst_i_2/O
                         net (fo=3, routed)           0.356     2.994    N_598
    SLICE_X0Y61                                                       r  O_OBUF[5]_inst_i_3/I2
    SLICE_X0Y61          LUT6 (Prop_lut6_I2_O)        0.043     3.037 r  O_OBUF[5]_inst_i_3/O
                         net (fo=3, routed)           0.620     3.657    N_1099
    SLICE_X2Y63                                                       r  O_OBUF[6]_inst_i_9/I2
    SLICE_X2Y63          LUT6 (Prop_lut6_I2_O)        0.043     3.700 r  O_OBUF[6]_inst_i_9/O
                         net (fo=3, routed)           0.354     4.054    N_1115
    SLICE_X2Y63                                                       r  O_OBUF[7]_inst_i_5/I2
    SLICE_X2Y63          LUT4 (Prop_lut4_I2_O)        0.043     4.097 r  O_OBUF[7]_inst_i_5/O
                         net (fo=4, routed)           0.333     4.430    N_1133
    SLICE_X3Y63                                                       r  O_OBUF[9]_inst_i_8/I1
    SLICE_X3Y63          LUT6 (Prop_lut6_I1_O)        0.043     4.473 r  O_OBUF[9]_inst_i_8/O
                         net (fo=2, routed)           0.407     4.881    N_1164
    SLICE_X3Y64                                                       r  O_OBUF[9]_inst_i_5/I1
    SLICE_X3Y64          LUT4 (Prop_lut4_I1_O)        0.051     4.932 r  O_OBUF[9]_inst_i_5/O
                         net (fo=3, routed)           0.517     5.449    N_1414
    SLICE_X3Y65                                                       r  O_OBUF[10]_inst_i_4/I3
    SLICE_X3Y65          LUT4 (Prop_lut4_I3_O)        0.129     5.578 r  O_OBUF[10]_inst_i_4/O
                         net (fo=4, routed)           0.499     6.077    N_1665
    SLICE_X1Y64                                                       r  O_OBUF[12]_inst_i_5/I3
    SLICE_X1Y64          LUT6 (Prop_lut6_I3_O)        0.043     6.120 r  O_OBUF[12]_inst_i_5/O
                         net (fo=3, routed)           0.221     6.341    N_1699
    SLICE_X1Y64                                                       r  O_OBUF[15]_inst_i_7/I3
    SLICE_X1Y64          LUT6 (Prop_lut6_I3_O)        0.043     6.384 r  O_OBUF[15]_inst_i_7/O
                         net (fo=2, routed)           0.199     6.583    N_1733
    SLICE_X0Y64                                                       r  O_OBUF[15]_inst_i_3/I4
    SLICE_X0Y64          LUT6 (Prop_lut6_I4_O)        0.043     6.626 r  O_OBUF[15]_inst_i_3/O
                         net (fo=3, routed)           0.512     7.138    N_1748
    SLICE_X0Y65                                                       r  O_OBUF[14]_inst_i_1/I2
    SLICE_X0Y65          LUT6 (Prop_lut6_I2_O)        0.043     7.181 r  O_OBUF[14]_inst_i_1/O
                         net (fo=1, routed)           1.370     8.551    O_OBUF[14]
    AJ29                                                              r  O_OBUF[14]_inst/I
    AJ29                 OBUF (Prop_obuf_I_O)         1.836    10.386 r  O_OBUF[14]_inst/O
                         net (fo=0)                   0.000    10.386    O[14]
    AJ29                                                              r  O[14] (OUT)
  -------------------------------------------------------------------    -------------------

Slack:                    inf
  Source:                 A[2]
                            (input port)
  Destination:            O[11]
                            (output port)
  Path Group:             (none)
  Path Type:              Max at Slow Process Corner
  Data Path Delay:        10.060ns  (logic 3.187ns (31.681%)  route 6.873ns (68.319%))
  Logic Levels:           13  (IBUF=1 LUT2=1 LUT4=5 LUT6=5 OBUF=1)

    Location             Delay type                Incr(ns)  Path(ns)    Netlist Resource(s)
  -------------------------------------------------------------------    -------------------
    AN27                                              0.000     0.000 f  A[2] (IN)
                         net (fo=0)                   0.000     0.000    A[2]
    AN27                                                              f  A_IBUF[2]_inst/I
    AN27                 IBUF (Prop_ibuf_I_O)         0.596     0.596 f  A_IBUF[2]_inst/O
                         net (fo=22, routed)          1.212     1.808    A_IBUF[2]
    SLICE_X1Y66                                                       f  O_OBUF[4]_inst_i_7/I1
    SLICE_X1Y66          LUT2 (Prop_lut2_I1_O)        0.049     1.857 r  O_OBUF[4]_inst_i_7/O
                         net (fo=2, routed)           0.652     2.509    O_OBUF[4]_inst_i_7_n_0
    SLICE_X1Y61                                                       r  O_OBUF[4]_inst_i_2/I5
    SLICE_X1Y61          LUT6 (Prop_lut6_I5_O)        0.129     2.638 r  O_OBUF[4]_inst_i_2/O
                         net (fo=3, routed)           0.356     2.994    N_598
    SLICE_X0Y61                                                       r  O_OBUF[5]_inst_i_3/I2
    SLICE_X0Y61          LUT6 (Prop_lut6_I2_O)        0.043     3.037 r  O_OBUF[5]_inst_i_3/O
                         net (fo=3, routed)           0.620     3.657    N_1099
    SLICE_X2Y63                                                       r  O_OBUF[6]_inst_i_9/I2
    SLICE_X2Y63          LUT6 (Prop_lut6_I2_O)        0.043     3.700 r  O_OBUF[6]_inst_i_9/O
                         net (fo=3, routed)           0.354     4.054    N_1115
    SLICE_X2Y63                                                       r  O_OBUF[7]_inst_i_5/I2
    SLICE_X2Y63          LUT4 (Prop_lut4_I2_O)        0.043     4.097 r  O_OBUF[7]_inst_i_5/O
                         net (fo=4, routed)           0.333     4.430    N_1133
    SLICE_X3Y63                                                       r  O_OBUF[9]_inst_i_8/I1
    SLICE_X3Y63          LUT6 (Prop_lut6_I1_O)        0.043     4.473 r  O_OBUF[9]_inst_i_8/O
                         net (fo=2, routed)           0.407     4.881    N_1164
    SLICE_X3Y64                                                       r  O_OBUF[9]_inst_i_5/I1
    SLICE_X3Y64          LUT4 (Prop_lut4_I1_O)        0.051     4.932 r  O_OBUF[9]_inst_i_5/O
                         net (fo=3, routed)           0.517     5.449    N_1414
    SLICE_X3Y65                                                       r  O_OBUF[10]_inst_i_4/I3
    SLICE_X3Y65          LUT4 (Prop_lut4_I3_O)        0.129     5.578 r  O_OBUF[10]_inst_i_4/O
                         net (fo=4, routed)           0.499     6.077    N_1665
    SLICE_X1Y64                                                       r  O_OBUF[10]_inst_i_3/I1
    SLICE_X1Y64          LUT6 (Prop_lut6_I1_O)        0.043     6.120 r  O_OBUF[10]_inst_i_3/O
                         net (fo=2, routed)           0.219     6.339    N_1698
    SLICE_X0Y65                                                       r  O_OBUF[12]_inst_i_2/I3
    SLICE_X0Y65          LUT4 (Prop_lut4_I3_O)        0.043     6.382 r  O_OBUF[12]_inst_i_2/O
                         net (fo=3, routed)           0.503     6.885    N_1949
    SLICE_X0Y66                                                       r  O_OBUF[11]_inst_i_1/I0
    SLICE_X0Y66          LUT4 (Prop_lut4_I0_O)        0.048     6.933 r  O_OBUF[11]_inst_i_1/O
                         net (fo=1, routed)           1.200     8.132    O_OBUF[11]
    AM31                                                              r  O_OBUF[11]_inst/I
    AM31                 OBUF (Prop_obuf_I_O)         1.927    10.060 r  O_OBUF[11]_inst/O
                         net (fo=0)                   0.000    10.060    O[11]
    AM31                                                              r  O[11] (OUT)
  -------------------------------------------------------------------    -------------------

Slack:                    inf
  Source:                 A[2]
                            (input port)
  Destination:            O[12]
                            (output port)
  Path Group:             (none)
  Path Type:              Max at Slow Process Corner
  Data Path Delay:        9.956ns  (logic 3.096ns (31.100%)  route 6.860ns (68.900%))
  Logic Levels:           13  (IBUF=1 LUT2=1 LUT4=4 LUT6=6 OBUF=1)

    Location             Delay type                Incr(ns)  Path(ns)    Netlist Resource(s)
  -------------------------------------------------------------------    -------------------
    AN27                                              0.000     0.000 f  A[2] (IN)
                         net (fo=0)                   0.000     0.000    A[2]
    AN27                                                              f  A_IBUF[2]_inst/I
    AN27                 IBUF (Prop_ibuf_I_O)         0.596     0.596 f  A_IBUF[2]_inst/O
                         net (fo=22, routed)          1.212     1.808    A_IBUF[2]
    SLICE_X1Y66                                                       f  O_OBUF[4]_inst_i_7/I1
    SLICE_X1Y66          LUT2 (Prop_lut2_I1_O)        0.049     1.857 r  O_OBUF[4]_inst_i_7/O
                         net (fo=2, routed)           0.652     2.509    O_OBUF[4]_inst_i_7_n_0
    SLICE_X1Y61                                                       r  O_OBUF[4]_inst_i_2/I5
    SLICE_X1Y61          LUT6 (Prop_lut6_I5_O)        0.129     2.638 r  O_OBUF[4]_inst_i_2/O
                         net (fo=3, routed)           0.356     2.994    N_598
    SLICE_X0Y61                                                       r  O_OBUF[5]_inst_i_3/I2
    SLICE_X0Y61          LUT6 (Prop_lut6_I2_O)        0.043     3.037 r  O_OBUF[5]_inst_i_3/O
                         net (fo=3, routed)           0.620     3.657    N_1099
    SLICE_X2Y63                                                       r  O_OBUF[6]_inst_i_9/I2
    SLICE_X2Y63          LUT6 (Prop_lut6_I2_O)        0.043     3.700 r  O_OBUF[6]_inst_i_9/O
                         net (fo=3, routed)           0.354     4.054    N_1115
    SLICE_X2Y63                                                       r  O_OBUF[7]_inst_i_5/I2
    SLICE_X2Y63          LUT4 (Prop_lut4_I2_O)        0.043     4.097 r  O_OBUF[7]_inst_i_5/O
                         net (fo=4, routed)           0.333     4.430    N_1133
    SLICE_X3Y63                                                       r  O_OBUF[9]_inst_i_8/I1
    SLICE_X3Y63          LUT6 (Prop_lut6_I1_O)        0.043     4.473 r  O_OBUF[9]_inst_i_8/O
                         net (fo=2, routed)           0.407     4.881    N_1164
    SLICE_X3Y64                                                       r  O_OBUF[9]_inst_i_5/I1
    SLICE_X3Y64          LUT4 (Prop_lut4_I1_O)        0.051     4.932 r  O_OBUF[9]_inst_i_5/O
                         net (fo=3, routed)           0.517     5.449    N_1414
    SLICE_X3Y65                                                       r  O_OBUF[10]_inst_i_4/I3
    SLICE_X3Y65          LUT4 (Prop_lut4_I3_O)        0.129     5.578 r  O_OBUF[10]_inst_i_4/O
                         net (fo=4, routed)           0.499     6.077    N_1665
    SLICE_X1Y64                                                       r  O_OBUF[10]_inst_i_3/I1
    SLICE_X1Y64          LUT6 (Prop_lut6_I1_O)        0.043     6.120 r  O_OBUF[10]_inst_i_3/O
                         net (fo=2, routed)           0.219     6.339    N_1698
    SLICE_X0Y65                                                       r  O_OBUF[12]_inst_i_2/I3
    SLICE_X0Y65          LUT4 (Prop_lut4_I3_O)        0.043     6.382 r  O_OBUF[12]_inst_i_2/O
                         net (fo=3, routed)           0.497     6.879    N_1949
    SLICE_X0Y66                                                       r  O_OBUF[12]_inst_i_1/I2
    SLICE_X0Y66          LUT6 (Prop_lut6_I2_O)        0.043     6.922 r  O_OBUF[12]_inst_i_1/O
                         net (fo=1, routed)           1.193     8.115    O_OBUF[12]
    AL31                                                              r  O_OBUF[12]_inst/I
    AL31                 OBUF (Prop_obuf_I_O)         1.842     9.956 r  O_OBUF[12]_inst/O
                         net (fo=0)                   0.000     9.956    O[12]
    AL31                                                              r  O[12] (OUT)
  -------------------------------------------------------------------    -------------------

Slack:                    inf
  Source:                 A[2]
                            (input port)
  Destination:            O[10]
                            (output port)
  Path Group:             (none)
  Path Type:              Max at Slow Process Corner
  Data Path Delay:        9.499ns  (logic 3.134ns (32.995%)  route 6.365ns (67.005%))
  Logic Levels:           12  (IBUF=1 LUT2=1 LUT4=4 LUT6=5 OBUF=1)

    Location             Delay type                Incr(ns)  Path(ns)    Netlist Resource(s)
  -------------------------------------------------------------------    -------------------
    AN27                                              0.000     0.000 f  A[2] (IN)
                         net (fo=0)                   0.000     0.000    A[2]
    AN27                                                              f  A_IBUF[2]_inst/I
    AN27                 IBUF (Prop_ibuf_I_O)         0.596     0.596 f  A_IBUF[2]_inst/O
                         net (fo=22, routed)          1.212     1.808    A_IBUF[2]
    SLICE_X1Y66                                                       f  O_OBUF[4]_inst_i_7/I1
    SLICE_X1Y66          LUT2 (Prop_lut2_I1_O)        0.049     1.857 r  O_OBUF[4]_inst_i_7/O
                         net (fo=2, routed)           0.652     2.509    O_OBUF[4]_inst_i_7_n_0
    SLICE_X1Y61                                                       r  O_OBUF[4]_inst_i_2/I5
    SLICE_X1Y61          LUT6 (Prop_lut6_I5_O)        0.129     2.638 r  O_OBUF[4]_inst_i_2/O
                         net (fo=3, routed)           0.356     2.994    N_598
    SLICE_X0Y61                                                       r  O_OBUF[5]_inst_i_3/I2
    SLICE_X0Y61          LUT6 (Prop_lut6_I2_O)        0.043     3.037 r  O_OBUF[5]_inst_i_3/O
                         net (fo=3, routed)           0.620     3.657    N_1099
    SLICE_X2Y63                                                       r  O_OBUF[6]_inst_i_9/I2
    SLICE_X2Y63          LUT6 (Prop_lut6_I2_O)        0.043     3.700 r  O_OBUF[6]_inst_i_9/O
                         net (fo=3, routed)           0.354     4.054    N_1115
    SLICE_X2Y63                                                       r  O_OBUF[7]_inst_i_5/I2
    SLICE_X2Y63          LUT4 (Prop_lut4_I2_O)        0.043     4.097 r  O_OBUF[7]_inst_i_5/O
                         net (fo=4, routed)           0.333     4.430    N_1133
    SLICE_X3Y63                                                       r  O_OBUF[9]_inst_i_8/I1
    SLICE_X3Y63          LUT6 (Prop_lut6_I1_O)        0.043     4.473 r  O_OBUF[9]_inst_i_8/O
                         net (fo=2, routed)           0.407     4.881    N_1164
    SLICE_X3Y64                                                       r  O_OBUF[9]_inst_i_5/I1
    SLICE_X3Y64          LUT4 (Prop_lut4_I1_O)        0.051     4.932 r  O_OBUF[9]_inst_i_5/O
                         net (fo=3, routed)           0.517     5.449    N_1414
    SLICE_X3Y65                                                       r  O_OBUF[10]_inst_i_4/I3
    SLICE_X3Y65          LUT4 (Prop_lut4_I3_O)        0.129     5.578 r  O_OBUF[10]_inst_i_4/O
                         net (fo=4, routed)           0.499     6.077    N_1665
    SLICE_X1Y64                                                       r  O_OBUF[10]_inst_i_3/I1
    SLICE_X1Y64          LUT6 (Prop_lut6_I1_O)        0.043     6.120 r  O_OBUF[10]_inst_i_3/O
                         net (fo=2, routed)           0.219     6.339    N_1698
    SLICE_X0Y65                                                       r  O_OBUF[10]_inst_i_1/I1
    SLICE_X0Y65          LUT4 (Prop_lut4_I1_O)        0.049     6.388 r  O_OBUF[10]_inst_i_1/O
                         net (fo=1, routed)           1.195     7.582    O_OBUF[10]
    AL29                                                              r  O_OBUF[10]_inst/I
    AL29                 OBUF (Prop_obuf_I_O)         1.916     9.499 r  O_OBUF[10]_inst/O
                         net (fo=0)                   0.000     9.499    O[10]
    AL29                                                              r  O[10] (OUT)
  -------------------------------------------------------------------    -------------------

Slack:                    inf
  Source:                 A[2]
                            (input port)
  Destination:            O[9]
                            (output port)
  Path Group:             (none)
  Path Type:              Max at Slow Process Corner
  Data Path Delay:        9.444ns  (logic 2.949ns (31.228%)  route 6.495ns (68.772%))
  Logic Levels:           12  (IBUF=1 LUT2=1 LUT4=5 LUT6=4 OBUF=1)

    Location             Delay type                Incr(ns)  Path(ns)    Netlist Resource(s)
  -------------------------------------------------------------------    -------------------
    AN27                                              0.000     0.000 f  A[2] (IN)
                         net (fo=0)                   0.000     0.000    A[2]
    AN27                                                              f  A_IBUF[2]_inst/I
    AN27                 IBUF (Prop_ibuf_I_O)         0.596     0.596 f  A_IBUF[2]_inst/O
                         net (fo=22, routed)          1.212     1.808    A_IBUF[2]
    SLICE_X1Y66                                                       f  O_OBUF[4]_inst_i_7/I1
    SLICE_X1Y66          LUT2 (Prop_lut2_I1_O)        0.049     1.857 r  O_OBUF[4]_inst_i_7/O
                         net (fo=2, routed)           0.652     2.509    O_OBUF[4]_inst_i_7_n_0
    SLICE_X1Y61                                                       r  O_OBUF[4]_inst_i_2/I5
    SLICE_X1Y61          LUT6 (Prop_lut6_I5_O)        0.129     2.638 r  O_OBUF[4]_inst_i_2/O
                         net (fo=3, routed)           0.356     2.994    N_598
    SLICE_X0Y61                                                       r  O_OBUF[5]_inst_i_3/I2
    SLICE_X0Y61          LUT6 (Prop_lut6_I2_O)        0.043     3.037 r  O_OBUF[5]_inst_i_3/O
                         net (fo=3, routed)           0.620     3.657    N_1099
    SLICE_X2Y63                                                       r  O_OBUF[6]_inst_i_9/I2
    SLICE_X2Y63          LUT6 (Prop_lut6_I2_O)        0.043     3.700 r  O_OBUF[6]_inst_i_9/O
                         net (fo=3, routed)           0.354     4.054    N_1115
    SLICE_X2Y63                                                       r  O_OBUF[7]_inst_i_5/I2
    SLICE_X2Y63          LUT4 (Prop_lut4_I2_O)        0.043     4.097 r  O_OBUF[7]_inst_i_5/O
                         net (fo=4, routed)           0.235     4.332    N_1133
    SLICE_X4Y63                                                       r  O_OBUF[15]_inst_i_17/I3
    SLICE_X4Y63          LUT6 (Prop_lut6_I3_O)        0.043     4.375 r  O_OBUF[15]_inst_i_17/O
                         net (fo=3, routed)           0.436     4.811    N_1165
    SLICE_X3Y62                                                       r  O_OBUF[10]_inst_i_9/I0
    SLICE_X3Y62          LUT4 (Prop_lut4_I0_O)        0.043     4.854 r  O_OBUF[10]_inst_i_9/O
                         net (fo=3, routed)           0.336     5.189    N_1182
    SLICE_X2Y63                                                       r  O_OBUF[10]_inst_i_5/I1
    SLICE_X2Y63          LUT4 (Prop_lut4_I1_O)        0.043     5.232 r  O_OBUF[10]_inst_i_5/O
                         net (fo=4, routed)           0.779     6.012    N_1432
    SLICE_X1Y65                                                       r  O_OBUF[9]_inst_i_3/I1
    SLICE_X1Y65          LUT4 (Prop_lut4_I1_O)        0.043     6.055 r  O_OBUF[9]_inst_i_3/O
                         net (fo=1, routed)           0.319     6.373    N_1682
    SLICE_X1Y66                                                       r  O_OBUF[9]_inst_i_1/I1
    SLICE_X1Y66          LUT4 (Prop_lut4_I1_O)        0.043     6.416 r  O_OBUF[9]_inst_i_1/O
                         net (fo=1, routed)           1.196     7.613    O_OBUF[9]
    AL30                                                              r  O_OBUF[9]_inst/I
    AL30                 OBUF (Prop_obuf_I_O)         1.831     9.444 r  O_OBUF[9]_inst/O
                         net (fo=0)                   0.000     9.444    O[9]
    AL30                                                              r  O[9] (OUT)
  -------------------------------------------------------------------    -------------------

Slack:                    inf
  Source:                 A[2]
                            (input port)
  Destination:            O[8]
                            (output port)
  Path Group:             (none)
  Path Type:              Max at Slow Process Corner
  Data Path Delay:        9.097ns  (logic 3.079ns (33.842%)  route 6.018ns (66.158%))
  Logic Levels:           11  (IBUF=1 LUT2=1 LUT4=4 LUT6=4 OBUF=1)

    Location             Delay type                Incr(ns)  Path(ns)    Netlist Resource(s)
  -------------------------------------------------------------------    -------------------
    AN27                                              0.000     0.000 f  A[2] (IN)
                         net (fo=0)                   0.000     0.000    A[2]
    AN27                                                              f  A_IBUF[2]_inst/I
    AN27                 IBUF (Prop_ibuf_I_O)         0.596     0.596 f  A_IBUF[2]_inst/O
                         net (fo=22, routed)          1.212     1.808    A_IBUF[2]
    SLICE_X1Y66                                                       f  O_OBUF[4]_inst_i_7/I1
    SLICE_X1Y66          LUT2 (Prop_lut2_I1_O)        0.049     1.857 r  O_OBUF[4]_inst_i_7/O
                         net (fo=2, routed)           0.652     2.509    O_OBUF[4]_inst_i_7_n_0
    SLICE_X1Y61                                                       r  O_OBUF[4]_inst_i_2/I5
    SLICE_X1Y61          LUT6 (Prop_lut6_I5_O)        0.129     2.638 r  O_OBUF[4]_inst_i_2/O
                         net (fo=3, routed)           0.356     2.994    N_598
    SLICE_X0Y61                                                       r  O_OBUF[5]_inst_i_3/I2
    SLICE_X0Y61          LUT6 (Prop_lut6_I2_O)        0.043     3.037 r  O_OBUF[5]_inst_i_3/O
                         net (fo=3, routed)           0.620     3.657    N_1099
    SLICE_X2Y63                                                       r  O_OBUF[6]_inst_i_9/I2
    SLICE_X2Y63          LUT6 (Prop_lut6_I2_O)        0.043     3.700 r  O_OBUF[6]_inst_i_9/O
                         net (fo=3, routed)           0.354     4.054    N_1115
    SLICE_X2Y63                                                       r  O_OBUF[7]_inst_i_5/I2
    SLICE_X2Y63          LUT4 (Prop_lut4_I2_O)        0.043     4.097 r  O_OBUF[7]_inst_i_5/O
                         net (fo=4, routed)           0.333     4.430    N_1133
    SLICE_X3Y63                                                       r  O_OBUF[9]_inst_i_8/I1
    SLICE_X3Y63          LUT6 (Prop_lut6_I1_O)        0.043     4.473 r  O_OBUF[9]_inst_i_8/O
                         net (fo=2, routed)           0.407     4.881    N_1164
    SLICE_X3Y64                                                       r  O_OBUF[9]_inst_i_5/I1
    SLICE_X3Y64          LUT4 (Prop_lut4_I1_O)        0.051     4.932 r  O_OBUF[9]_inst_i_5/O
                         net (fo=3, routed)           0.517     5.449    N_1414
    SLICE_X3Y65                                                       r  O_OBUF[8]_inst_i_3/I1
    SLICE_X3Y65          LUT4 (Prop_lut4_I1_O)        0.134     5.583 r  O_OBUF[8]_inst_i_3/O
                         net (fo=1, routed)           0.345     5.928    N_1664
    SLICE_X2Y65                                                       r  O_OBUF[8]_inst_i_1/I1
    SLICE_X2Y65          LUT4 (Prop_lut4_I1_O)        0.129     6.057 r  O_OBUF[8]_inst_i_1/O
                         net (fo=1, routed)           1.221     7.278    O_OBUF[8]
    AK28                                                              r  O_OBUF[8]_inst/I
    AK28                 OBUF (Prop_obuf_I_O)         1.819     9.097 r  O_OBUF[8]_inst/O
                         net (fo=0)                   0.000     9.097    O[8]
    AK28                                                              r  O[8] (OUT)
  -------------------------------------------------------------------    -------------------

Slack:                    inf
  Source:                 A[2]
                            (input port)
  Destination:            O[7]
                            (output port)
  Path Group:             (none)
  Path Type:              Max at Slow Process Corner
  Data Path Delay:        7.975ns  (logic 2.899ns (36.353%)  route 5.076ns (63.647%))
  Logic Levels:           9  (IBUF=1 LUT2=1 LUT4=1 LUT6=5 OBUF=1)

    Location             Delay type                Incr(ns)  Path(ns)    Netlist Resource(s)
  -------------------------------------------------------------------    -------------------
    AN27                                              0.000     0.000 f  A[2] (IN)
                         net (fo=0)                   0.000     0.000    A[2]
    AN27                                                              f  A_IBUF[2]_inst/I
    AN27                 IBUF (Prop_ibuf_I_O)         0.596     0.596 f  A_IBUF[2]_inst/O
                         net (fo=22, routed)          1.212     1.808    A_IBUF[2]
    SLICE_X1Y66                                                       f  O_OBUF[4]_inst_i_7/I1
    SLICE_X1Y66          LUT2 (Prop_lut2_I1_O)        0.049     1.857 r  O_OBUF[4]_inst_i_7/O
                         net (fo=2, routed)           0.652     2.509    O_OBUF[4]_inst_i_7_n_0
    SLICE_X1Y61                                                       r  O_OBUF[4]_inst_i_2/I5
    SLICE_X1Y61          LUT6 (Prop_lut6_I5_O)        0.129     2.638 r  O_OBUF[4]_inst_i_2/O
                         net (fo=3, routed)           0.356     2.994    N_598
    SLICE_X0Y61                                                       r  O_OBUF[5]_inst_i_3/I2
    SLICE_X0Y61          LUT6 (Prop_lut6_I2_O)        0.043     3.037 r  O_OBUF[5]_inst_i_3/O
                         net (fo=3, routed)           0.620     3.657    N_1099
    SLICE_X2Y63                                                       r  O_OBUF[6]_inst_i_9/I2
    SLICE_X2Y63          LUT6 (Prop_lut6_I2_O)        0.043     3.700 r  O_OBUF[6]_inst_i_9/O
                         net (fo=3, routed)           0.354     4.054    N_1115
    SLICE_X2Y63                                                       r  O_OBUF[6]_inst_i_3/I0
    SLICE_X2Y63          LUT4 (Prop_lut4_I0_O)        0.048     4.102 r  O_OBUF[6]_inst_i_3/O
                         net (fo=2, routed)           0.400     4.502    N_1132
    SLICE_X2Y64                                                       r  O_OBUF[7]_inst_i_3/I2
    SLICE_X2Y64          LUT6 (Prop_lut6_I2_O)        0.132     4.634 r  O_OBUF[7]_inst_i_3/O
                         net (fo=3, routed)           0.311     4.945    N_1633
    SLICE_X2Y65                                                       r  O_OBUF[7]_inst_i_1/I5
    SLICE_X2Y65          LUT6 (Prop_lut6_I5_O)        0.043     4.988 r  O_OBUF[7]_inst_i_1/O
                         net (fo=1, routed)           1.171     6.159    O_OBUF[7]
    AL28                                                              r  O_OBUF[7]_inst/I
    AL28                 OBUF (Prop_obuf_I_O)         1.816     7.975 r  O_OBUF[7]_inst/O
                         net (fo=0)                   0.000     7.975    O[7]
    AL28                                                              r  O[7] (OUT)
  -------------------------------------------------------------------    -------------------

Slack:                    inf
  Source:                 A[2]
                            (input port)
  Destination:            O[6]
                            (output port)
  Path Group:             (none)
  Path Type:              Max at Slow Process Corner
  Data Path Delay:        7.676ns  (logic 2.862ns (37.291%)  route 4.813ns (62.709%))
  Logic Levels:           8  (IBUF=1 LUT2=1 LUT4=1 LUT6=4 OBUF=1)

    Location             Delay type                Incr(ns)  Path(ns)    Netlist Resource(s)
  -------------------------------------------------------------------    -------------------
    AN27                                              0.000     0.000 f  A[2] (IN)
                         net (fo=0)                   0.000     0.000    A[2]
    AN27                                                              f  A_IBUF[2]_inst/I
    AN27                 IBUF (Prop_ibuf_I_O)         0.596     0.596 f  A_IBUF[2]_inst/O
                         net (fo=22, routed)          1.212     1.808    A_IBUF[2]
    SLICE_X1Y66                                                       f  O_OBUF[4]_inst_i_7/I1
    SLICE_X1Y66          LUT2 (Prop_lut2_I1_O)        0.049     1.857 r  O_OBUF[4]_inst_i_7/O
                         net (fo=2, routed)           0.652     2.509    O_OBUF[4]_inst_i_7_n_0
    SLICE_X1Y61                                                       r  O_OBUF[4]_inst_i_2/I5
    SLICE_X1Y61          LUT6 (Prop_lut6_I5_O)        0.129     2.638 r  O_OBUF[4]_inst_i_2/O
                         net (fo=3, routed)           0.356     2.994    N_598
    SLICE_X0Y61                                                       r  O_OBUF[5]_inst_i_3/I2
    SLICE_X0Y61          LUT6 (Prop_lut6_I2_O)        0.043     3.037 r  O_OBUF[5]_inst_i_3/O
                         net (fo=3, routed)           0.620     3.657    N_1099
    SLICE_X2Y63                                                       r  O_OBUF[6]_inst_i_9/I2
    SLICE_X2Y63          LUT6 (Prop_lut6_I2_O)        0.043     3.700 r  O_OBUF[6]_inst_i_9/O
                         net (fo=3, routed)           0.354     4.054    N_1115
    SLICE_X2Y63                                                       r  O_OBUF[6]_inst_i_3/I0
    SLICE_X2Y63          LUT4 (Prop_lut4_I0_O)        0.048     4.102 r  O_OBUF[6]_inst_i_3/O
                         net (fo=2, routed)           0.422     4.524    N_1132
    SLICE_X0Y64                                                       r  O_OBUF[6]_inst_i_1/I1
    SLICE_X0Y64          LUT6 (Prop_lut6_I1_O)        0.132     4.656 r  O_OBUF[6]_inst_i_1/O
                         net (fo=1, routed)           1.197     5.853    O_OBUF[6]
    AK26                                                              r  O_OBUF[6]_inst/I
    AK26                 OBUF (Prop_obuf_I_O)         1.823     7.676 r  O_OBUF[6]_inst/O
                         net (fo=0)                   0.000     7.676    O[6]
    AK26                                                              r  O[6] (OUT)
  -------------------------------------------------------------------    -------------------




