#-----------------------------------------------------------
# Vivado v2017.4 (64-bit)
# SW Build 2086221 on Fri Dec 15 20:54:30 MST 2017
# IP Build 2085800 on Fri Dec 15 22:25:07 MST 2017
# Start of session at: Wed Apr  4 20:50:39 2018
# Process ID: 26860
# Current directory: /home/ssatyendras/WORK/ApproxDPR/approxdpr/Gaussian_FIR_filter
# Command line: vivado
# Log file: /home/ssatyendras/WORK/ApproxDPR/approxdpr/Gaussian_FIR_filter/vivado.log
# Journal file: /home/ssatyendras/WORK/ApproxDPR/approxdpr/Gaussian_FIR_filter/vivado.jou
#-----------------------------------------------------------
start_gui
open_project /home/ssatyendras/WORK/ApproxDPR/approxdpr/Gaussian_FIR_filter/Gaussian_FIR_filter.xpr
INFO: [Project 1-313] Project file moved from '/afs/pd.inf.tu-dresden.de/users/s1780256/tmp/Gaussian_FIR_filter' since last save.
Scanning sources...
Finished scanning sources
INFO: [Project 1-230] Project 'Gaussian_FIR_filter.xpr' upgraded for this version of Vivado.
INFO: [IP_Flow 19-234] Refreshing IP repositories
INFO: [IP_Flow 19-1704] No user IP repositories specified
INFO: [IP_Flow 19-2313] Loaded Vivado IP repository '/opt/Xilinx/Vivado/2017.4/data/ip'.
update_compile_order -fileset sources_1
launch_simulation
INFO: [Vivado 12-5682] Launching behavioral simulation in '/home/ssatyendras/WORK/ApproxDPR/approxdpr/Gaussian_FIR_filter/Gaussian_FIR_filter.sim/sim_1/behav/xsim'
INFO: [SIM-utils-51] Simulation object is 'sim_1'
INFO: [SIM-utils-54] Inspecting design source files for 'top_tb' in fileset 'sim_1'...
INFO: [USF-XSim-97] Finding global include files...
INFO: [USF-XSim-98] Fetching design files from 'sim_1'...
INFO: [USF-XSim-2] XSim::Compile design
INFO: [USF-XSim-61] Executing 'COMPILE and ANALYZE' step in '/home/ssatyendras/WORK/ApproxDPR/approxdpr/Gaussian_FIR_filter/Gaussian_FIR_filter.sim/sim_1/behav/xsim'
xvhdl --incr --relax -prj top_tb_vhdl.prj
INFO: [VRFC 10-163] Analyzing VHDL file "/home/ssatyendras/WORK/ApproxDPR/approxdpr/Gaussian_FIR_filter/Gaussian_FIR_filter.srcs/sources_1/new/new_filter.vhd" into library xil_defaultlib
INFO: [VRFC 10-307] analyzing entity new_filter
INFO: [VRFC 10-163] Analyzing VHDL file "/home/ssatyendras/WORK/ApproxDPR/approxdpr/Gaussian_FIR_filter/Gaussian_FIR_filter.srcs/sources_1/new/top_tb.vhd" into library xil_defaultlib
INFO: [VRFC 10-307] analyzing entity top_tb
INFO: [USF-XSim-69] 'compile' step finished in '1' seconds
INFO: [USF-XSim-3] XSim::Elaborate design
INFO: [USF-XSim-61] Executing 'ELABORATE' step in '/home/ssatyendras/WORK/ApproxDPR/approxdpr/Gaussian_FIR_filter/Gaussian_FIR_filter.sim/sim_1/behav/xsim'
Vivado Simulator 2017.4
Copyright 1986-1999, 2001-2016 Xilinx, Inc. All Rights Reserved.
Running: /opt/Xilinx/Vivado/2017.4/bin/unwrapped/lnx64.o/xelab -wto a54ba299327b41b1a5d5f10e9ebd52b9 --incr --debug typical --relax --mt 8 -L xil_defaultlib -L secureip --snapshot top_tb_behav xil_defaultlib.top_tb -log elaborate.log 
Using 8 slave threads.
Starting static elaboration
Completed static elaboration
Starting simulation data flow analysis
Completed simulation data flow analysis
Time Resolution for simulation is 1ps
Compiling package std.standard
Compiling package std.textio
Compiling package ieee.std_logic_1164
Compiling package ieee.numeric_std
Compiling package ieee.std_logic_textio
Compiling package ieee.std_logic_arith
Compiling package ieee.std_logic_unsigned
Compiling architecture behavioral of entity xil_defaultlib.new_filter [new_filter_default]
Compiling architecture behavioral of entity xil_defaultlib.top_tb
Built simulation snapshot top_tb_behav

****** Webtalk v2017.4 (64-bit)
  **** SW Build 2086221 on Fri Dec 15 20:54:30 MST 2017
  **** IP Build 2085800 on Fri Dec 15 22:25:07 MST 2017
    ** Copyright 1986-2017 Xilinx, Inc. All Rights Reserved.

source /home/ssatyendras/WORK/ApproxDPR/approxdpr/Gaussian_FIR_filter/Gaussian_FIR_filter.sim/sim_1/behav/xsim/xsim.dir/top_tb_behav/webtalk/xsim_webtalk.tcl -notrace
INFO: [Common 17-186] '/home/ssatyendras/WORK/ApproxDPR/approxdpr/Gaussian_FIR_filter/Gaussian_FIR_filter.sim/sim_1/behav/xsim/xsim.dir/top_tb_behav/webtalk/usage_statistics_ext_xsim.xml' has been successfully sent to Xilinx on Wed Apr  4 20:59:55 2018. For additional details about this file, please refer to the WebTalk help file at /opt/Xilinx/Vivado/2017.4/doc/webtalk_introduction.html.
INFO: [Common 17-206] Exiting Webtalk at Wed Apr  4 20:59:55 2018...
run_program: Time (s): cpu = 00:00:03 ; elapsed = 00:00:16 . Memory (MB): peak = 6229.387 ; gain = 0.000 ; free physical = 22896 ; free virtual = 59991
INFO: [USF-XSim-69] 'elaborate' step finished in '15' seconds
INFO: [USF-XSim-4] XSim::Simulate design
INFO: [USF-XSim-61] Executing 'SIMULATE' step in '/home/ssatyendras/WORK/ApproxDPR/approxdpr/Gaussian_FIR_filter/Gaussian_FIR_filter.sim/sim_1/behav/xsim'
INFO: [USF-XSim-98] *** Running xsim
   with args "top_tb_behav -key {Behavioral:sim_1:Functional:top_tb} -tclbatch {top_tb.tcl} -log {simulate.log}"
INFO: [USF-XSim-8] Loading simulator feature
Vivado Simulator 2017.4
Time resolution is 1 ps
source top_tb.tcl
# set curr_wave [current_wave_config]
# if { [string length $curr_wave] == 0 } {
#   if { [llength [get_objects]] > 0} {
#     add_wave /
#     set_property needs_save false [current_wave_config]
#   } else {
#      send_msg_id Add_Wave-1 WARNING "No top level signals found. Simulator will start without a wave window. If you want to open a wave window go to 'File->New Waveform Configuration' or type 'create_wave_config' in the TCL console."
#   }
# }
WARNING: Simulation object /top_tb/file_output was not traceable in the design for the following reason:
Vivado Simulator does not yet support tracing of VHDL variables.
WARNING: Simulation object /top_tb/file_input was not traceable in the design for the following reason:
Vivado Simulator does not yet support tracing of VHDL variables.
# run all
ERROR: File /afs/pd.inf.tu-dresden.de/users/s1780256/tmp/project_FIR_2/data_in.txt is not open. Cannot call endfile on it
Time: 0 ps  Iteration: 0  Process: /top_tb/stimuli
  File: /home/ssatyendras/WORK/ApproxDPR/approxdpr/Gaussian_FIR_filter/Gaussian_FIR_filter.srcs/sources_1/new/top_tb.vhd

HDL Line: /home/ssatyendras/WORK/ApproxDPR/approxdpr/Gaussian_FIR_filter/Gaussian_FIR_filter.srcs/sources_1/new/top_tb.vhd:87
INFO: [USF-XSim-96] XSim completed. Design snapshot 'top_tb_behav' loaded.
INFO: [USF-XSim-97] XSim simulation ran for -all
launch_simulation: Time (s): cpu = 00:00:10 ; elapsed = 00:00:20 . Memory (MB): peak = 6305.871 ; gain = 76.484 ; free physical = 22847 ; free virtual = 59952
run all
ERROR: [Simulator 45-1] A fatal run-time error was detected.  Simulation cannot continue.
add_bp {/home/ssatyendras/WORK/ApproxDPR/approxdpr/Gaussian_FIR_filter/Gaussian_FIR_filter.srcs/sources_1/new/top_tb.vhd} 95
remove_bps -file {/home/ssatyendras/WORK/ApproxDPR/approxdpr/Gaussian_FIR_filter/Gaussian_FIR_filter.srcs/sources_1/new/top_tb.vhd} -line 95
close_sim
INFO: [Simtcl 6-16] Simulation closed
close_sim: Time (s): cpu = 00:00:02 ; elapsed = 00:00:15 . Memory (MB): peak = 6347.688 ; gain = 0.000 ; free physical = 22311 ; free virtual = 59484
launch_simulation
INFO: [Vivado 12-5682] Launching behavioral simulation in '/home/ssatyendras/WORK/ApproxDPR/approxdpr/Gaussian_FIR_filter/Gaussian_FIR_filter.sim/sim_1/behav/xsim'
INFO: [SIM-utils-51] Simulation object is 'sim_1'
INFO: [SIM-utils-54] Inspecting design source files for 'top_tb' in fileset 'sim_1'...
INFO: [USF-XSim-97] Finding global include files...
INFO: [USF-XSim-98] Fetching design files from 'sim_1'...
INFO: [USF-XSim-2] XSim::Compile design
INFO: [USF-XSim-61] Executing 'COMPILE and ANALYZE' step in '/home/ssatyendras/WORK/ApproxDPR/approxdpr/Gaussian_FIR_filter/Gaussian_FIR_filter.sim/sim_1/behav/xsim'
xvhdl --incr --relax -prj top_tb_vhdl.prj
INFO: [VRFC 10-163] Analyzing VHDL file "/home/ssatyendras/WORK/ApproxDPR/approxdpr/Gaussian_FIR_filter/Gaussian_FIR_filter.srcs/sources_1/new/top_tb.vhd" into library xil_defaultlib
INFO: [VRFC 10-307] analyzing entity top_tb
ERROR: [VRFC 10-1412] syntax error near % [/home/ssatyendras/WORK/ApproxDPR/approxdpr/Gaussian_FIR_filter/Gaussian_FIR_filter.srcs/sources_1/new/top_tb.vhd:89]
ERROR: [VRFC 10-1412] syntax error near % [/home/ssatyendras/WORK/ApproxDPR/approxdpr/Gaussian_FIR_filter/Gaussian_FIR_filter.srcs/sources_1/new/top_tb.vhd:92]
ERROR: [VRFC 10-1412] syntax error near % [/home/ssatyendras/WORK/ApproxDPR/approxdpr/Gaussian_FIR_filter/Gaussian_FIR_filter.srcs/sources_1/new/top_tb.vhd:94]
ERROR: [VRFC 10-1412] syntax error near % [/home/ssatyendras/WORK/ApproxDPR/approxdpr/Gaussian_FIR_filter/Gaussian_FIR_filter.srcs/sources_1/new/top_tb.vhd:95]
ERROR: [VRFC 10-1412] syntax error near % [/home/ssatyendras/WORK/ApproxDPR/approxdpr/Gaussian_FIR_filter/Gaussian_FIR_filter.srcs/sources_1/new/top_tb.vhd:97]
ERROR: [VRFC 10-1412] syntax error near % [/home/ssatyendras/WORK/ApproxDPR/approxdpr/Gaussian_FIR_filter/Gaussian_FIR_filter.srcs/sources_1/new/top_tb.vhd:99]
ERROR: [VRFC 10-1412] syntax error near % [/home/ssatyendras/WORK/ApproxDPR/approxdpr/Gaussian_FIR_filter/Gaussian_FIR_filter.srcs/sources_1/new/top_tb.vhd:100]
ERROR: [VRFC 10-1412] syntax error near % [/home/ssatyendras/WORK/ApproxDPR/approxdpr/Gaussian_FIR_filter/Gaussian_FIR_filter.srcs/sources_1/new/top_tb.vhd:102]
ERROR: [VRFC 10-1412] syntax error near % [/home/ssatyendras/WORK/ApproxDPR/approxdpr/Gaussian_FIR_filter/Gaussian_FIR_filter.srcs/sources_1/new/top_tb.vhd:104]
ERROR: [VRFC 10-1412] syntax error near % [/home/ssatyendras/WORK/ApproxDPR/approxdpr/Gaussian_FIR_filter/Gaussian_FIR_filter.srcs/sources_1/new/top_tb.vhd:105]
ERROR: [VRFC 10-1412] syntax error near % [/home/ssatyendras/WORK/ApproxDPR/approxdpr/Gaussian_FIR_filter/Gaussian_FIR_filter.srcs/sources_1/new/top_tb.vhd:107]
ERROR: [VRFC 10-1412] syntax error near % [/home/ssatyendras/WORK/ApproxDPR/approxdpr/Gaussian_FIR_filter/Gaussian_FIR_filter.srcs/sources_1/new/top_tb.vhd:109]
ERROR: [VRFC 10-1412] syntax error near % [/home/ssatyendras/WORK/ApproxDPR/approxdpr/Gaussian_FIR_filter/Gaussian_FIR_filter.srcs/sources_1/new/top_tb.vhd:110]
ERROR: [VRFC 10-1504] unit behavioral ignored due to previous errors [/home/ssatyendras/WORK/ApproxDPR/approxdpr/Gaussian_FIR_filter/Gaussian_FIR_filter.srcs/sources_1/new/top_tb.vhd:40]
INFO: [VRFC 10-240] VHDL file /home/ssatyendras/WORK/ApproxDPR/approxdpr/Gaussian_FIR_filter/Gaussian_FIR_filter.srcs/sources_1/new/top_tb.vhd ignored due to errors
INFO: [USF-XSim-69] 'compile' step finished in '1' seconds
INFO: [USF-XSim-99] Step results log file:'/home/ssatyendras/WORK/ApproxDPR/approxdpr/Gaussian_FIR_filter/Gaussian_FIR_filter.sim/sim_1/behav/xsim/xvhdl.log'
ERROR: [USF-XSim-62] 'compile' step failed with error(s). Please check the Tcl console output or '/home/ssatyendras/WORK/ApproxDPR/approxdpr/Gaussian_FIR_filter/Gaussian_FIR_filter.sim/sim_1/behav/xsim/xvhdl.log' file for more information.
ERROR: [Vivado 12-4473] Detected error while running simulation. Please correct the issue and retry this operation.
ERROR: [Common 17-39] 'launch_simulation' failed due to earlier errors.
launch_simulation
INFO: [Vivado 12-5682] Launching behavioral simulation in '/home/ssatyendras/WORK/ApproxDPR/approxdpr/Gaussian_FIR_filter/Gaussian_FIR_filter.sim/sim_1/behav/xsim'
INFO: [SIM-utils-51] Simulation object is 'sim_1'
INFO: [SIM-utils-54] Inspecting design source files for 'top_tb' in fileset 'sim_1'...
INFO: [USF-XSim-97] Finding global include files...
INFO: [USF-XSim-98] Fetching design files from 'sim_1'...
INFO: [USF-XSim-2] XSim::Compile design
INFO: [USF-XSim-61] Executing 'COMPILE and ANALYZE' step in '/home/ssatyendras/WORK/ApproxDPR/approxdpr/Gaussian_FIR_filter/Gaussian_FIR_filter.sim/sim_1/behav/xsim'
xvhdl --incr --relax -prj top_tb_vhdl.prj
INFO: [VRFC 10-163] Analyzing VHDL file "/home/ssatyendras/WORK/ApproxDPR/approxdpr/Gaussian_FIR_filter/Gaussian_FIR_filter.srcs/sources_1/new/top_tb.vhd" into library xil_defaultlib
INFO: [VRFC 10-307] analyzing entity top_tb
INFO: [USF-XSim-69] 'compile' step finished in '1' seconds
INFO: [USF-XSim-3] XSim::Elaborate design
INFO: [USF-XSim-61] Executing 'ELABORATE' step in '/home/ssatyendras/WORK/ApproxDPR/approxdpr/Gaussian_FIR_filter/Gaussian_FIR_filter.sim/sim_1/behav/xsim'
Vivado Simulator 2017.4
Copyright 1986-1999, 2001-2016 Xilinx, Inc. All Rights Reserved.
Running: /opt/Xilinx/Vivado/2017.4/bin/unwrapped/lnx64.o/xelab -wto a54ba299327b41b1a5d5f10e9ebd52b9 --incr --debug typical --relax --mt 8 -L xil_defaultlib -L secureip --snapshot top_tb_behav xil_defaultlib.top_tb -log elaborate.log 
Using 8 slave threads.
Starting static elaboration
Completed static elaboration
Starting simulation data flow analysis
Completed simulation data flow analysis
Time Resolution for simulation is 1ps
Compiling package std.standard
Compiling package std.textio
Compiling package ieee.std_logic_1164
Compiling package ieee.numeric_std
Compiling package ieee.std_logic_textio
Compiling package ieee.std_logic_arith
Compiling package ieee.std_logic_unsigned
Compiling architecture behavioral of entity xil_defaultlib.new_filter [new_filter_default]
Compiling architecture behavioral of entity xil_defaultlib.top_tb
Built simulation snapshot top_tb_behav
run_program: Time (s): cpu = 00:00:01 ; elapsed = 00:00:11 . Memory (MB): peak = 6347.688 ; gain = 0.000 ; free physical = 22304 ; free virtual = 59478
INFO: [USF-XSim-69] 'elaborate' step finished in '11' seconds
INFO: [USF-XSim-4] XSim::Simulate design
INFO: [USF-XSim-61] Executing 'SIMULATE' step in '/home/ssatyendras/WORK/ApproxDPR/approxdpr/Gaussian_FIR_filter/Gaussian_FIR_filter.sim/sim_1/behav/xsim'
INFO: [USF-XSim-98] *** Running xsim
   with args "top_tb_behav -key {Behavioral:sim_1:Functional:top_tb} -tclbatch {top_tb.tcl} -log {simulate.log}"
INFO: [USF-XSim-8] Loading simulator feature
Vivado Simulator 2017.4
Time resolution is 1 ps
source top_tb.tcl
# set curr_wave [current_wave_config]
# if { [string length $curr_wave] == 0 } {
#   if { [llength [get_objects]] > 0} {
#     add_wave /
#     set_property needs_save false [current_wave_config]
#   } else {
#      send_msg_id Add_Wave-1 WARNING "No top level signals found. Simulator will start without a wave window. If you want to open a wave window go to 'File->New Waveform Configuration' or type 'create_wave_config' in the TCL console."
#   }
# }
WARNING: Simulation object /top_tb/file_output was not traceable in the design for the following reason:
Vivado Simulator does not yet support tracing of VHDL variables.
WARNING: Simulation object /top_tb/file_input was not traceable in the design for the following reason:
Vivado Simulator does not yet support tracing of VHDL variables.
# run all
Error: File 
Time: 810 ns  Iteration: 0  Process: /top_tb/stimuli  File: /home/ssatyendras/WORK/ApproxDPR/approxdpr/Gaussian_FIR_filter/Gaussian_FIR_filter.srcs/sources_1/new/top_tb.vhd
INFO: [USF-XSim-96] XSim completed. Design snapshot 'top_tb_behav' loaded.
INFO: [USF-XSim-97] XSim simulation ran for -all
launch_simulation: Time (s): cpu = 00:00:06 ; elapsed = 00:00:14 . Memory (MB): peak = 6366.465 ; gain = 18.777 ; free physical = 22288 ; free virtual = 59462
close_sim
INFO: [Simtcl 6-16] Simulation closed
close_sim: Time (s): cpu = 00:00:01 ; elapsed = 00:00:11 . Memory (MB): peak = 6368.465 ; gain = 0.000 ; free physical = 22237 ; free virtual = 59416
