1364
-5558
-8015
2792
-12641
-25942
-14034
-1446
-23209
-5181
18776
4411
-15685
-17048
-28612
-25774
-6369
-6190
16063
17553
208
4295
24735
10012
6707
4334
-25445
-43418
-28964
-33647
-26435
-7609
-12147
-25120
-24736
-15778
-3564
-4531
11500
28378
23797
13030
29432
2001
-10035
-16716
-12348
-22299
-13788
6287
19980
24212
27895
37416
21342
1045
-21347
-25409
-42994
-38417
-37060
-23727
-11079
-7860
5545
23449
24058
16607
23186
-105
-21393
-32649
-39385
-20312
3705
14435
29900
34897
6965
-8893
-11944
-32099
-26138
2183
309
-4873
17569
24652
3504
11043
17290
1142
-19226
-19554
-25297
-21444
-22369
-5606
-9086
-2896
1040
17718
17051
20375
21332
23693
19082
31065
52232
35643
9119
-6207
-8517
-8840
-6686
4011
15813
-4937
-20359
-5128
-666
4718
12858
-1681
-11531
-12077
-21915
-27142
-11437
-9833
-22422
-26662
-8268
-22848
-35481
-29756
-20293
-18461
12479
42951
37703
39859
24713
-1176
-2668
1477
12069
14170
14427
-3317
-5343
-24091
-23653
-6627
-3088
827
5957
1006
-10234
-15453
-18828
-22923
-21292
-4156
8976
26951
24570
19603
11618
11054
-9403
-17068
-13888
-29637
-21721
1439
13989
6578
5375
5560
1681
12934
18567
22024
219
4611
-7413
1645
19217
17752
-6876
869
10087
15201
23267
40627
40344
38408
13717
10792
3618
2318
-12411
9618
23661
12935
352
17357
-8432
-19438
8194
24292
3227
20699
18526
7002
9715
18091
15006
11274
674
-10554
-25422
-21007
-5932
16160
21109
33948
29011
34177
10884
2311
17831
3508
-4872
-10922
-14217
-43009
-42260
-60904
-56426
-46693
-34982
-10396
-6016
-5492
-3040
10155
2046
16903
29967
25040
25139
36615
41440
30567
40285
26720
20592
6956
4686
-976
-7245
-3358
9756
20511
10604
21328
-1269
-1909
12078
24838
14168
36773
36586
8363
-8978
1547
-21460
-25423
3952
6029
11517
8528
-2744
-4391
6811
2307
30143
25414
-3999
-18623
-21521
-34943
-15146
11693
12684
9827
7123
-16478
-43346
-25429
-30337
-20726
-8965
-4825
-23816
-22913
-20102
-32629
-35572
-24130
-12587
-14593
539
10550
18881
11592
-1074
-13470
-23555
-47374
-40308
-28716
-23414
-4984
-5859
6
-17800
-20221
-25819
-3690
-3896
-370
-3458
6066
-1194
-2949
19796
32697
22405
23739
17618
4569
-865
1567
11781
23835
20922
36360
39002
16984
-12160
-24299
-45980
-59060
-39978
-32229
-8308
3865
1221
-535
19460
25043
31813
49265
41772
24207
25240
5255
11615
2722
9015
-5768
9491
1687
-746
-10437
-22106
-38828
-29637
-24243
-28996
-21915
-11101
-19693
-22633
-5270
-14041
-8023
-25602
-16213
-20570
-14290
-18169
-20380
-18971
-35291
-28933
-27487
-26790
-15724
3612
9350
8460
28566
4381
5432
2045
17470
20693
33637
27531
32682
28157
32559
40381
26939
27507
18172
16843
5560
21612
25851
26876
4948
11746
-5080
-21846
-13980
-1546
-17892
-8025
9605
-14585
-8039
-7053
-10975
-20459
-16919
-29349
-22324
-8378
-12576
-1782
2685
15258
20006
8708
24511
10054
15847
-5408
-8218
-17494
10491
2152
19535
21682
4757
-20943
-40779
-31011
-18722
-9762
-4239
8068
-18137
-29662
-18435
-21989
-34556
-27053
-3867
-15597
2190
30910
19516
-5434
2414
6128
-9152
-7295
-8334
-27449
-49341
-37118
-9164
-7078
16589
33857
27869
25395
28477
17591
4328
3271
-14662
-6146
-12979
-6531
-22070
-13253
-13838
-19349
-19636
-18499
-15313
-12768
-9293
-10173
-6738
-1210
-4421
-8536
3405
20456
3260
-2607
-4070
-22831
-48284
-27618
-12856
2949
4387
7396
-9058
-22935
-10133
-17948
-10133
-23680
-15034
-27049
-25581
-17081
-12922
-14866
-21261
-17850
-34695
-35658
-50198
-48319
-31694
-8821
7543
17951
25505
10973
7050
16311
7606
7045
8169
9148
10402
14739
-4503
3882
-17643
-26244
-14045
-15031
-22893
-11402
-31841
-39140
-22026
-34034
-43415
-16013
-16426
-24123
-6081
5156
4815
2486
2047
-6902
-20455
-39015
-24685
-23058
-23446
3360
25658
13886
18139
34839
7756
-7776
7678
17084
17013
15665
20734
24586
22590
10220
14975
23197
5668
6352
14778
34677
34392
36533
17234
13392
17450
1831
13138
23543
31053
7464
6515
3625
9955
8881
31979
31010
36132
22534
91
-22810
-10409
-26566
-14491
-8840
-2861
-21764
-21918
-12987
6748
23089
30443
49450
37350
37885
21258
18338
7347
14272
10290
16723
33702
33991
20243
23616
10128
-5
-8349
2414
-7199
1792
10866
11447
11465
9947
10952
4152
22872
11496
19030
32422
31645
28267
42263
29943
26429
15400
16528
23737
32763
23166
24869
9769
3301
-7220
-16705
-16441
-12822
-20711
-13821
-4950
9649
3979
13667
24994
14592
9288
12874
19757
-4397
13062
2146
17194
-2418
-2292
6007
12505
-3447
2081
28881
13629
-395
13622
20445
14109
2265
25027
17686
23298
16629
35647
38768
29990
16350
3972
-12885
-21656
-25675
-35153
-23205
773
-10345
3683
21972
30313
29723
32670
30502
11703
9551
-4145
-385
-1297
8331
10611
13097
26027
16240
22657
7833
10750
-4802
-13439
-21333
-8994
-21488
-13013
-11056
-5186
-25578
-32303
-35836
-30323
-39259
-20561
7917
8448
21630
29116
20922
12148
3275
7508
-1671
-10265
-18029
-17168
-35327
-24256
-13858
1330
17477
19770
21664
14877
-7498
-10536
-8075
-23859
-19219
-22773
-34294
-19424
4323
13327
16610
22634
4079
-8165
-11882
-3384
4253
22447
31382
44990
59210
38797
14119
18695
-10280
-11832
-785
4609
-3673
9858
-5525
-17827
-1324
-8908
272
657
6571
3633
14881
15738
7466
8487
-13408
-9006
-27339
-18612
-17172
-11619
-36886
-19894
-6
9936
8630
27246
24297
-5073
-11628
-5376
-16060
-30380
-14883
-7807
5918
15705
11629
18851
17909
11105
-12451
-13735
-34675
-47182
-64250
-56136
-49312
-27952
-29555
-3516
-4706
-9183
-11889
-2442
-11428
-6525
7934
10135
-1232
-11324
262
-8671
-15303
-8930
-15251
-22983
-9089
3612
3143
14523
15693
11531
-16196
-3331
-7954
-2868
-12964
-6021
-23968
-23613
-21776
-11719
8824
26101
31992
20843
32414
6487
991
13362
23097
14061
27603
16885
7911
-12668
-12317
-22996
-21799
-38698
-24740
-36531
-26835
-18107
-6777
-10433
-11504
-25643
-16061
-24706
-8704
-2623
8669
-14118
2449
-19836
-30840
-22403
-12623
-15716
-5875
-8163
-7007
-11135
1203
15326
37674
36660
29777
17169
9616
-11702
-19239
10046
-6940
-11150
-10473
-17252
-26315
-22604
-25179
2692
12702
10062
32347
46319
21018
10881
-4750
-4633
-7767
19490
36905
36664
37746
11745
-2842
-3855
20508
1302
21299
8061
2303
-19747
-15640
-5295
-6907
-19606
-9912
-19537
-20662
-3397
4914
14293
31798
25981
17295
8136
-17036
-36168
-51201
-41954
-17302
11238
38676
40949
41894
20901
-3168
-32621
-24789
-29622
-22729
-11482
3100
