[2, 2, 2, 2, 2, 2, 2, 2, 2],(0.42045454545454547, 0.8826474926028058)
[2, 2, 2, 2, 2, 2, 2, 2, 0],(0.48484848484848486, 0.9000088627949688)
[0, 2, 2, 2, 2, 2, 2, 2, 0],(0.5492424242424242, 0.9218954625736739)
[2, 2, 0, 2, 0, 2, 2, 2, 0],(0.6136363636363636, 0.942223375898229)
[0, 2, 0, 2, 2, 2, 0, 2, 0],(0.678030303030303, 0.9703721891392135)
[0, 2, 0, 2, 0, 2, 0, 2, 0],(0.7424242424242424, 0.9984499414162313)
[0, 0, 0, 0, 0, 2, 0, 2, 0],(0.8712121212121212, 0.9992273306074012)
[0, 0, 0, 0, 0, 0, 0, 2, 0],(0.9356060606060606, 0.9995991790847474)
