[2, 2, 2, 2, 2, 2],(0.42045454545454547, 0.7748224643634775)
[2, 2, 2, 2, 1, 2],(0.42613636363636365, 0.839349394919084)
[2, 2, 1, 2, 1, 2],(0.4318181818181818, 0.8825198154452739)
[2, 1, 1, 2, 1, 2],(0.4375, 0.9581807662591086)
[1, 1, 1, 2, 1, 2],(0.4431818181818182, 0.9961782416828595)
[1, 1, 1, 2, 1, 1],(0.44886363636363635, 0.9976390208016276)
[1, 1, 1, 1, 1, 1],(0.45454545454545453, 1.0)
