[2, 2, 2, 2, 2, 2],(0.42045454545454547, 0.8707727566005603)
[2, 2, 2, 2, 1, 2],(0.42613636363636365, 0.9140205699669947)
[2, 1, 2, 2, 1, 2],(0.4318181818181818, 0.9409991875795125)
[2, 1, 1, 2, 1, 2],(0.4375, 0.9789640594232352)
[1, 1, 1, 2, 1, 2],(0.4431818181818182, 0.9981022250579068)
[1, 1, 1, 1, 1, 2],(0.44886363636363635, 0.9991206282871844)
[1, 1, 1, 1, 1, 1],(0.45454545454545453, 1.0)
