[2, 2, 2, 2, 2, 2, 2, 2, 2, 2, 2, 2, 2, 2, 2, 2, 2, 2, 2, 2, 2, 2, 2, 2, 2],(0.42045454545454547, 0.9017070662747885)
[2, 2, 2, 2, 2, 2, 2, 2, 2, 2, 2, 2, 2, 2, 2, 2, 2, 2, 2, 2, 2, 2, 2, 0, 2],(0.44363636363636366, 0.9075239446226759)
[2, 0, 2, 2, 2, 2, 2, 2, 2, 2, 2, 2, 2, 2, 2, 2, 2, 2, 0, 2, 2, 2, 2, 2, 2],(0.4668181818181818, 0.9119715843618172)
[2, 0, 2, 2, 2, 2, 2, 2, 2, 2, 2, 2, 2, 2, 2, 0, 2, 2, 2, 2, 2, 0, 2, 2, 2],(0.49, 0.9168528638314681)
[2, 2, 2, 2, 2, 2, 2, 2, 0, 2, 2, 2, 2, 2, 2, 0, 0, 2, 2, 2, 2, 2, 2, 0, 2],(0.5131818181818182, 0.9228643049605421)
[2, 0, 2, 2, 2, 2, 0, 2, 0, 2, 2, 2, 2, 2, 2, 0, 2, 0, 2, 2, 2, 2, 2, 0, 2],(0.5595454545454546, 0.9268950165891903)
[2, 2, 2, 0, 0, 2, 2, 2, 0, 2, 2, 2, 2, 0, 2, 0, 2, 2, 0, 2, 2, 2, 2, 0, 2],(0.5827272727272728, 0.9303708570889531)
[2, 2, 2, 2, 2, 2, 0, 2, 0, 0, 2, 2, 0, 0, 2, 2, 2, 2, 0, 2, 0, 2, 2, 0, 2],(0.605909090909091, 0.9362997311530045)
[0, 2, 2, 0, 2, 2, 0, 2, 2, 0, 2, 2, 0, 2, 2, 0, 2, 2, 2, 0, 2, 0, 2, 2, 0],(0.6290909090909091, 0.9406283582481902)
[2, 0, 0, 2, 2, 0, 2, 2, 0, 2, 2, 2, 0, 0, 2, 0, 0, 2, 0, 2, 2, 0, 2, 2, 2],(0.6522727272727272, 0.949208951022639)
[2, 0, 2, 0, 2, 0, 0, 2, 0, 0, 2, 2, 0, 0, 2, 2, 2, 2, 0, 2, 0, 2, 2, 0, 2],(0.6754545454545454, 0.9536817508143273)
[2, 0, 0, 2, 2, 0, 0, 0, 0, 0, 2, 2, 0, 2, 2, 2, 0, 2, 0, 2, 2, 2, 0, 0, 2],(0.6986363636363636, 0.9551084175166621)
[2, 0, 2, 0, 2, 0, 0, 0, 2, 0, 2, 2, 0, 2, 2, 0, 2, 2, 0, 0, 2, 0, 0, 0, 2],(0.7218181818181818, 0.9698636355425658)
[0, 0, 2, 0, 2, 0, 0, 0, 2, 0, 2, 2, 0, 2, 2, 0, 2, 2, 0, 0, 2, 0, 0, 0, 2],(0.745, 0.9704056714192502)
[2, 0, 0, 0, 2, 2, 0, 2, 0, 2, 2, 2, 0, 2, 0, 0, 0, 2, 0, 0, 0, 0, 0, 0, 2],(0.7681818181818182, 0.9737294921900465)
