2200,1000,925,inf,55.77448959045802,1.0,0.9946825487084704,
2200,1000,925,inf,50.92171041702337,1.0,0.9781115412566146,
2200,1000,925,inf,52.168084001318505,1.0,0.9869933464327052,
2200,1000,925,inf,49.060164818040946,1.0,0.9881932395002773,
2200,1000,925,inf,50.95189764041103,1.0,0.9852498441665036,
2200,1000,925,inf,48.17492419999815,1.0,0.9933373854227224,
2200,1000,925,inf,52.53384105849015,1.0,0.9906778521873457,
2200,1000,925,inf,50.219954883249954,1.0,0.9939198550307378,
2200,1000,925,inf,55.65922867562542,1.0,0.992063711364049,
2200,1000,925,inf,53.05151691690945,1.0,0.9931009805121392,
2200,1000,925,inf,51.7489824372521,1.0,0.9951189070745887,
2200,1000,925,inf,49.81860673691207,1.0,0.990489492673299,
2200,1000,925,inf,53.49759537291669,1.0,0.9958231415039962,
2200,1000,925,inf,52.386074878182704,1.0,0.994549413058689,
